%!PS-Adobe-2.0 EPSF-2.0
%%Title: /home/gijs/.chiplotle/output/20180423_160016.eps
%%Creator: hp2xx 3.4.4 (c) 1991-1994 by H. Werntges, 1999-2003 by M. Kroeker
%%CreationDate: Mon Apr 23 16:00:16 2018
%%Pages: 1
%%BoundingBox: 0 0 185 36
%%EndComments

%%BeginProcSet:
/PSSave save def
/PSDict 200 dict def
PSDict begin
/@restore /restore load def
/restore
   {vmstatus pop
    dup @VMused lt {pop @VMused} if
    exch pop exch @restore /@VMused exch def
   } def
/@pri
   {
    ( ) print
    (                                       ) cvs print
   } def
/@start
   {
    vmstatus pop /@VMused exch def pop
   } def
/@end
   {(VM Used: ) print @VMused @pri
    (. Unused: ) print vmstatus @VMused sub @pri pop pop
    (\n) print flush
    end
    PSSave restore
   } def
/bop
   {
    /SaveImage save def
   } def
/eop
   {
    showpage
    SaveImage restore
   } def
/@line
   {
%%    1 setlinejoin      %% now set from LA command
%%    1 setmiterlimit    %% now set from LA command
   } def
/@SetPlot
   {
    2.834646 2.834646 scale
      0.050   0.050 translate
     0.100 setlinewidth
   } def
/C {setrgbcolor} def
/D {lineto} def
/M {moveto} def
/S {stroke} def
/W {setlinewidth} def
/Z {stroke newpath} def
end
%%EndProcSet

%%BeginSetup
/#copies 1 def
%%EndSetup
%%Page: 1 1
%%BeginPageSetup
PSDict begin
@start
@line
@SetPlot

bop
%%EndPageSetup
  0.100 W
 S
-166.15  -0.15 M  0.100 W
 S
-166.15  -0.15 M 1 setlinecap
 S
-166.15  -0.15 M 1 setlinejoin
 S
  9.05   9.20 M   8.50  10.30 D   7.40  11.40 D   6.30  11.95 D   4.10  11.95 D
  3.00  11.40 D   1.90  10.30 D   1.35   9.20 D   0.80   7.55 D
  0.80   4.80 D   1.35   3.15 D   1.90   2.05 D   3.00   0.95 D
  4.10   0.40 D   6.30   0.40 D   7.40   0.95 D   8.50   2.05 D
  9.05   3.15 D S
 14.55   8.10 M  13.45   7.55 D  12.35   6.45 D  11.80   4.80 D  11.80   3.70 D
 12.35   2.05 D  13.45   0.95 D  14.55   0.40 D  16.20   0.40 D
 17.30   0.95 D  18.40   2.05 D  18.95   3.70 D  18.95   4.80 D
 18.40   6.45 D  17.30   7.55 D  16.20   8.10 D  14.55   8.10 D S
 22.25  11.95 M  22.25   0.40 D S
 28.85   8.10 M  27.75   7.55 D  26.65   6.45 D  26.10   4.80 D  26.10   3.70 D
 26.65   2.05 D  27.75   0.95 D  28.85   0.40 D  30.50   0.40 D
 31.60   0.95 D  32.70   2.05 D  33.25   3.70 D  33.25   4.80 D
 32.70   6.45 D  31.60   7.55 D  30.50   8.10 D  28.85   8.10 D S
 36.55   8.10 M  36.55   0.40 D S
 36.55   4.80 M  37.10   6.45 D  38.20   7.55 D  39.30   8.10 D  40.95   8.10 D S
 44.25  11.95 M  44.25   0.40 D S
 54.70   8.10 M  54.70   0.40 D S
 54.70   6.45 M  53.60   7.55 D  52.50   8.10 D  50.85   8.10 D  49.75   7.55 D
 48.65   6.45 D  48.10   4.80 D  48.10   3.70 D  48.65   2.05 D
 49.75   0.95 D  50.85   0.40 D  52.50   0.40 D  53.60   0.95 D
 54.70   2.05 D S
 58.55  11.95 M  58.55   0.40 D S
 58.55   6.45 M  59.65   7.55 D  60.75   8.10 D  62.40   8.10 D  63.50   7.55 D
 64.60   6.45 D  65.15   4.80 D  65.15   3.70 D  64.60   2.05 D
 63.50   0.95 D  62.40   0.40 D  60.75   0.40 D  59.65   0.95 D
 58.55   2.05 D S
  8.65   8.80 M   8.10   9.90 D   7.00  11.00 D   5.90  11.55 D   3.70  11.55 D
  2.60  11.00 D   1.50   9.90 D   0.95   8.80 D   0.40   7.15 D
  0.40   4.40 D   0.95   2.75 D   1.50   1.65 D   2.60   0.55 D
  3.70   0.00 D   5.90   0.00 D   7.00   0.55 D   8.10   1.65 D
  8.65   2.75 D S
 14.15   7.70 M  13.05   7.15 D  11.95   6.05 D  11.40   4.40 D  11.40   3.30 D
 11.95   1.65 D  13.05   0.55 D  14.15   0.00 D  15.80   0.00 D
 16.90   0.55 D  18.00   1.65 D  18.55   3.30 D  18.55   4.40 D
 18.00   6.05 D  16.90   7.15 D  15.80   7.70 D  14.15   7.70 D S
 21.85  11.55 M  21.85   0.00 D S
 28.45   7.70 M  27.35   7.15 D  26.25   6.05 D  25.70   4.40 D  25.70   3.30 D
 26.25   1.65 D  27.35   0.55 D  28.45   0.00 D  30.10   0.00 D
 31.20   0.55 D  32.30   1.65 D  32.85   3.30 D  32.85   4.40 D
 32.30   6.05 D  31.20   7.15 D  30.10   7.70 D  28.45   7.70 D S
 36.15   7.70 M  36.15   0.00 D S
 36.15   4.40 M  36.70   6.05 D  37.80   7.15 D  38.90   7.70 D  40.55   7.70 D S
 43.85  11.55 M  43.85   0.00 D S
 54.30   7.70 M  54.30   0.00 D S
 54.30   6.05 M  53.20   7.15 D  52.10   7.70 D  50.45   7.70 D  49.35   7.15 D
 48.25   6.05 D  47.70   4.40 D  47.70   3.30 D  48.25   1.65 D
 49.35   0.55 D  50.45   0.00 D  52.10   0.00 D  53.20   0.55 D
 54.30   1.65 D S
 58.15  11.55 M  58.15   0.00 D S
 58.15   6.05 M  59.25   7.15 D  60.35   7.70 D  62.00   7.70 D  63.10   7.15 D
 64.20   6.05 D  64.75   4.40 D  64.75   3.30 D  64.20   1.65 D
 63.10   0.55 D  62.00   0.00 D  60.35   0.00 D  59.25   0.55 D
 58.15   1.65 D S
  8.25   9.20 M   7.70  10.30 D   6.60  11.40 D   5.50  11.95 D   3.30  11.95 D
  2.20  11.40 D   1.10  10.30 D   0.55   9.20 D   0.00   7.55 D
  0.00   4.80 D   0.55   3.15 D   1.10   2.05 D   2.20   0.95 D
  3.30   0.40 D   5.50   0.40 D   6.60   0.95 D   7.70   2.05 D
  8.25   3.15 D S
 13.75   8.10 M  12.65   7.55 D  11.55   6.45 D  11.00   4.80 D  11.00   3.70 D
 11.55   2.05 D  12.65   0.95 D  13.75   0.40 D  15.40   0.40 D
 16.50   0.95 D  17.60   2.05 D  18.15   3.70 D  18.15   4.80 D
 17.60   6.45 D  16.50   7.55 D  15.40   8.10 D  13.75   8.10 D S
 21.45  11.95 M  21.45   0.40 D S
 28.05   8.10 M  26.95   7.55 D  25.85   6.45 D  25.30   4.80 D  25.30   3.70 D
 25.85   2.05 D  26.95   0.95 D  28.05   0.40 D  29.70   0.40 D
 30.80   0.95 D  31.90   2.05 D  32.45   3.70 D  32.45   4.80 D
 31.90   6.45 D  30.80   7.55 D  29.70   8.10 D  28.05   8.10 D S
 35.75   8.10 M  35.75   0.40 D S
 35.75   4.80 M  36.30   6.45 D  37.40   7.55 D  38.50   8.10 D  40.15   8.10 D S
 43.45  11.95 M  43.45   0.40 D S
 53.90   8.10 M  53.90   0.40 D S
 53.90   6.45 M  52.80   7.55 D  51.70   8.10 D  50.05   8.10 D  48.95   7.55 D
 47.85   6.45 D  47.30   4.80 D  47.30   3.70 D  47.85   2.05 D
 48.95   0.95 D  50.05   0.40 D  51.70   0.40 D  52.80   0.95 D
 53.90   2.05 D S
 57.75  11.95 M  57.75   0.40 D S
 57.75   6.45 M  58.85   7.55 D  59.95   8.10 D  61.60   8.10 D  62.70   7.55 D
 63.80   6.45 D  64.35   4.80 D  64.35   3.70 D  63.80   2.05 D
 62.70   0.95 D  61.60   0.40 D  59.95   0.40 D  58.85   0.95 D
 57.75   2.05 D S
  8.65   9.60 M   8.10  10.70 D   7.00  11.80 D   5.90  12.35 D   3.70  12.35 D
  2.60  11.80 D   1.50  10.70 D   0.95   9.60 D   0.40   7.95 D
  0.40   5.20 D   0.95   3.55 D   1.50   2.45 D   2.60   1.35 D
  3.70   0.80 D   5.90   0.80 D   7.00   1.35 D   8.10   2.45 D
  8.65   3.55 D S
 14.15   8.50 M  13.05   7.95 D  11.95   6.85 D  11.40   5.20 D  11.40   4.10 D
 11.95   2.45 D  13.05   1.35 D  14.15   0.80 D  15.80   0.80 D
 16.90   1.35 D  18.00   2.45 D  18.55   4.10 D  18.55   5.20 D
 18.00   6.85 D  16.90   7.95 D  15.80   8.50 D  14.15   8.50 D S
 21.85  12.35 M  21.85   0.80 D S
 28.45   8.50 M  27.35   7.95 D  26.25   6.85 D  25.70   5.20 D  25.70   4.10 D
 26.25   2.45 D  27.35   1.35 D  28.45   0.80 D  30.10   0.80 D
 31.20   1.35 D  32.30   2.45 D  32.85   4.10 D  32.85   5.20 D
 32.30   6.85 D  31.20   7.95 D  30.10   8.50 D  28.45   8.50 D S
 36.15   8.50 M  36.15   0.80 D S
 36.15   5.20 M  36.70   6.85 D  37.80   7.95 D  38.90   8.50 D  40.55   8.50 D S
 43.85  12.35 M  43.85   0.80 D S
 54.30   8.50 M  54.30   0.80 D S
 54.30   6.85 M  53.20   7.95 D  52.10   8.50 D  50.45   8.50 D  49.35   7.95 D
 48.25   6.85 D  47.70   5.20 D  47.70   4.10 D  48.25   2.45 D
 49.35   1.35 D  50.45   0.80 D  52.10   0.80 D  53.20   1.35 D
 54.30   2.45 D S
 58.15  12.35 M  58.15   0.80 D S
 58.15   6.85 M  59.25   7.95 D  60.35   8.50 D  62.00   8.50 D  63.10   7.95 D
 64.20   6.85 D  64.75   5.20 D  64.75   4.10 D  64.20   2.45 D
 63.10   1.35 D  62.00   0.80 D  60.35   0.80 D  59.25   1.35 D
 58.15   2.45 D S
eop
@end
%%PageTrailer
%%Trailer
%%EOF
