%!PS-Adobe-2.0 EPSF-2.0
%%Title: /home/gijs/.chiplotle/output/20180423_160003.eps
%%Creator: hp2xx 3.4.4 (c) 1991-1994 by H. Werntges, 1999-2003 by M. Kroeker
%%CreationDate: Mon Apr 23 16:00:03 2018
%%Pages: 1
%%BoundingBox: 0 0 184 35
%%EndComments

%%BeginProcSet:
/PSSave save def
/PSDict 200 dict def
PSDict begin
/@restore /restore load def
/restore
   {vmstatus pop
    dup @VMused lt {pop @VMused} if
    exch pop exch @restore /@VMused exch def
   } def
/@pri
   {
    ( ) print
    (                                       ) cvs print
   } def
/@start
   {
    vmstatus pop /@VMused exch def pop
   } def
/@end
   {(VM Used: ) print @VMused @pri
    (. Unused: ) print vmstatus @VMused sub @pri pop pop
    (\n) print flush
    end
    PSSave restore
   } def
/bop
   {
    /SaveImage save def
   } def
/eop
   {
    showpage
    SaveImage restore
   } def
/@line
   {
%%    1 setlinejoin      %% now set from LA command
%%    1 setmiterlimit    %% now set from LA command
   } def
/@SetPlot
   {
    2.834646 2.834646 scale
      0.050   0.050 translate
     0.100 setlinewidth
   } def
/C {setrgbcolor} def
/D {lineto} def
/M {moveto} def
/S {stroke} def
/W {setlinewidth} def
/Z {stroke newpath} def
end
%%EndProcSet

%%BeginSetup
/#copies 1 def
%%EndSetup
%%Page: 1 1
%%BeginPageSetup
PSDict begin
@start
@line
@SetPlot

bop
%%EndPageSetup
  0.100 W
 S
-166.35  -0.35 M  0.100 W
 S
-166.35  -0.35 M 1 setlinecap
 S
-166.35  -0.35 M 1 setlinejoin
 S
  8.65   9.00 M   8.10  10.10 D   7.00  11.20 D   5.90  11.75 D   3.70  11.75 D
  2.60  11.20 D   1.50  10.10 D   0.95   9.00 D   0.40   7.35 D
  0.40   4.60 D   0.95   2.95 D   1.50   1.85 D   2.60   0.75 D
  3.70   0.20 D   5.90   0.20 D   7.00   0.75 D   8.10   1.85 D
  8.65   2.95 D S
 14.15   7.90 M  13.05   7.35 D  11.95   6.25 D  11.40   4.60 D  11.40   3.50 D
 11.95   1.85 D  13.05   0.75 D  14.15   0.20 D  15.80   0.20 D
 16.90   0.75 D  18.00   1.85 D  18.55   3.50 D  18.55   4.60 D
 18.00   6.25 D  16.90   7.35 D  15.80   7.90 D  14.15   7.90 D S
 21.85  11.75 M  21.85   0.20 D S
 28.45   7.90 M  27.35   7.35 D  26.25   6.25 D  25.70   4.60 D  25.70   3.50 D
 26.25   1.85 D  27.35   0.75 D  28.45   0.20 D  30.10   0.20 D
 31.20   0.75 D  32.30   1.85 D  32.85   3.50 D  32.85   4.60 D
 32.30   6.25 D  31.20   7.35 D  30.10   7.90 D  28.45   7.90 D S
 36.15   7.90 M  36.15   0.20 D S
 36.15   4.60 M  36.70   6.25 D  37.80   7.35 D  38.90   7.90 D  40.55   7.90 D S
 43.85  11.75 M  43.85   0.20 D S
 54.30   7.90 M  54.30   0.20 D S
 54.30   6.25 M  53.20   7.35 D  52.10   7.90 D  50.45   7.90 D  49.35   7.35 D
 48.25   6.25 D  47.70   4.60 D  47.70   3.50 D  48.25   1.85 D
 49.35   0.75 D  50.45   0.20 D  52.10   0.20 D  53.20   0.75 D
 54.30   1.85 D S
 58.15  11.75 M  58.15   0.20 D S
 58.15   6.25 M  59.25   7.35 D  60.35   7.90 D  62.00   7.90 D  63.10   7.35 D
 64.20   6.25 D  64.75   4.60 D  64.75   3.50 D  64.20   1.85 D
 63.10   0.75 D  62.00   0.20 D  60.35   0.20 D  59.25   0.75 D
 58.15   1.85 D S
  8.45   8.80 M   7.90   9.90 D   6.80  11.00 D   5.70  11.55 D   3.50  11.55 D
  2.40  11.00 D   1.30   9.90 D   0.75   8.80 D   0.20   7.15 D
  0.20   4.40 D   0.75   2.75 D   1.30   1.65 D   2.40   0.55 D
  3.50   0.00 D   5.70   0.00 D   6.80   0.55 D   7.90   1.65 D
  8.45   2.75 D S
 13.95   7.70 M  12.85   7.15 D  11.75   6.05 D  11.20   4.40 D  11.20   3.30 D
 11.75   1.65 D  12.85   0.55 D  13.95   0.00 D  15.60   0.00 D
 16.70   0.55 D  17.80   1.65 D  18.35   3.30 D  18.35   4.40 D
 17.80   6.05 D  16.70   7.15 D  15.60   7.70 D  13.95   7.70 D S
 21.65  11.55 M  21.65   0.00 D S
 28.25   7.70 M  27.15   7.15 D  26.05   6.05 D  25.50   4.40 D  25.50   3.30 D
 26.05   1.65 D  27.15   0.55 D  28.25   0.00 D  29.90   0.00 D
 31.00   0.55 D  32.10   1.65 D  32.65   3.30 D  32.65   4.40 D
 32.10   6.05 D  31.00   7.15 D  29.90   7.70 D  28.25   7.70 D S
 35.95   7.70 M  35.95   0.00 D S
 35.95   4.40 M  36.50   6.05 D  37.60   7.15 D  38.70   7.70 D  40.35   7.70 D S
 43.65  11.55 M  43.65   0.00 D S
 54.10   7.70 M  54.10   0.00 D S
 54.10   6.05 M  53.00   7.15 D  51.90   7.70 D  50.25   7.70 D  49.15   7.15 D
 48.05   6.05 D  47.50   4.40 D  47.50   3.30 D  48.05   1.65 D
 49.15   0.55 D  50.25   0.00 D  51.90   0.00 D  53.00   0.55 D
 54.10   1.65 D S
 57.95  11.55 M  57.95   0.00 D S
 57.95   6.05 M  59.05   7.15 D  60.15   7.70 D  61.80   7.70 D  62.90   7.15 D
 64.00   6.05 D  64.55   4.40 D  64.55   3.30 D  64.00   1.65 D
 62.90   0.55 D  61.80   0.00 D  60.15   0.00 D  59.05   0.55 D
 57.95   1.65 D S
  8.25   9.00 M   7.70  10.10 D   6.60  11.20 D   5.50  11.75 D   3.30  11.75 D
  2.20  11.20 D   1.10  10.10 D   0.55   9.00 D   0.00   7.35 D
  0.00   4.60 D   0.55   2.95 D   1.10   1.85 D   2.20   0.75 D
  3.30   0.20 D   5.50   0.20 D   6.60   0.75 D   7.70   1.85 D
  8.25   2.95 D S
 13.75   7.90 M  12.65   7.35 D  11.55   6.25 D  11.00   4.60 D  11.00   3.50 D
 11.55   1.85 D  12.65   0.75 D  13.75   0.20 D  15.40   0.20 D
 16.50   0.75 D  17.60   1.85 D  18.15   3.50 D  18.15   4.60 D
 17.60   6.25 D  16.50   7.35 D  15.40   7.90 D  13.75   7.90 D S
 21.45  11.75 M  21.45   0.20 D S
 28.05   7.90 M  26.95   7.35 D  25.85   6.25 D  25.30   4.60 D  25.30   3.50 D
 25.85   1.85 D  26.95   0.75 D  28.05   0.20 D  29.70   0.20 D
 30.80   0.75 D  31.90   1.85 D  32.45   3.50 D  32.45   4.60 D
 31.90   6.25 D  30.80   7.35 D  29.70   7.90 D  28.05   7.90 D S
 35.75   7.90 M  35.75   0.20 D S
 35.75   4.60 M  36.30   6.25 D  37.40   7.35 D  38.50   7.90 D  40.15   7.90 D S
 43.45  11.75 M  43.45   0.20 D S
 53.90   7.90 M  53.90   0.20 D S
 53.90   6.25 M  52.80   7.35 D  51.70   7.90 D  50.05   7.90 D  48.95   7.35 D
 47.85   6.25 D  47.30   4.60 D  47.30   3.50 D  47.85   1.85 D
 48.95   0.75 D  50.05   0.20 D  51.70   0.20 D  52.80   0.75 D
 53.90   1.85 D S
 57.75  11.75 M  57.75   0.20 D S
 57.75   6.25 M  58.85   7.35 D  59.95   7.90 D  61.60   7.90 D  62.70   7.35 D
 63.80   6.25 D  64.35   4.60 D  64.35   3.50 D  63.80   1.85 D
 62.70   0.75 D  61.60   0.20 D  59.95   0.20 D  58.85   0.75 D
 57.75   1.85 D S
  8.45   9.20 M   7.90  10.30 D   6.80  11.40 D   5.70  11.95 D   3.50  11.95 D
  2.40  11.40 D   1.30  10.30 D   0.75   9.20 D   0.20   7.55 D
  0.20   4.80 D   0.75   3.15 D   1.30   2.05 D   2.40   0.95 D
  3.50   0.40 D   5.70   0.40 D   6.80   0.95 D   7.90   2.05 D
  8.45   3.15 D S
 13.95   8.10 M  12.85   7.55 D  11.75   6.45 D  11.20   4.80 D  11.20   3.70 D
 11.75   2.05 D  12.85   0.95 D  13.95   0.40 D  15.60   0.40 D
 16.70   0.95 D  17.80   2.05 D  18.35   3.70 D  18.35   4.80 D
 17.80   6.45 D  16.70   7.55 D  15.60   8.10 D  13.95   8.10 D S
 21.65  11.95 M  21.65   0.40 D S
 28.25   8.10 M  27.15   7.55 D  26.05   6.45 D  25.50   4.80 D  25.50   3.70 D
 26.05   2.05 D  27.15   0.95 D  28.25   0.40 D  29.90   0.40 D
 31.00   0.95 D  32.10   2.05 D  32.65   3.70 D  32.65   4.80 D
 32.10   6.45 D  31.00   7.55 D  29.90   8.10 D  28.25   8.10 D S
 35.95   8.10 M  35.95   0.40 D S
 35.95   4.80 M  36.50   6.45 D  37.60   7.55 D  38.70   8.10 D  40.35   8.10 D S
 43.65  11.95 M  43.65   0.40 D S
 54.10   8.10 M  54.10   0.40 D S
 54.10   6.45 M  53.00   7.55 D  51.90   8.10 D  50.25   8.10 D  49.15   7.55 D
 48.05   6.45 D  47.50   4.80 D  47.50   3.70 D  48.05   2.05 D
 49.15   0.95 D  50.25   0.40 D  51.90   0.40 D  53.00   0.95 D
 54.10   2.05 D S
 57.95  11.95 M  57.95   0.40 D S
 57.95   6.45 M  59.05   7.55 D  60.15   8.10 D  61.80   8.10 D  62.90   7.55 D
 64.00   6.45 D  64.55   4.80 D  64.55   3.70 D  64.00   2.05 D
 62.90   0.95 D  61.80   0.40 D  60.15   0.40 D  59.05   0.95 D
 57.95   2.05 D S
eop
@end
%%PageTrailer
%%Trailer
%%EOF
