{
	"chars": [
		{
			"width": 16,
			"margins": [
				0,0,
				0,0
			],
			"lines": [

			],
			"key": 32,
			"height": 20
		},
		{
			"width": 10,
			"margins": [
				0,0,
				0,0
			],
			"lines": [
				[
					[
						-2,5
					],
					[
						12,5
					]
				],
				[
					[
						17,5
					],
					[
						18,4
					],
					[
						19,5
					],
					[
						18,6
					],
					[
						17,5
					]
				]
			],
			"key": 33,
			"height": 20
		},
		{
			"width": 16,
			"margins": [
				0,0,
				0,0
			],
			"lines": [
				[
					[
						-2,4
					],
					[
						5,4
					]
				],
				[
					[
						-2,12
					],
					[
						5,12
					]
				]
			],
			"key": 34,
			"height": 20
		},
		{
			"width": 20,
			"margins": [
				0,0,
				0,0
			],
			"lines": [
				[
					[
						-6,11
					],
					[
						26,4
					]
				],
				[
					[
						-6,17
					],
					[
						26,10
					]
				],
				[
					[
						7,4
					],
					[
						7,18
					]
				],
				[
					[
						13,3
					],
					[
						13,17
					]
				]
			],
			"key": 35,
			"height": 20
		},
		{
			"width": 20,
			"margins": [
				0,0,
				0,0
			],
			"lines": [
				[
					[
						-6,8
					],
					[
						23,8
					]
				],
				[
					[
						-6,12
					],
					[
						23,12
					]
				],
				[
					[
						1,17
					],
					[
						-1,15
					],
					[
						-2,12
					],
					[
						-2,8
					],
					[
						-1,5
					],
					[
						1,3
					],
					[
						3,3
					],
					[
						5,4
					],
					[
						6,5
					],
					[
						7,7
					],
					[
						9,13
					],
					[
						10,15
					],
					[
						11,16
					],
					[
						13,17
					],
					[
						16,17
					],
					[
						18,15
					],
					[
						19,12
					],
					[
						19,8
					],
					[
						18,5
					],
					[
						16,3
					]
				]
			],
			"key": 36,
			"height": 20
		},
		{
			"width": 24,
			"margins": [
				0,0,
				0,0
			],
			"lines": [
				[
					[
						-2,21
					],
					[
						19,3
					]
				],
				[
					[
						-2,8
					],
					[
						0,10
					],
					[
						2,10
					],
					[
						4,9
					],
					[
						5,7
					],
					[
						5,5
					],
					[
						3,3
					],
					[
						1,3
					],
					[
						-1,4
					],
					[
						-2,6
					],
					[
						-2,8
					],
					[
						-1,10
					],
					[
						0,13
					],
					[
						0,16
					],
					[
						-1,19
					],
					[
						-2,21
					]
				],
				[
					[
						12,17
					],
					[
						13,15
					],
					[
						15,14
					],
					[
						17,14
					],
					[
						19,16
					],
					[
						19,18
					],
					[
						18,20
					],
					[
						16,21
					],
					[
						14,21
					],
					[
						12,19
					],
					[
						12,17
					]
				]
			],
			"key": 37,
			"height": 20
		},
		{
			"width": 26,
			"margins": [
				0,0,
				0,0
			],
			"lines": [
				[
					[
						7,23
					],
					[
						6,23
					],
					[
						5,22
					],
					[
						5,21
					],
					[
						6,20
					],
					[
						8,19
					],
					[
						13,17
					],
					[
						16,15
					],
					[
						18,13
					],
					[
						19,11
					],
					[
						19,7
					],
					[
						18,5
					],
					[
						17,4
					],
					[
						15,3
					],
					[
						13,3
					],
					[
						11,4
					],
					[
						10,5
					],
					[
						6,12
					],
					[
						5,13
					],
					[
						3,14
					],
					[
						1,14
					],
					[
						-1,13
					],
					[
						-2,11
					],
					[
						-1,9
					],
					[
						1,8
					],
					[
						3,8
					],
					[
						6,9
					],
					[
						9,11
					],
					[
						16,16
					],
					[
						18,18
					],
					[
						19,20
					],
					[
						19,22
					],
					[
						18,23
					],
					[
						17,23
					]
				]
			],
			"key": 38,
			"height": 20
		},
		{
			"width": 10,
			"margins": [
				0,0,
				0,0
			],
			"lines": [
				[
					[
						0,5
					],
					[
						-1,4
					],
					[
						-2,5
					],
					[
						-1,6
					],
					[
						1,6
					],
					[
						3,5
					],
					[
						4,4
					]
				]
			],
			"key": 39,
			"height": 20
		},
		{
			"width": 14,
			"margins": [
				0,0,
				0,0
			],
			"lines": [
				[
					[
						-6,11
					],
					[
						-4,9
					],
					[
						-1,7
					],
					[
						3,5
					],
					[
						8,4
					],
					[
						12,4
					],
					[
						17,5
					],
					[
						21,7
					],
					[
						24,9
					],
					[
						26,11
					]
				]
			],
			"key": 40,
			"height": 20
		},
		{
			"width": 14,
			"margins": [
				0,0,
				0,0
			],
			"lines": [
				[
					[
						-6,3
					],
					[
						-4,5
					],
					[
						-1,7
					],
					[
						3,9
					],
					[
						8,10
					],
					[
						12,10
					],
					[
						17,9
					],
					[
						21,7
					],
					[
						24,5
					],
					[
						26,3
					]
				]
			],
			"key": 41,
			"height": 20
		},
		{
			"width": 16,
			"margins": [
				0,0,
				0,0
			],
			"lines": [
				[
					[
						4,8
					],
					[
						16,8
					]
				],
				[
					[
						7,3
					],
					[
						13,13
					]
				],
				[
					[
						7,13
					],
					[
						13,3
					]
				]
			],
			"key": 42,
			"height": 20
		},
		{
			"width": 26,
			"margins": [
				0,0,
				0,0
			],
			"lines": [
				[
					[
						1,13
					],
					[
						19,13
					]
				],
				[
					[
						10,4
					],
					[
						10,22
					]
				]
			],
			"key": 43,
			"height": 20
		},
		{
			"width": 8,
			"margins": [
				0,0,
				0,0
			],
			"lines": [
				[
					[
						15,5
					],
					[
						16,4
					],
					[
						15,3
					],
					[
						14,4
					],
					[
						15,5
					],
					[
						17,5
					],
					[
						19,3
					]
				]
			],
			"key": 44,
			"height": 20
		},
		{
			"width": 26,
			"margins": [
				0,0,
				0,0
			],
			"lines": [
				[
					[
						10,4
					],
					[
						10,22
					]
				]
			],
			"key": 45,
			"height": 20
		},
		{
			"width": 8,
			"margins": [
				0,0,
				0,0
			],
			"lines": [
				[
					[
						14,4
					],
					[
						15,3
					],
					[
						16,4
					],
					[
						15,5
					],
					[
						14,4
					]
				]
			],
			"key": 46,
			"height": 20
		},
		{
			"width": 22,
			"margins": [
				0,0,
				0,0
			],
			"lines": [
				[
					[
						-6,20
					],
					[
						26,2
					]
				]
			],
			"key": 47,
			"height": 20
		},
		{
			"width": 20,
			"margins": [
				0,0,
				0,0
			],
			"lines": [
				[
					[
						-2,9
					],
					[
						-1,6
					],
					[
						2,4
					],
					[
						7,3
					],
					[
						10,3
					],
					[
						15,4
					],
					[
						18,6
					],
					[
						19,9
					],
					[
						19,11
					],
					[
						18,14
					],
					[
						15,16
					],
					[
						10,17
					],
					[
						7,17
					],
					[
						2,16
					],
					[
						-1,14
					],
					[
						-2,11
					],
					[
						-2,9
					]
				]
			],
			"key": 48,
			"height": 20
		},
		{
			"width": 20,
			"margins": [
				0,0,
				0,0
			],
			"lines": [
				[
					[
						2,6
					],
					[
						1,8
					],
					[
						-2,11
					],
					[
						19,11
					]
				]
			],
			"key": 49,
			"height": 20
		},
		{
			"width": 20,
			"margins": [
				0,0,
				0,0
			],
			"lines": [
				[
					[
						3,4
					],
					[
						2,4
					],
					[
						0,5
					],
					[
						-1,6
					],
					[
						-2,8
					],
					[
						-2,12
					],
					[
						-1,14
					],
					[
						0,15
					],
					[
						2,16
					],
					[
						4,16
					],
					[
						6,15
					],
					[
						9,13
					],
					[
						19,3
					],
					[
						19,17
					]
				]
			],
			"key": 50,
			"height": 20
		},
		{
			"width": 20,
			"margins": [
				0,0,
				0,0
			],
			"lines": [
				[
					[
						-2,5
					],
					[
						-2,16
					],
					[
						6,10
					],
					[
						6,13
					],
					[
						7,15
					],
					[
						8,16
					],
					[
						11,17
					],
					[
						13,17
					],
					[
						16,16
					],
					[
						18,14
					],
					[
						19,11
					],
					[
						19,8
					],
					[
						18,5
					],
					[
						17,4
					],
					[
						15,3
					]
				]
			],
			"key": 51,
			"height": 20
		},
		{
			"width": 20,
			"margins": [
				0,0,
				0,0
			],
			"lines": [
				[
					[
						-2,13
					],
					[
						12,3
					],
					[
						12,18
					]
				],
				[
					[
						-2,13
					],
					[
						19,13
					]
				]
			],
			"key": 52,
			"height": 20
		},
		{
			"width": 20,
			"margins": [
				0,0,
				0,0
			],
			"lines": [
				[
					[
						-2,15
					],
					[
						-2,5
					],
					[
						7,4
					],
					[
						6,5
					],
					[
						5,8
					],
					[
						5,11
					],
					[
						6,14
					],
					[
						8,16
					],
					[
						11,17
					],
					[
						13,17
					],
					[
						16,16
					],
					[
						18,14
					],
					[
						19,11
					],
					[
						19,8
					],
					[
						18,5
					],
					[
						17,4
					],
					[
						15,3
					]
				]
			],
			"key": 53,
			"height": 20
		},
		{
			"width": 20,
			"margins": [
				0,0,
				0,0
			],
			"lines": [
				[
					[
						1,16
					],
					[
						-1,15
					],
					[
						-2,12
					],
					[
						-2,10
					],
					[
						-1,7
					],
					[
						2,5
					],
					[
						7,4
					],
					[
						12,4
					],
					[
						16,5
					],
					[
						18,7
					],
					[
						19,10
					],
					[
						19,11
					],
					[
						18,14
					],
					[
						16,16
					],
					[
						13,17
					],
					[
						12,17
					],
					[
						9,16
					],
					[
						7,14
					],
					[
						6,11
					],
					[
						6,10
					],
					[
						7,7
					],
					[
						9,5
					],
					[
						12,4
					]
				]
			],
			"key": 54,
			"height": 20
		},
		{
			"width": 20,
			"margins": [
				0,0,
				0,0
			],
			"lines": [
				[
					[
						-2,17
					],
					[
						19,7
					]
				],
				[
					[
						-2,3
					],
					[
						-2,17
					]
				]
			],
			"key": 55,
			"height": 20
		},
		{
			"width": 20,
			"margins": [
				0,0,
				0,0
			],
			"lines": [
				[
					[
						-2,8
					],
					[
						-1,5
					],
					[
						1,4
					],
					[
						3,4
					],
					[
						5,5
					],
					[
						6,7
					],
					[
						7,11
					],
					[
						8,14
					],
					[
						10,16
					],
					[
						12,17
					],
					[
						15,17
					],
					[
						17,16
					],
					[
						18,15
					],
					[
						19,12
					],
					[
						19,8
					],
					[
						18,5
					],
					[
						17,4
					],
					[
						15,3
					],
					[
						12,3
					],
					[
						10,4
					],
					[
						8,6
					],
					[
						7,9
					],
					[
						6,13
					],
					[
						5,15
					],
					[
						3,16
					],
					[
						1,16
					],
					[
						-1,15
					],
					[
						-2,12
					],
					[
						-2,8
					]
				]
			],
			"key": 56,
			"height": 20
		},
		{
			"width": 20,
			"margins": [
				0,0,
				0,0
			],
			"lines": [
				[
					[
						5,16
					],
					[
						8,15
					],
					[
						10,13
					],
					[
						11,10
					],
					[
						11,9
					],
					[
						10,6
					],
					[
						8,4
					],
					[
						5,3
					],
					[
						4,3
					],
					[
						1,4
					],
					[
						-1,6
					],
					[
						-2,9
					],
					[
						-2,10
					],
					[
						-1,13
					],
					[
						1,15
					],
					[
						5,16
					],
					[
						10,16
					],
					[
						15,15
					],
					[
						18,13
					],
					[
						19,10
					],
					[
						19,8
					],
					[
						18,5
					],
					[
						16,4
					]
				]
			],
			"key": 57,
			"height": 20
		},
		{
			"width": 8,
			"margins": [
				0,0,
				0,0
			],
			"lines": [
				[
					[
						7,4
					],
					[
						8,3
					],
					[
						9,4
					],
					[
						8,5
					],
					[
						7,4
					]
				],
				[
					[
						14,4
					],
					[
						15,3
					],
					[
						16,4
					],
					[
						15,5
					],
					[
						14,4
					]
				]
			],
			"key": 58,
			"height": 20
		},
		{
			"width": 8,
			"margins": [
				0,0,
				0,0
			],
			"lines": [
				[
					[
						7,4
					],
					[
						8,3
					],
					[
						9,4
					],
					[
						8,5
					],
					[
						7,4
					]
				],
				[
					[
						15,5
					],
					[
						16,4
					],
					[
						15,3
					],
					[
						14,4
					],
					[
						15,5
					],
					[
						17,5
					],
					[
						19,3
					]
				]
			],
			"key": 59,
			"height": 20
		},
		{
			"width": 24,
			"margins": [
				0,0,
				0,0
			],
			"lines": [
				[
					[
						1,20
					],
					[
						10,4
					],
					[
						19,20
					]
				]
			],
			"key": 60,
			"height": 20
		},
		{
			"width": 26,
			"margins": [
				0,0,
				0,0
			],
			"lines": [
				[
					[
						7,4
					],
					[
						7,22
					]
				],
				[
					[
						13,4
					],
					[
						13,22
					]
				]
			],
			"key": 61,
			"height": 20
		},
		{
			"width": 24,
			"margins": [
				0,0,
				0,0
			],
			"lines": [
				[
					[
						1,4
					],
					[
						10,20
					],
					[
						19,4
					]
				]
			],
			"key": 62,
			"height": 20
		},
		{
			"width": 18,
			"margins": [
				0,0,
				0,0
			],
			"lines": [
				[
					[
						3,3
					],
					[
						2,3
					],
					[
						0,4
					],
					[
						-1,5
					],
					[
						-2,7
					],
					[
						-2,11
					],
					[
						-1,13
					],
					[
						0,14
					],
					[
						2,15
					],
					[
						4,15
					],
					[
						6,14
					],
					[
						7,13
					],
					[
						9,9
					],
					[
						12,9
					]
				],
				[
					[
						17,9
					],
					[
						18,8
					],
					[
						19,9
					],
					[
						18,10
					],
					[
						17,9
					]
				]
			],
			"key": 63,
			"height": 20
		},
		{
			"width": 26,
			"margins": [
				0,0,
				0,0
			],
			"lines": [
				[
					[
						6,18
					],
					[
						4,17
					],
					[
						3,15
					],
					[
						3,12
					],
					[
						4,10
					],
					[
						5,9
					],
					[
						8,8
					],
					[
						11,8
					],
					[
						13,9
					],
					[
						14,11
					],
					[
						14,14
					],
					[
						13,16
					],
					[
						11,17
					]
				],
				[
					[
						3,12
					],
					[
						5,10
					],
					[
						8,9
					],
					[
						11,9
					],
					[
						13,10
					],
					[
						14,11
					]
				],
				[
					[
						3,18
					],
					[
						11,17
					],
					[
						13,17
					],
					[
						14,19
					],
					[
						14,21
					],
					[
						12,23
					],
					[
						9,24
					],
					[
						7,24
					],
					[
						4,23
					],
					[
						2,22
					],
					[
						0,20
					],
					[
						-1,18
					],
					[
						-2,15
					],
					[
						-2,12
					],
					[
						-1,9
					],
					[
						0,7
					],
					[
						2,5
					],
					[
						4,4
					],
					[
						7,3
					],
					[
						10,3
					],
					[
						13,4
					],
					[
						15,5
					],
					[
						17,7
					],
					[
						18,9
					],
					[
						19,12
					],
					[
						19,15
					],
					[
						18,18
					],
					[
						17,20
					],
					[
						16,21
					]
				],
				[
					[
						3,19
					],
					[
						11,18
					],
					[
						13,18
					],
					[
						14,19
					]
				]
			],
			"key": 64,
			"height": 20
		},
		{
			"width": 18,
			"margins": [
				0,0,
				0,0
			],
			"lines": [
				[
					[
						-2,9
					],
					[
						19,1
					]
				],
				[
					[
						-2,9
					],
					[
						19,17
					]
				],
				[
					[
						12,4
					],
					[
						12,14
					]
				]
			],
			"key": 65,
			"height": 20
		},
		{
			"width": 22,
			"margins": [
				0,0,
				0,0
			],
			"lines": [
				[
					[
						-2,4
					],
					[
						19,4
					]
				],
				[
					[
						-2,4
					],
					[
						-2,13
					],
					[
						-1,16
					],
					[
						0,17
					],
					[
						2,18
					],
					[
						4,18
					],
					[
						6,17
					],
					[
						7,16
					],
					[
						8,13
					]
				],
				[
					[
						8,4
					],
					[
						8,13
					],
					[
						9,16
					],
					[
						10,17
					],
					[
						12,18
					],
					[
						15,18
					],
					[
						17,17
					],
					[
						18,16
					],
					[
						19,13
					],
					[
						19,4
					]
				]
			],
			"key": 66,
			"height": 20
		},
		{
			"width": 20,
			"margins": [
				0,0,
				0,0
			],
			"lines": [
				[
					[
						3,18
					],
					[
						1,17
					],
					[
						-1,15
					],
					[
						-2,13
					],
					[
						-2,9
					],
					[
						-1,7
					],
					[
						1,5
					],
					[
						3,4
					],
					[
						6,3
					],
					[
						11,3
					],
					[
						14,4
					],
					[
						16,5
					],
					[
						18,7
					],
					[
						19,9
					],
					[
						19,13
					],
					[
						18,15
					],
					[
						16,17
					],
					[
						14,18
					]
				]
			],
			"key": 67,
			"height": 20
		},
		{
			"width": 22,
			"margins": [
				0,0,
				0,0
			],
			"lines": [
				[
					[
						-2,4
					],
					[
						19,4
					]
				],
				[
					[
						-2,4
					],
					[
						-2,11
					],
					[
						-1,14
					],
					[
						1,16
					],
					[
						3,17
					],
					[
						6,18
					],
					[
						11,18
					],
					[
						14,17
					],
					[
						16,16
					],
					[
						18,14
					],
					[
						19,11
					],
					[
						19,4
					]
				]
			],
			"key": 68,
			"height": 20
		},
		{
			"width": 20,
			"margins": [
				0,0,
				0,0
			],
			"lines": [
				[
					[
						-2,4
					],
					[
						19,4
					]
				],
				[
					[
						-2,4
					],
					[
						-2,17
					]
				],
				[
					[
						8,4
					],
					[
						8,12
					]
				],
				[
					[
						19,4
					],
					[
						19,17
					]
				]
			],
			"key": 69,
			"height": 20
		},
		{
			"width": 20,
			"margins": [
				0,0,
				0,0
			],
			"lines": [
				[
					[
						-2,4
					],
					[
						19,4
					]
				],
				[
					[
						-2,4
					],
					[
						-2,17
					]
				],
				[
					[
						8,4
					],
					[
						8,12
					]
				]
			],
			"key": 70,
			"height": 20
		},
		{
			"width": 20,
			"margins": [
				0,0,
				0,0
			],
			"lines": [
				[
					[
						3,18
					],
					[
						1,17
					],
					[
						-1,15
					],
					[
						-2,13
					],
					[
						-2,9
					],
					[
						-1,7
					],
					[
						1,5
					],
					[
						3,4
					],
					[
						6,3
					],
					[
						11,3
					],
					[
						14,4
					],
					[
						16,5
					],
					[
						18,7
					],
					[
						19,9
					],
					[
						19,13
					],
					[
						18,15
					],
					[
						16,17
					],
					[
						14,18
					],
					[
						11,18
					]
				],
				[
					[
						11,13
					],
					[
						11,18
					]
				]
			],
			"key": 71,
			"height": 20
		},
		{
			"width": 22,
			"margins": [
				0,0,
				0,0
			],
			"lines": [
				[
					[
						-2,4
					],
					[
						19,4
					]
				],
				[
					[
						-2,18
					],
					[
						19,18
					]
				],
				[
					[
						8,4
					],
					[
						8,18
					]
				]
			],
			"key": 72,
			"height": 20
		},
		{
			"width": 8,
			"margins": [
				0,0,
				0,0
			],
			"lines": [
				[
					[
						-2,4
					],
					[
						19,4
					]
				]
			],
			"key": 73,
			"height": 20
		},
		{
			"width": 16,
			"margins": [
				0,0,
				0,0
			],
			"lines": [
				[
					[
						-2,12
					],
					[
						14,12
					],
					[
						17,11
					],
					[
						18,10
					],
					[
						19,8
					],
					[
						19,6
					],
					[
						18,4
					],
					[
						17,3
					],
					[
						14,2
					],
					[
						12,2
					]
				]
			],
			"key": 74,
			"height": 20
		},
		{
			"width": 22,
			"margins": [
				0,0,
				0,0
			],
			"lines": [
				[
					[
						-2,4
					],
					[
						19,4
					]
				],
				[
					[
						-2,18
					],
					[
						12,4
					]
				],
				[
					[
						7,9
					],
					[
						19,18
					]
				]
			],
			"key": 75,
			"height": 20
		},
		{
			"width": 20,
			"margins": [
				0,0,
				0,0
			],
			"lines": [
				[
					[
						-2,4
					],
					[
						19,4
					]
				],
				[
					[
						19,4
					],
					[
						19,16
					]
				]
			],
			"key": 76,
			"height": 20
		},
		{
			"width": 24,
			"margins": [
				0,0,
				0,0
			],
			"lines": [
				[
					[
						-2,4
					],
					[
						19,4
					]
				],
				[
					[
						-2,4
					],
					[
						19,12
					]
				],
				[
					[
						-2,20
					],
					[
						19,12
					]
				],
				[
					[
						-2,20
					],
					[
						19,20
					]
				]
			],
			"key": 77,
			"height": 20
		},
		{
			"width": 22,
			"margins": [
				0,0,
				0,0
			],
			"lines": [
				[
					[
						-2,4
					],
					[
						19,4
					]
				],
				[
					[
						-2,4
					],
					[
						19,18
					]
				],
				[
					[
						-2,18
					],
					[
						19,18
					]
				]
			],
			"key": 78,
			"height": 20
		},
		{
			"width": 22,
			"margins": [
				0,0,
				0,0
			],
			"lines": [
				[
					[
						-2,9
					],
					[
						-1,7
					],
					[
						1,5
					],
					[
						3,4
					],
					[
						6,3
					],
					[
						11,3
					],
					[
						14,4
					],
					[
						16,5
					],
					[
						18,7
					],
					[
						19,9
					],
					[
						19,13
					],
					[
						18,15
					],
					[
						16,17
					],
					[
						14,18
					],
					[
						11,19
					],
					[
						6,19
					],
					[
						3,18
					],
					[
						1,17
					],
					[
						-1,15
					],
					[
						-2,13
					],
					[
						-2,9
					]
				]
			],
			"key": 79,
			"height": 20
		},
		{
			"width": 22,
			"margins": [
				0,0,
				0,0
			],
			"lines": [
				[
					[
						-2,4
					],
					[
						19,4
					]
				],
				[
					[
						-2,4
					],
					[
						-2,13
					],
					[
						-1,16
					],
					[
						0,17
					],
					[
						2,18
					],
					[
						5,18
					],
					[
						7,17
					],
					[
						8,16
					],
					[
						9,13
					],
					[
						9,4
					]
				]
			],
			"key": 80,
			"height": 20
		},
		{
			"width": 22,
			"margins": [
				0,0,
				0,0
			],
			"lines": [
				[
					[
						-2,9
					],
					[
						-1,7
					],
					[
						1,5
					],
					[
						3,4
					],
					[
						6,3
					],
					[
						11,3
					],
					[
						14,4
					],
					[
						16,5
					],
					[
						18,7
					],
					[
						19,9
					],
					[
						19,13
					],
					[
						18,15
					],
					[
						16,17
					],
					[
						14,18
					],
					[
						11,19
					],
					[
						6,19
					],
					[
						3,18
					],
					[
						1,17
					],
					[
						-1,15
					],
					[
						-2,13
					],
					[
						-2,9
					]
				],
				[
					[
						15,12
					],
					[
						21,18
					]
				]
			],
			"key": 81,
			"height": 20
		},
		{
			"width": 22,
			"margins": [
				0,0,
				0,0
			],
			"lines": [
				[
					[
						-2,4
					],
					[
						19,4
					]
				],
				[
					[
						-2,4
					],
					[
						-2,13
					],
					[
						-1,16
					],
					[
						0,17
					],
					[
						2,18
					],
					[
						4,18
					],
					[
						6,17
					],
					[
						7,16
					],
					[
						8,13
					],
					[
						8,4
					]
				],
				[
					[
						8,11
					],
					[
						19,18
					]
				]
			],
			"key": 82,
			"height": 20
		},
		{
			"width": 20,
			"margins": [
				0,0,
				0,0
			],
			"lines": [
				[
					[
						1,17
					],
					[
						-1,15
					],
					[
						-2,12
					],
					[
						-2,8
					],
					[
						-1,5
					],
					[
						1,3
					],
					[
						3,3
					],
					[
						5,4
					],
					[
						6,5
					],
					[
						7,7
					],
					[
						9,13
					],
					[
						10,15
					],
					[
						11,16
					],
					[
						13,17
					],
					[
						16,17
					],
					[
						18,15
					],
					[
						19,12
					],
					[
						19,8
					],
					[
						18,5
					],
					[
						16,3
					]
				]
			],
			"key": 83,
			"height": 20
		},
		{
			"width": 16,
			"margins": [
				0,0,
				0,0
			],
			"lines": [
				[
					[
						-2,8
					],
					[
						19,8
					]
				],
				[
					[
						-2,1
					],
					[
						-2,15
					]
				]
			],
			"key": 84,
			"height": 20
		},
		{
			"width": 22,
			"margins": [
				0,0,
				0,0
			],
			"lines": [
				[
					[
						-2,4
					],
					[
						13,4
					],
					[
						16,5
					],
					[
						18,7
					],
					[
						19,10
					],
					[
						19,12
					],
					[
						18,15
					],
					[
						16,17
					],
					[
						13,18
					],
					[
						-2,18
					]
				]
			],
			"key": 85,
			"height": 20
		},
		{
			"width": 18,
			"margins": [
				0,0,
				0,0
			],
			"lines": [
				[
					[
						-2,1
					],
					[
						19,9
					]
				],
				[
					[
						-2,17
					],
					[
						19,9
					]
				]
			],
			"key": 86,
			"height": 20
		},
		{
			"width": 24,
			"margins": [
				0,0,
				0,0
			],
			"lines": [
				[
					[
						-2,2
					],
					[
						19,7
					]
				],
				[
					[
						-2,12
					],
					[
						19,7
					]
				],
				[
					[
						-2,12
					],
					[
						19,17
					]
				],
				[
					[
						-2,22
					],
					[
						19,17
					]
				]
			],
			"key": 87,
			"height": 20
		},
		{
			"width": 20,
			"margins": [
				0,0,
				0,0
			],
			"lines": [
				[
					[
						-2,3
					],
					[
						19,17
					]
				],
				[
					[
						-2,17
					],
					[
						19,3
					]
				]
			],
			"key": 88,
			"height": 20
		},
		{
			"width": 18,
			"margins": [
				0,0,
				0,0
			],
			"lines": [
				[
					[
						-2,1
					],
					[
						8,9
					],
					[
						19,9
					]
				],
				[
					[
						-2,17
					],
					[
						8,9
					]
				]
			],
			"key": 89,
			"height": 20
		},
		{
			"width": 20,
			"margins": [
				0,0,
				0,0
			],
			"lines": [
				[
					[
						-2,17
					],
					[
						19,3
					]
				],
				[
					[
						-2,3
					],
					[
						-2,17
					]
				],
				[
					[
						19,3
					],
					[
						19,17
					]
				]
			],
			"key": 90,
			"height": 20
		},
		{
			"width": 14,
			"margins": [
				0,0,
				0,0
			],
			"lines": [
				[
					[
						-6,4
					],
					[
						26,4
					]
				],
				[
					[
						-6,5
					],
					[
						26,5
					]
				],
				[
					[
						-6,4
					],
					[
						-6,11
					]
				],
				[
					[
						26,4
					],
					[
						26,11
					]
				]
			],
			"key": 91,
			"height": 20
		},
		{
			"width": 14,
			"margins": [
				0,0,
				0,0
			],
			"lines": [
				[
					[
						-2,0
					],
					[
						22,14
					]
				]
			],
			"key": 92,
			"height": 20
		},
		{
			"width": 14,
			"margins": [
				0,0,
				0,0
			],
			"lines": [
				[
					[
						-6,9
					],
					[
						26,9
					]
				],
				[
					[
						-6,10
					],
					[
						26,10
					]
				],
				[
					[
						-6,3
					],
					[
						-6,10
					]
				],
				[
					[
						26,3
					],
					[
						26,10
					]
				]
			],
			"key": 93,
			"height": 20
		},
		{
			"width": 16,
			"margins": [
				0,0,
				0,0
			],
			"lines": [
				[
					[
						-4,8
					],
					[
						10,0
					]
				],
				[
					[
						-4,8
					],
					[
						10,16
					]
				]
			],
			"key": 94,
			"height": 20
		},
		{
			"width": 18,
			"margins": [
				0,0,
				0,0
			],
			"lines": [
				[
					[
						26,0
					],
					[
						26,18
					]
				]
			],
			"key": 95,
			"height": 20
		},
		{
			"width": 8,
			"margins": [
				0,0,
				0,0
			],
			"lines": [
				[
					[
						3,5
					],
					[
						5,3
					],
					[
						7,3
					],
					[
						8,4
					],
					[
						7,5
					],
					[
						6,4
					],
					[
						7,3
					]
				]
			],
			"key": 96,
			"height": 20
		},
		{
			"width": 18,
			"margins": [
				0,0,
				0,0
			],
			"lines": [
				[
					[
						5,15
					],
					[
						19,15
					]
				],
				[
					[
						8,15
					],
					[
						6,13
					],
					[
						5,11
					],
					[
						5,8
					],
					[
						6,6
					],
					[
						8,4
					],
					[
						11,3
					],
					[
						13,3
					],
					[
						16,4
					],
					[
						18,6
					],
					[
						19,8
					],
					[
						19,11
					],
					[
						18,13
					],
					[
						16,15
					]
				]
			],
			"key": 97,
			"height": 20
		},
		{
			"width": 20,
			"margins": [
				0,0,
				0,0
			],
			"lines": [
				[
					[
						-2,4
					],
					[
						19,4
					]
				],
				[
					[
						8,4
					],
					[
						6,6
					],
					[
						5,8
					],
					[
						5,11
					],
					[
						6,13
					],
					[
						8,15
					],
					[
						11,16
					],
					[
						13,16
					],
					[
						16,15
					],
					[
						18,13
					],
					[
						19,11
					],
					[
						19,8
					],
					[
						18,6
					],
					[
						16,4
					]
				]
			],
			"key": 98,
			"height": 20
		},
		{
			"width": 18,
			"margins": [
				0,0,
				0,0
			],
			"lines": [
				[
					[
						8,15
					],
					[
						6,13
					],
					[
						5,11
					],
					[
						5,8
					],
					[
						6,6
					],
					[
						8,4
					],
					[
						11,3
					],
					[
						13,3
					],
					[
						16,4
					],
					[
						18,6
					],
					[
						19,8
					],
					[
						19,11
					],
					[
						18,13
					],
					[
						16,15
					]
				]
			],
			"key": 99,
			"height": 20
		},
		{
			"width": 18,
			"margins": [
				0,0,
				0,0
			],
			"lines": [
				[
					[
						-2,15
					],
					[
						19,15
					]
				],
				[
					[
						8,15
					],
					[
						6,13
					],
					[
						5,11
					],
					[
						5,8
					],
					[
						6,6
					],
					[
						8,4
					],
					[
						11,3
					],
					[
						13,3
					],
					[
						16,4
					],
					[
						18,6
					],
					[
						19,8
					],
					[
						19,11
					],
					[
						18,13
					],
					[
						16,15
					]
				]
			],
			"key": 100,
			"height": 20
		},
		{
			"width": 18,
			"margins": [
				0,0,
				0,0
			],
			"lines": [
				[
					[
						11,3
					],
					[
						11,15
					],
					[
						9,15
					],
					[
						7,14
					],
					[
						6,13
					],
					[
						5,11
					],
					[
						5,8
					],
					[
						6,6
					],
					[
						8,4
					],
					[
						11,3
					],
					[
						13,3
					],
					[
						16,4
					],
					[
						18,6
					],
					[
						19,8
					],
					[
						19,11
					],
					[
						18,13
					],
					[
						16,15
					]
				]
			],
			"key": 101,
			"height": 20
		},
		{
			"width": 10,
			"margins": [
				0,0,
				0,0
			],
			"lines": [
				[
					[
						-2,10
					],
					[
						-2,8
					],
					[
						-1,6
					],
					[
						2,5
					],
					[
						19,5
					]
				],
				[
					[
						5,2
					],
					[
						5,9
					]
				]
			],
			"key": 102,
			"height": 20
		},
		{
			"width": 18,
			"margins": [
				0,0,
				0,0
			],
			"lines": [
				[
					[
						5,15
					],
					[
						21,15
					],
					[
						24,14
					],
					[
						25,13
					],
					[
						26,11
					],
					[
						26,8
					],
					[
						25,6
					]
				],
				[
					[
						8,15
					],
					[
						6,13
					],
					[
						5,11
					],
					[
						5,8
					],
					[
						6,6
					],
					[
						8,4
					],
					[
						11,3
					],
					[
						13,3
					],
					[
						16,4
					],
					[
						18,6
					],
					[
						19,8
					],
					[
						19,11
					],
					[
						18,13
					],
					[
						16,15
					]
				]
			],
			"key": 103,
			"height": 20
		},
		{
			"width": 18,
			"margins": [
				0,0,
				0,0
			],
			"lines": [
				[
					[
						-2,4
					],
					[
						19,4
					]
				],
				[
					[
						9,4
					],
					[
						6,7
					],
					[
						5,9
					],
					[
						5,12
					],
					[
						6,14
					],
					[
						9,15
					],
					[
						19,15
					]
				]
			],
			"key": 104,
			"height": 20
		},
		{
			"width": 8,
			"margins": [
				0,0,
				0,0
			],
			"lines": [
				[
					[
						-2,3
					],
					[
						-1,4
					],
					[
						-2,5
					],
					[
						-3,4
					],
					[
						-2,3
					]
				],
				[
					[
						5,4
					],
					[
						19,4
					]
				]
			],
			"key": 105,
			"height": 20
		},
		{
			"width": 10,
			"margins": [
				0,0,
				0,0
			],
			"lines": [
				[
					[
						-2,5
					],
					[
						-1,6
					],
					[
						-2,7
					],
					[
						-3,6
					],
					[
						-2,5
					]
				],
				[
					[
						5,6
					],
					[
						22,6
					],
					[
						25,5
					],
					[
						26,3
					],
					[
						26,1
					]
				]
			],
			"key": 106,
			"height": 20
		},
		{
			"width": 18,
			"margins": [
				0,0,
				0,0
			],
			"lines": [
				[
					[
						-2,4
					],
					[
						19,4
					]
				],
				[
					[
						5,14
					],
					[
						15,4
					]
				],
				[
					[
						11,8
					],
					[
						19,15
					]
				]
			],
			"key": 107,
			"height": 20
		},
		{
			"width": 8,
			"margins": [
				0,0,
				0,0
			],
			"lines": [
				[
					[
						-2,4
					],
					[
						19,4
					]
				]
			],
			"key": 108,
			"height": 20
		},
		{
			"width": 30,
			"margins": [
				0,0,
				0,0
			],
			"lines": [
				[
					[
						5,4
					],
					[
						19,4
					]
				],
				[
					[
						9,4
					],
					[
						6,7
					],
					[
						5,9
					],
					[
						5,12
					],
					[
						6,14
					],
					[
						9,15
					],
					[
						19,15
					]
				],
				[
					[
						9,15
					],
					[
						6,18
					],
					[
						5,20
					],
					[
						5,23
					],
					[
						6,25
					],
					[
						9,26
					],
					[
						19,26
					]
				]
			],
			"key": 109,
			"height": 20
		},
		{
			"width": 18,
			"margins": [
				0,0,
				0,0
			],
			"lines": [
				[
					[
						5,4
					],
					[
						19,4
					]
				],
				[
					[
						9,4
					],
					[
						6,7
					],
					[
						5,9
					],
					[
						5,12
					],
					[
						6,14
					],
					[
						9,15
					],
					[
						19,15
					]
				]
			],
			"key": 110,
			"height": 20
		},
		{
			"width": 18,
			"margins": [
				0,0,
				0,0
			],
			"lines": [
				[
					[
						5,8
					],
					[
						6,6
					],
					[
						8,4
					],
					[
						11,3
					],
					[
						13,3
					],
					[
						16,4
					],
					[
						18,6
					],
					[
						19,8
					],
					[
						19,11
					],
					[
						18,13
					],
					[
						16,15
					],
					[
						13,16
					],
					[
						11,16
					],
					[
						8,15
					],
					[
						6,13
					],
					[
						5,11
					],
					[
						5,8
					]
				]
			],
			"key": 111,
			"height": 20
		},
		{
			"width": 20,
			"margins": [
				0,0,
				0,0
			],
			"lines": [
				[
					[
						5,4
					],
					[
						26,4
					]
				],
				[
					[
						8,4
					],
					[
						6,6
					],
					[
						5,8
					],
					[
						5,11
					],
					[
						6,13
					],
					[
						8,15
					],
					[
						11,16
					],
					[
						13,16
					],
					[
						16,15
					],
					[
						18,13
					],
					[
						19,11
					],
					[
						19,8
					],
					[
						18,6
					],
					[
						16,4
					]
				]
			],
			"key": 112,
			"height": 20
		},
		{
			"width": 18,
			"margins": [
				0,0,
				0,0
			],
			"lines": [
				[
					[
						5,15
					],
					[
						26,15
					]
				],
				[
					[
						8,15
					],
					[
						6,13
					],
					[
						5,11
					],
					[
						5,8
					],
					[
						6,6
					],
					[
						8,4
					],
					[
						11,3
					],
					[
						13,3
					],
					[
						16,4
					],
					[
						18,6
					],
					[
						19,8
					],
					[
						19,11
					],
					[
						18,13
					],
					[
						16,15
					]
				]
			],
			"key": 113,
			"height": 20
		},
		{
			"width": 14,
			"margins": [
				0,0,
				0,0
			],
			"lines": [
				[
					[
						5,4
					],
					[
						19,4
					]
				],
				[
					[
						11,4
					],
					[
						8,5
					],
					[
						6,7
					],
					[
						5,9
					],
					[
						5,12
					]
				]
			],
			"key": 114,
			"height": 20
		},
		{
			"width": 16,
			"margins": [
				0,0,
				0,0
			],
			"lines": [
				[
					[
						8,14
					],
					[
						6,13
					],
					[
						5,10
					],
					[
						5,7
					],
					[
						6,4
					],
					[
						8,3
					],
					[
						10,4
					],
					[
						11,6
					],
					[
						12,11
					],
					[
						13,13
					],
					[
						15,14
					],
					[
						16,14
					],
					[
						18,13
					],
					[
						19,10
					],
					[
						19,7
					],
					[
						18,4
					],
					[
						16,3
					]
				]
			],
			"key": 115,
			"height": 20
		},
		{
			"width": 10,
			"margins": [
				0,0,
				0,0
			],
			"lines": [
				[
					[
						-2,5
					],
					[
						15,5
					],
					[
						18,6
					],
					[
						19,8
					],
					[
						19,10
					]
				],
				[
					[
						5,2
					],
					[
						5,9
					]
				]
			],
			"key": 116,
			"height": 20
		},
		{
			"width": 18,
			"margins": [
				0,0,
				0,0
			],
			"lines": [
				[
					[
						5,4
					],
					[
						15,4
					],
					[
						18,5
					],
					[
						19,7
					],
					[
						19,10
					],
					[
						18,12
					],
					[
						15,15
					]
				],
				[
					[
						5,15
					],
					[
						19,15
					]
				]
			],
			"key": 117,
			"height": 20
		},
		{
			"width": 16,
			"margins": [
				0,0,
				0,0
			],
			"lines": [
				[
					[
						5,2
					],
					[
						19,8
					]
				],
				[
					[
						5,14
					],
					[
						19,8
					]
				]
			],
			"key": 118,
			"height": 20
		},
		{
			"width": 22,
			"margins": [
				0,0,
				0,0
			],
			"lines": [
				[
					[
						5,3
					],
					[
						19,7
					]
				],
				[
					[
						5,11
					],
					[
						19,7
					]
				],
				[
					[
						5,11
					],
					[
						19,15
					]
				],
				[
					[
						5,19
					],
					[
						19,15
					]
				]
			],
			"key": 119,
			"height": 20
		},
		{
			"width": 16,
			"margins": [
				0,0,
				0,0
			],
			"lines": [
				[
					[
						5,3
					],
					[
						19,14
					]
				],
				[
					[
						5,14
					],
					[
						19,3
					]
				]
			],
			"key": 120,
			"height": 20
		},
		{
			"width": 16,
			"margins": [
				0,0,
				0,0
			],
			"lines": [
				[
					[
						5,2
					],
					[
						19,8
					]
				],
				[
					[
						5,14
					],
					[
						19,8
					],
					[
						23,6
					],
					[
						25,4
					],
					[
						26,2
					],
					[
						26,1
					]
				]
			],
			"key": 121,
			"height": 20
		},
		{
			"width": 16,
			"margins": [
				0,0,
				0,0
			],
			"lines": [
				[
					[
						5,14
					],
					[
						19,3
					]
				],
				[
					[
						5,3
					],
					[
						5,14
					]
				],
				[
					[
						19,3
					],
					[
						19,14
					]
				]
			],
			"key": 122,
			"height": 20
		},
		{
			"width": 14,
			"margins": [
				0,0,
				0,0
			],
			"lines": [
				[
					[
						-6,9
					],
					[
						-5,7
					],
					[
						-4,6
					],
					[
						-2,5
					],
					[
						0,5
					],
					[
						2,6
					],
					[
						3,7
					],
					[
						5,8
					],
					[
						7,8
					],
					[
						9,6
					]
				],
				[
					[
						-5,7
					],
					[
						-3,6
					],
					[
						-1,6
					],
					[
						1,7
					],
					[
						2,8
					],
					[
						4,9
					],
					[
						6,9
					],
					[
						8,8
					],
					[
						10,4
					],
					[
						12,8
					],
					[
						14,9
					],
					[
						16,9
					],
					[
						18,8
					],
					[
						19,7
					],
					[
						21,6
					],
					[
						23,6
					],
					[
						25,7
					]
				],
				[
					[
						11,6
					],
					[
						13,8
					],
					[
						15,8
					],
					[
						17,7
					],
					[
						18,6
					],
					[
						20,5
					],
					[
						22,5
					],
					[
						24,6
					],
					[
						25,7
					],
					[
						26,9
					]
				]
			],
			"key": 123,
			"height": 20
		},
		{
			"width": 8,
			"margins": [
				0,0,
				0,0
			],
			"lines": [
				[
					[
						-6,4
					],
					[
						26,4
					]
				]
			],
			"key": 124,
			"height": 20
		},
		{
			"width": 14,
			"margins": [
				0,0,
				0,0
			],
			"lines": [
				[
					[
						-6,5
					],
					[
						-5,7
					],
					[
						-4,8
					],
					[
						-2,9
					],
					[
						0,9
					],
					[
						2,8
					],
					[
						3,7
					],
					[
						5,6
					],
					[
						7,6
					],
					[
						9,8
					]
				],
				[
					[
						-5,7
					],
					[
						-3,8
					],
					[
						-1,8
					],
					[
						1,7
					],
					[
						2,6
					],
					[
						4,5
					],
					[
						6,5
					],
					[
						8,6
					],
					[
						10,10
					],
					[
						12,6
					],
					[
						14,5
					],
					[
						16,5
					],
					[
						18,6
					],
					[
						19,7
					],
					[
						21,8
					],
					[
						23,8
					],
					[
						25,7
					]
				],
				[
					[
						11,8
					],
					[
						13,6
					],
					[
						15,6
					],
					[
						17,7
					],
					[
						18,8
					],
					[
						20,9
					],
					[
						22,9
					],
					[
						24,8
					],
					[
						25,7
					],
					[
						26,5
					]
				]
			],
			"key": 125,
			"height": 20
		},
		{
			"width": 24,
			"margins": [
				0,0,
				0,0
			],
			"lines": [
				[
					[
						13,3
					],
					[
						11,3
					],
					[
						8,4
					],
					[
						7,6
					],
					[
						7,8
					],
					[
						8,10
					],
					[
						11,14
					],
					[
						12,16
					],
					[
						12,18
					],
					[
						11,20
					],
					[
						9,21
					]
				],
				[
					[
						11,3
					],
					[
						9,4
					],
					[
						8,6
					],
					[
						8,8
					],
					[
						9,10
					],
					[
						12,14
					],
					[
						13,16
					],
					[
						13,18
					],
					[
						12,20
					],
					[
						9,21
					],
					[
						7,21
					]
				]
			],
			"key": 126,
			"height": 20
		},
		{
			"width": 16,
			"margins": [
				0,0,
				0,0
			],
			"lines": [
				[
					[
						-2,0
					],
					[
						19,0
					],
					[
						19,1
					],
					[
						-2,1
					],
					[
						-2,2
					],
					[
						19,2
					],
					[
						19,3
					],
					[
						-2,3
					],
					[
						-2,4
					],
					[
						19,4
					],
					[
						19,5
					],
					[
						-2,5
					],
					[
						-2,6
					],
					[
						19,6
					],
					[
						19,7
					],
					[
						-2,7
					],
					[
						-2,8
					],
					[
						19,8
					],
					[
						19,9
					],
					[
						-2,9
					],
					[
						-2,10
					],
					[
						19,10
					],
					[
						19,11
					],
					[
						-2,11
					],
					[
						-2,12
					],
					[
						19,12
					],
					[
						19,13
					],
					[
						-2,13
					],
					[
						-2,14
					],
					[
						19,14
					],
					[
						19,15
					],
					[
						-2,15
					],
					[
						-2,16
					],
					[
						19,16
					]
				]
			],
			"key": 127,
			"height": 20
		}
	],
	"name": "futural"
}