<?xml version="1.0" encoding="UTF-8" standalone="no"?>
<!-- Created with Inkscape (http://www.inkscape.org/) -->

<svg
   xmlns:dc="http://purl.org/dc/elements/1.1/"
   xmlns:cc="http://creativecommons.org/ns#"
   xmlns:rdf="http://www.w3.org/1999/02/22-rdf-syntax-ns#"
   xmlns:svg="http://www.w3.org/2000/svg"
   xmlns="http://www.w3.org/2000/svg"
   xmlns:sodipodi="http://sodipodi.sourceforge.net/DTD/sodipodi-0.dtd"
   xmlns:inkscape="http://www.inkscape.org/namespaces/inkscape"
   version="1.1"
   id="svg2"
   xml:space="preserve"
   width="2226.6667"
   height="170.66667"
   viewBox="0 0 2226.6667 170.66667"
   sodipodi:docname="slanted-plotter-font.svg"
   inkscape:version="0.92.2 (5c3e80d, 2017-08-06)"><metadata
     id="metadata8"><rdf:RDF><cc:Work
         rdf:about=""><dc:format>image/svg+xml</dc:format><dc:type
           rdf:resource="http://purl.org/dc/dcmitype/StillImage" /><dc:title></dc:title></cc:Work></rdf:RDF></metadata><defs
     id="defs6" /><sodipodi:namedview
     pagecolor="#ffffff"
     bordercolor="#666666"
     borderopacity="1"
     objecttolerance="10"
     gridtolerance="10"
     guidetolerance="10"
     inkscape:pageopacity="0"
     inkscape:pageshadow="2"
     inkscape:window-width="1381"
     inkscape:window-height="842"
     id="namedview4"
     showgrid="false"
     inkscape:zoom="0.24007756"
     inkscape:cx="446.24433"
     inkscape:cy="-735.43854"
     inkscape:window-x="377"
     inkscape:window-y="265"
     inkscape:window-maximized="0"
     inkscape:current-layer="g10" /><g
     id="g10"
     inkscape:groupmode="layer"
     inkscape:label="ink_ext_XXXXXX"
     transform="matrix(1.3333333,0,0,-1.3333333,0,170.66667)"><g
       id="g12"
       transform="scale(0.1)"
       style="stroke-width:18.75000047;stroke-miterlimit:4;stroke-dasharray:none"><path
         d="M 639.211,1277.01 1.41797,1.41797 H 851.813"
         style="fill:none;stroke:#000000;stroke-width:18.75000047;stroke-linecap:round;stroke-linejoin:round;stroke-miterlimit:4;stroke-dasharray:none;stroke-opacity:1"
         id="path14"
         inkscape:connector-curvature="0" /><path
         d="M 1277.01,1.41797 H 2127.4"
         style="fill:none;stroke:#000000;stroke-width:18.75000047;stroke-linecap:round;stroke-linejoin:round;stroke-miterlimit:4;stroke-dasharray:none;stroke-opacity:1"
         id="path16"
         inkscape:connector-curvature="0" /><path
         d="M 1702.2,1.41797 2340,1277.01"
         style="fill:none;stroke:#000000;stroke-width:18.75000047;stroke-linecap:round;stroke-linejoin:round;stroke-miterlimit:4;stroke-dasharray:none;stroke-opacity:1"
         id="path18"
         inkscape:connector-curvature="0" /><path
         d="m 1914.8,1277.01 h 850.4"
         style="fill:none;stroke:#000000;stroke-width:18.75000047;stroke-linecap:round;stroke-linejoin:round;stroke-miterlimit:4;stroke-dasharray:none;stroke-opacity:1"
         id="path20"
         inkscape:connector-curvature="0" /><path
         d="M 3190.39,1277.01 2977.8,851.813 V 1.41797 l 850.39,850.39503 212.6,425.197"
         style="fill:none;stroke:#000000;stroke-width:18.75000047;stroke-linecap:round;stroke-linejoin:round;stroke-miterlimit:4;stroke-dasharray:none;stroke-opacity:1"
         id="path22"
         inkscape:connector-curvature="0" /><path
         d="m 3828.19,1.41797 h 850.39"
         style="fill:none;stroke:#000000;stroke-width:18.75000047;stroke-linecap:round;stroke-linejoin:round;stroke-miterlimit:4;stroke-dasharray:none;stroke-opacity:1"
         id="path24"
         inkscape:connector-curvature="0" /><path
         d="M 4253.39,1.41797 4891.18,1277.01"
         style="fill:none;stroke:#000000;stroke-width:18.75000047;stroke-linecap:round;stroke-linejoin:round;stroke-miterlimit:4;stroke-dasharray:none;stroke-opacity:1"
         id="path26"
         inkscape:connector-curvature="0" /><path
         d="m 4465.98,1277.01 h 850.4"
         style="fill:none;stroke:#000000;stroke-width:18.75000047;stroke-linecap:round;stroke-linejoin:round;stroke-miterlimit:4;stroke-dasharray:none;stroke-opacity:1"
         id="path28"
         inkscape:connector-curvature="0" /><path
         d="M 5103.78,1.41797 5741.57,1277.01 5954.18,1.41797 6591.97,1277.01"
         style="fill:none;stroke:#000000;stroke-width:18.75000047;stroke-linecap:round;stroke-linejoin:round;stroke-miterlimit:4;stroke-dasharray:none;stroke-opacity:1"
         id="path30"
         inkscape:connector-curvature="0" /><path
         d="m 7761.26,1064.41 -106.3,212.6 h -425.19 l -318.9,-212.6 -425.2,-850.394 106.3,-212.59803 h 425.2 l 318.89,212.59803 212.6,425.195 h -637.79"
         style="fill:none;stroke:#000000;stroke-width:18.75000047;stroke-linecap:round;stroke-linejoin:round;stroke-miterlimit:4;stroke-dasharray:none;stroke-opacity:1"
         id="path32"
         inkscape:connector-curvature="0" /><path
         d="M 9887.25,214.016 9568.35,1.41797 h -425.2 l -106.3,212.59803 425.2,850.394 318.9,212.6 h 425.15 l 106.3,-212.6"
         style="fill:none;stroke:#000000;stroke-width:18.75000047;stroke-linecap:round;stroke-linejoin:round;stroke-miterlimit:4;stroke-dasharray:none;stroke-opacity:1"
         id="path34"
         inkscape:connector-curvature="0" /><path
         d="m 10418.7,1.41797 -106.3,212.59803 425.2,850.394 318.9,212.6 h 425.2 L 11588,1064.41 11162.8,214.016 10843.9,1.41797 h -425.2"
         style="fill:none;stroke:#000000;stroke-width:18.75000047;stroke-linecap:round;stroke-linejoin:round;stroke-miterlimit:4;stroke-dasharray:none;stroke-opacity:1"
         id="path36"
         inkscape:connector-curvature="0" /><path
         d="M 12119.5,1277.01 11481.7,1.41797 h 850.4"
         style="fill:none;stroke:#000000;stroke-width:18.75000047;stroke-linecap:round;stroke-linejoin:round;stroke-miterlimit:4;stroke-dasharray:none;stroke-opacity:1"
         id="path38"
         inkscape:connector-curvature="0" /><path
         d="m 12969.9,1.41797 -106.3,212.59803 425.2,850.394 318.9,212.6 h 425.2 l 106.3,-212.6 L 13714,214.016 13395.1,1.41797 h -425.2"
         style="fill:none;stroke:#000000;stroke-width:18.75000047;stroke-linecap:round;stroke-linejoin:round;stroke-miterlimit:4;stroke-dasharray:none;stroke-opacity:1"
         id="path40"
         inkscape:connector-curvature="0" /><path
         d="M 14032.9,1.41797 14670.7,1277.01 h 637.8 l 106.3,-212.6 -106.3,-212.597 -318.9,-212.602 h -637.8 212.6 L 14883.3,1.41797"
         style="fill:none;stroke:#000000;stroke-width:18.75000047;stroke-linecap:round;stroke-linejoin:round;stroke-miterlimit:4;stroke-dasharray:none;stroke-opacity:1"
         id="path42"
         inkscape:connector-curvature="0" /><g
         id="g44"
         transform="scale(1.02395)"
         style="stroke-width:18.31144145;stroke-miterlimit:4;stroke-dasharray:none"><path
           d="M 15054.2,209.01 15158.1,1.3848 h 415.2 l 311.4,207.6252 103.9,207.625 -103.9,207.624 h -415.2 l -103.8,207.629 103.8,207.622 311.4,207.63 h 415.3 l 103.8,-207.63"
           style="fill:none;stroke:#000000;stroke-width:18.31144145;stroke-linecap:round;stroke-linejoin:round;stroke-miterlimit:4;stroke-dasharray:none;stroke-opacity:1"
           id="path46"
           inkscape:connector-curvature="0" /></g></g></g></svg>