%!PS-Adobe-2.0 EPSF-2.0
%%Title: /home/gijs/.chiplotle/output/20180115_204256.eps
%%Creator: hp2xx 3.4.4 (c) 1991-1994 by H. Werntges, 1999-2003 by M. Kroeker
%%CreationDate: Mon Jan 15 20:42:56 2018
%%Pages: 1
%%BoundingBox: 0 0 474 614
%%EndComments

%%BeginProcSet:
/PSSave save def
/PSDict 200 dict def
PSDict begin
/@restore /restore load def
/restore
   {vmstatus pop
    dup @VMused lt {pop @VMused} if
    exch pop exch @restore /@VMused exch def
   } def
/@pri
   {
    ( ) print
    (                                       ) cvs print
   } def
/@start
   {
    vmstatus pop /@VMused exch def pop
   } def
/@end
   {(VM Used: ) print @VMused @pri
    (. Unused: ) print vmstatus @VMused sub @pri pop pop
    (\n) print flush
    end
    PSSave restore
   } def
/bop
   {
    /SaveImage save def
   } def
/eop
   {
    showpage
    SaveImage restore
   } def
/@line
   {
%%    1 setlinejoin      %% now set from LA command
%%    1 setmiterlimit    %% now set from LA command
   } def
/@SetPlot
   {
    2.834646 2.834646 scale
      0.050   0.050 translate
     0.100 setlinewidth
   } def
/C {setrgbcolor} def
/D {lineto} def
/M {moveto} def
/S {stroke} def
/W {setlinewidth} def
/Z {stroke newpath} def
end
%%EndProcSet

%%BeginSetup
/#copies 1 def
%%EndSetup
%%Page: 1 1
%%BeginPageSetup
PSDict begin
@start
@line
@SetPlot

bop
%%EndPageSetup
  0.100 W
 S
175.10 -20.00 M  0.100 W
 S
175.10 -20.00 M 1 setlinecap
 S
175.10 -20.00 M 1 setlinejoin
 S
175.10 -20.00 M  0.000  0.000  0.000 C
 S
142.98  18.24 M 142.11  19.10 D S
142.79  17.43 M 141.11  19.10 D S
141.79  17.43 M 140.11  19.10 D S
140.79  17.43 M 139.11  19.10 D S
139.79  17.43 M 138.11  19.10 D S
138.79  17.43 M 137.11  19.10 D S
137.79  17.43 M 136.11  19.10 D S
136.79  17.43 M 135.11  19.10 D S
135.79  17.43 M 134.11  19.10 D S
134.79  17.43 M 133.11  19.10 D S
133.79  17.43 M 132.11  19.10 D S
132.79  17.43 M 131.11  19.10 D S
131.79  17.43 M 130.11  19.10 D S
130.79  17.43 M 129.11  19.10 D S
129.79  17.43 M 128.11  19.10 D S
128.79  17.43 M 127.95  18.26 D S
166.98   1.05 M 166.98   3.15 D S
166.98   2.10 M 158.07   2.10 D 159.56   1.05 D S
139.98  71.06 M 139.11  71.93 D S
139.98  70.06 M 138.11  71.93 D S
139.98  69.06 M 137.11  71.93 D S
139.98  68.06 M 136.68  71.36 D S
139.98  67.06 M 136.68  70.36 D S
139.98  66.06 M 136.68  69.36 D S
139.98  65.06 M 136.68  68.36 D S
139.98  64.06 M 136.68  67.36 D S
139.98  63.06 M 136.68  66.36 D S
139.98  62.06 M 136.68  65.36 D S
139.98  61.06 M 136.68  64.36 D S
139.98  60.06 M 136.68  63.36 D S
139.98  59.06 M 136.68  62.36 D S
139.98  58.06 M 136.68  61.36 D S
139.98  57.06 M 136.68  60.36 D S
139.98  56.06 M 136.68  59.36 D S
139.98  55.06 M 136.68  58.36 D S
139.98  54.06 M 136.68  57.36 D S
139.98  53.06 M 136.68  56.36 D S
139.98  52.06 M 136.68  55.36 D S
139.98  51.06 M 136.68  54.36 D S
139.98  50.06 M 136.68  53.36 D S
139.98  49.06 M 136.68  52.36 D S
139.98  48.06 M 136.68  51.36 D S
139.98  47.06 M 136.68  50.36 D S
139.98  46.06 M 136.68  49.36 D S
139.46  45.58 M 136.68  48.36 D S
138.46  45.58 M 136.68  47.36 D S
137.46  45.58 M 136.68  46.36 D S
166.98  45.55 M 166.98  47.65 D S
166.98  46.60 M 158.07  46.60 D 159.56  45.55 D S
153.18 122.79 M 153.11 122.85 D S
153.18 121.79 M 152.11 122.85 D S
153.18 120.79 M 151.11 122.85 D S
153.18 119.79 M 150.11 122.85 D S
153.18 118.79 M 149.11 122.85 D S
153.18 117.79 M 148.11 122.85 D S
153.18 116.79 M 147.11 122.85 D S
153.18 115.79 M 146.11 122.85 D S
153.18 114.79 M 145.11 122.85 D S
153.18 113.79 M 144.11 122.85 D S
153.18 112.79 M 143.11 122.85 D S
153.18 111.79 M 142.11 122.85 D S
153.18 110.79 M 141.11 122.85 D S
153.18 109.79 M 140.11 122.85 D S
153.18 108.79 M 139.11 122.85 D S
153.18 107.79 M 138.11 122.85 D S
153.18 106.79 M 137.11 122.85 D S
153.18 105.79 M 136.11 122.85 D S
153.18 104.79 M 135.11 122.85 D S
153.18 103.79 M 134.11 122.85 D S
153.18 102.79 M 133.11 122.85 D S
153.18 101.79 M 132.11 122.85 D S
153.18 100.79 M 131.11 122.85 D S
153.18  99.79 M 130.11 122.85 D S
153.18  98.79 M 129.11 122.85 D S
153.18  97.79 M 128.11 122.85 D S
153.18  96.79 M 127.80 122.16 D S
153.18  95.79 M 127.80 121.16 D S
152.89  95.08 M 127.80 120.16 D S
151.89  95.08 M 127.80 119.16 D S
150.89  95.08 M 127.80 118.16 D S
149.89  95.08 M 127.80 117.16 D S
148.89  95.08 M 127.80 116.16 D S
147.89  95.08 M 127.80 115.16 D S
146.89  95.08 M 127.80 114.16 D S
145.89  95.08 M 127.80 113.16 D S
144.89  95.08 M 127.80 112.16 D S
143.89  95.08 M 127.80 111.16 D S
142.89  95.08 M 127.80 110.16 D S
141.89  95.08 M 127.80 109.16 D S
140.89  95.08 M 127.80 108.16 D S
139.89  95.08 M 127.80 107.16 D S
138.89  95.08 M 127.80 106.16 D S
137.89  95.08 M 127.80 105.16 D S
136.89  95.08 M 127.80 104.16 D S
135.89  95.08 M 127.80 103.16 D S
134.89  95.08 M 127.80 102.16 D S
133.89  95.08 M 127.80 101.16 D S
132.89  95.08 M 127.80 100.16 D S
131.89  95.08 M 127.80  99.16 D S
130.89  95.08 M 127.80  98.16 D S
129.89  95.08 M 127.80  97.16 D S
128.89  95.08 M 127.80  96.16 D S
127.89  95.08 M 127.80  95.16 D S
166.98  90.05 M 166.98  92.15 D S
166.98  91.10 M 158.07  91.10 D 159.56  90.05 D S
146.59 135.80 M 146.11 136.28 D S
145.59 135.80 M 145.11 136.28 D S
144.59 135.80 M 144.11 136.28 D S
143.59 135.80 M 143.11 136.28 D S
142.59 135.80 M 142.11 136.28 D S
141.59 135.80 M 141.11 136.28 D S
140.59 135.80 M 140.11 136.28 D S
139.59 135.80 M 139.11 136.28 D S
138.59 135.80 M 138.11 136.28 D S
137.59 135.80 M 137.11 136.28 D S
136.59 135.80 M 136.11 136.28 D S
135.59 135.80 M 135.11 136.28 D S
134.59 135.80 M 134.11 136.28 D S
133.59 135.80 M 133.11 136.28 D S
132.59 135.80 M 132.11 136.28 D S
131.59 135.80 M 131.11 136.28 D S
130.59 135.80 M 130.11 136.28 D S
129.59 135.80 M 129.11 136.28 D S
166.98 134.55 M 166.98 136.65 D S
166.98 135.60 M 158.07 135.60 D 159.56 134.55 D S
140.23 216.16 M 140.11 216.28 D S
140.23 215.16 M 139.11 216.28 D S
140.23 214.16 M 138.11 216.28 D S
140.23 213.16 M 137.11 216.28 D S
140.23 212.16 M 136.11 216.28 D S
140.23 211.16 M 135.11 216.28 D S
140.23 210.16 M 134.11 216.28 D S
140.23 209.16 M 133.11 216.28 D S
140.23 208.16 M 132.62 215.76 D S
140.23 207.16 M 132.62 214.76 D S
140.23 206.16 M 132.62 213.76 D S
140.23 205.16 M 132.62 212.76 D S
140.23 204.16 M 132.62 211.76 D S
140.23 203.16 M 132.62 210.76 D S
140.23 202.16 M 132.62 209.76 D S
140.23 201.16 M 132.62 208.76 D S
140.23 200.16 M 132.62 207.76 D S
140.23 199.16 M 132.62 206.76 D S
140.23 198.16 M 132.62 205.76 D S
140.23 197.16 M 132.62 204.76 D S
140.23 196.16 M 132.62 203.76 D S
140.23 195.16 M 132.62 202.76 D S
140.23 194.16 M 132.62 201.76 D S
140.23 193.16 M 132.62 200.76 D S
140.23 192.16 M 132.62 199.76 D S
140.23 191.16 M 132.62 198.76 D S
140.23 190.16 M 132.62 197.76 D S
140.23 189.16 M 132.62 196.76 D S
140.23 188.16 M 132.62 195.76 D S
140.23 187.16 M 132.62 194.76 D S
140.23 186.16 M 132.62 193.76 D S
140.23 185.16 M 132.62 192.76 D S
140.23 184.16 M 132.62 191.76 D S
140.23 183.16 M 132.62 190.76 D S
140.23 182.16 M 132.62 189.76 D S
140.23 181.16 M 132.62 188.76 D S
140.23 180.16 M 132.62 187.76 D S
140.23 179.16 M 132.62 186.76 D S
139.36 179.03 M 132.62 185.76 D S
138.36 179.03 M 132.62 184.76 D S
137.36 179.03 M 132.62 183.76 D S
136.36 179.03 M 132.62 182.76 D S
135.36 179.03 M 132.62 181.76 D S
134.36 179.03 M 132.62 180.76 D S
133.36 179.03 M 132.62 179.76 D S
166.98 179.05 M 166.98 181.15 D S
166.98 180.10 M 158.07 180.10 D 159.56 179.05 D S
 91.20  16.46 M  91.11  16.55 D S
 91.20  15.46 M  90.11  16.55 D S
 91.20  14.46 M  89.11  16.55 D S
 91.20  13.46 M  88.11  16.55 D S
 90.91  12.75 M  87.11  16.55 D S
 89.91  12.75 M  86.11  16.55 D S
 88.91  12.75 M  85.11  16.55 D S
 87.91  12.75 M  84.11  16.55 D S
 86.91  12.75 M  83.11  16.55 D S
 85.91  12.75 M  82.11  16.55 D S
 84.91  12.75 M  81.11  16.55 D S
 83.91  12.75 M  80.25  16.41 D S
 82.91  12.75 M  80.25  15.41 D S
 81.91  12.75 M  80.25  14.41 D S
 80.91  12.75 M  80.25  13.41 D S
107.98   1.05 M 107.98   3.15 D S
107.98   2.10 M  99.07   2.10 D 100.56   1.05 D S
 95.35  61.96 M  95.11  62.20 D S
 95.35  60.96 M  94.11  62.20 D S
 95.35  59.96 M  93.11  62.20 D S
 95.35  58.96 M  92.11  62.20 D S
 95.35  57.96 M  91.11  62.20 D S
 95.35  56.96 M  90.11  62.20 D S
 95.35  55.96 M  89.11  62.20 D S
 95.35  54.96 M  88.11  62.20 D S
 95.35  53.96 M  87.70  61.61 D S
 95.35  52.96 M  87.70  60.61 D S
 95.35  51.96 M  87.70  59.61 D S
 94.39  51.92 M  87.70  58.61 D S
 93.39  51.92 M  87.70  57.61 D S
 92.39  51.92 M  87.70  56.61 D S
 91.39  51.92 M  87.70  55.61 D S
 90.39  51.92 M  87.70  54.61 D S
 89.39  51.92 M  87.70  53.61 D S
 88.39  51.92 M  87.70  52.61 D S
107.98  45.55 M 107.98  47.65 D S
107.98  46.60 M  99.07  46.60 D 100.56  45.55 D S
 93.45 128.61 M  93.11 128.95 D S
 93.45 127.61 M  92.11 128.95 D S
 93.45 126.61 M  91.11 128.95 D S
 93.45 125.61 M  90.11 128.95 D S
 93.45 124.61 M  89.11 128.95 D S
 93.45 123.61 M  88.11 128.95 D S
 93.45 122.61 M  87.11 128.95 D S
 93.45 121.61 M  86.11 128.95 D S
 93.45 120.61 M  85.11 128.95 D S
 93.45 119.61 M  84.11 128.95 D S
 93.45 118.61 M  83.11 128.95 D S
 93.45 117.61 M  82.11 128.95 D S
 93.45 116.61 M  81.11 128.95 D S
 93.45 115.61 M  80.11 128.95 D S
 93.45 114.61 M  79.11 128.95 D S
 93.45 113.61 M  78.11 128.95 D S
 93.45 112.61 M  77.11 128.95 D S
 93.45 111.61 M  76.11 128.95 D S
 93.45 110.61 M  75.11 128.95 D S
 93.45 109.61 M  74.11 128.95 D S
 93.45 108.61 M  73.11 128.95 D S
 93.45 107.61 M  72.11 128.95 D S
 93.45 106.61 M  71.11 128.95 D S
 93.45 105.61 M  70.11 128.95 D S
 93.45 104.61 M  69.11 128.95 D S
 93.45 103.61 M  68.11 128.95 D S
 93.45 102.61 M  67.83 128.24 D S
 93.45 101.61 M  67.83 127.24 D S
 93.45 100.61 M  67.83 126.24 D S
 93.45  99.61 M  67.83 125.24 D S
 93.45  98.61 M  67.83 124.24 D S
 93.45  97.61 M  67.83 123.24 D S
 93.45  96.61 M  67.83 122.24 D S
 93.45  95.61 M  67.83 121.24 D S
 93.45  94.61 M  67.83 120.24 D S
 93.45  93.61 M  67.83 119.24 D S
 93.45  92.61 M  67.83 118.24 D S
 93.45  91.61 M  67.83 117.24 D S
 93.45  90.61 M  67.83 116.24 D S
 93.45  89.61 M  67.83 115.24 D S
 93.06  89.00 M  67.83 114.24 D S
 92.06  89.00 M  67.83 113.24 D S
 91.06  89.00 M  67.83 112.24 D S
 90.06  89.00 M  67.83 111.24 D S
 89.06  89.00 M  67.83 110.24 D S
 88.06  89.00 M  67.83 109.24 D S
 87.06  89.00 M  67.83 108.24 D S
 86.06  89.00 M  67.83 107.24 D S
 85.06  89.00 M  67.83 106.24 D S
 84.06  89.00 M  67.83 105.24 D S
 83.06  89.00 M  67.83 104.24 D S
 82.06  89.00 M  67.83 103.24 D S
 81.06  89.00 M  67.83 102.24 D S
 80.06  89.00 M  67.83 101.24 D S
 79.06  89.00 M  67.83 100.24 D S
 78.06  89.00 M  67.83  99.24 D S
 77.06  89.00 M  67.83  98.24 D S
 76.06  89.00 M  67.83  97.24 D S
 75.06  89.00 M  67.83  96.24 D S
 74.06  89.00 M  67.83  95.24 D S
 73.06  89.00 M  67.83  94.24 D S
 72.06  89.00 M  67.83  93.24 D S
 71.06  89.00 M  67.83  92.24 D S
 70.06  89.00 M  67.83  91.24 D S
 69.06  89.00 M  67.83  90.24 D S
 68.06  89.00 M  67.83  89.24 D S
107.98  90.05 M 107.98  92.15 D S
107.98  91.10 M  99.07  91.10 D 100.56  90.05 D S
100.56  90.05 M  1.000  0.000  0.000 C
 S
154.88   1.00 M 142.95   1.00 D S
154.88   2.00 M 142.95   2.00 D S
154.88   3.00 M 142.95   3.00 D S
154.88   4.00 M 142.95   4.00 D S
154.88   5.00 M 142.95   5.00 D S
154.88   6.00 M 142.95   6.00 D S
154.88   7.00 M 142.95   7.00 D S
154.88   8.00 M 142.95   8.00 D S
154.88   9.00 M 142.95   9.00 D S
154.88  10.00 M 142.95  10.00 D S
154.88  11.00 M 142.95  11.00 D S
154.88  12.00 M 142.95  12.00 D S
154.88  13.00 M 142.95  13.00 D S
154.88  14.00 M 142.95  14.00 D S
154.88  15.00 M 142.95  15.00 D S
154.88  16.00 M 142.95  16.00 D S
154.88  17.00 M 142.95  17.00 D S
154.88  18.00 M 142.95  18.00 D S
154.88  19.00 M 142.95  19.00 D S
154.88  20.00 M 142.95  20.00 D S
154.88  21.00 M 142.95  21.00 D S
154.88  22.00 M 142.95  22.00 D S
154.88  23.00 M 142.95  23.00 D S
154.88  24.00 M 142.95  24.00 D S
154.88  25.00 M 142.95  25.00 D S
154.88  26.00 M 142.95  26.00 D S
154.88  27.00 M 142.95  27.00 D S
154.88  28.00 M 142.95  28.00 D S
154.88  29.00 M 142.95  29.00 D S
154.88  30.00 M 142.95  30.00 D S
154.88  31.00 M 142.95  31.00 D S
159.56  10.00 M 158.07  11.05 D 158.07  13.15 D 159.56  14.20 D 161.04  14.20 D
165.49  10.00 D 166.98  10.00 D 166.98  14.20 D S
145.65  49.00 M 127.30  49.00 D S
145.65  50.00 M 127.30  50.00 D S
145.65  51.00 M 127.30  51.00 D S
145.65  52.00 M 127.30  52.00 D S
145.65  53.00 M 127.30  53.00 D S
145.65  54.00 M 127.30  54.00 D S
145.65  55.00 M 127.30  55.00 D S
145.65  56.00 M 127.30  56.00 D S
145.65  57.00 M 127.30  57.00 D S
145.65  58.00 M 127.30  58.00 D S
145.65  59.00 M 127.30  59.00 D S
145.65  60.00 M 127.30  60.00 D S
145.65  61.00 M 127.30  61.00 D S
145.65  62.00 M 127.30  62.00 D S
145.65  63.00 M 127.30  63.00 D S
145.65  64.00 M 127.30  64.00 D S
145.65  65.00 M 127.30  65.00 D S
145.65  66.00 M 127.30  66.00 D S
145.65  67.00 M 127.30  67.00 D S
145.65  68.00 M 127.30  68.00 D S
145.65  69.00 M 127.30  69.00 D S
145.65  70.00 M 127.30  70.00 D S
145.65  71.00 M 127.30  71.00 D S
145.65  72.00 M 127.30  72.00 D S
159.56  54.50 M 158.07  55.55 D 158.07  57.65 D 159.56  58.70 D 161.04  58.70 D
165.49  54.50 D 166.98  54.50 D 166.98  58.70 D S
149.80  90.00 M 132.03  90.00 D S
149.80  91.00 M 132.03  91.00 D S
159.56  99.00 M 158.07 100.05 D 158.07 102.15 D 159.56 103.20 D 161.04 103.20 D
165.49  99.00 D 166.98  99.00 D 166.98 103.20 D S
154.85 135.00 M 142.25 135.00 D S
154.85 136.00 M 142.25 136.00 D S
154.85 137.00 M 142.25 137.00 D S
154.85 138.00 M 142.25 138.00 D S
154.85 139.00 M 142.25 139.00 D S
154.85 140.00 M 142.25 140.00 D S
154.85 141.00 M 142.25 141.00 D S
154.85 142.00 M 142.25 142.00 D S
154.85 143.00 M 142.25 143.00 D S
154.85 144.00 M 142.25 144.00 D S
154.85 145.00 M 142.25 145.00 D S
154.85 146.00 M 142.25 146.00 D S
154.85 147.00 M 142.25 147.00 D S
154.85 148.00 M 142.25 148.00 D S
154.85 149.00 M 142.25 149.00 D S
154.85 150.00 M 142.25 150.00 D S
154.85 151.00 M 142.25 151.00 D S
154.85 152.00 M 142.25 152.00 D S
154.85 153.00 M 142.25 153.00 D S
154.85 154.00 M 142.25 154.00 D S
154.85 155.00 M 142.25 155.00 D S
154.85 156.00 M 142.25 156.00 D S
154.85 157.00 M 142.25 157.00 D S
154.85 158.00 M 142.25 158.00 D S
154.85 159.00 M 142.25 159.00 D S
154.85 160.00 M 142.25 160.00 D S
154.85 161.00 M 142.25 161.00 D S
154.85 162.00 M 142.25 162.00 D S
154.85 163.00 M 142.25 163.00 D S
154.85 164.00 M 142.25 164.00 D S
154.85 165.00 M 142.25 165.00 D S
154.85 166.00 M 142.25 166.00 D S
154.85 167.00 M 142.25 167.00 D S
154.85 168.00 M 142.25 168.00 D S
154.85 169.00 M 142.25 169.00 D S
154.85 170.00 M 142.25 170.00 D S
159.56 143.50 M 158.07 144.55 D 158.07 146.65 D 159.56 147.70 D 161.04 147.70 D
165.49 143.50 D 166.98 143.50 D 166.98 147.70 D S
 95.90 135.00 M  57.45 135.00 D S
 95.90 136.00 M  57.45 136.00 D S
 95.90 137.00 M  57.45 137.00 D S
 95.90 138.00 M  57.45 138.00 D S
 95.90 139.00 M  57.45 139.00 D S
 95.90 140.00 M  57.45 140.00 D S
 95.90 141.00 M  57.45 141.00 D S
 95.90 142.00 M  57.45 142.00 D S
 95.90 143.00 M  57.45 143.00 D S
 95.90 144.00 M  57.45 144.00 D S
 95.90 145.00 M  57.45 145.00 D S
 95.90 146.00 M  57.45 146.00 D S
 95.90 147.00 M  57.45 147.00 D S
 95.90 148.00 M  57.45 148.00 D S
 95.90 149.00 M  57.45 149.00 D S
 95.90 150.00 M  57.45 150.00 D S
 95.90 151.00 M  57.45 151.00 D S
 95.90 152.00 M  57.45 152.00 D S
 95.90 153.00 M  57.45 153.00 D S
 95.90 154.00 M  57.45 154.00 D S
 95.90 155.00 M  57.45 155.00 D S
 95.90 156.00 M  57.45 156.00 D S
 95.90 157.00 M  57.45 157.00 D S
 95.90 158.00 M  57.45 158.00 D S
 95.90 159.00 M  57.45 159.00 D S
 95.90 160.00 M  57.45 160.00 D S
 95.90 161.00 M  57.45 161.00 D S
 95.90 162.00 M  57.45 162.00 D S
 95.90 163.00 M  57.45 163.00 D S
 95.90 164.00 M  57.45 164.00 D S
 95.90 165.00 M  57.45 165.00 D S
 95.90 166.00 M  57.45 166.00 D S
 95.90 167.00 M  57.45 167.00 D S
 95.90 168.00 M  57.45 168.00 D S
 95.90 169.00 M  57.45 169.00 D S
 95.90 170.00 M  57.45 170.00 D S
 95.90 171.00 M  57.45 171.00 D S
100.56 133.50 M  99.07 134.55 D  99.07 136.65 D 100.56 137.70 D 102.04 137.70 D
106.49 133.50 D 107.98 133.50 D 107.98 137.70 D S
 78.65 190.00 M  77.60 190.00 D S
 78.65 191.00 M  77.60 191.00 D S
 78.65 192.00 M  77.60 192.00 D S
 78.65 193.00 M  77.60 193.00 D S
 78.65 194.00 M  77.60 194.00 D S
 78.65 195.00 M  77.60 195.00 D S
100.56 178.00 M  99.07 179.05 D  99.07 181.15 D 100.56 182.20 D 102.04 182.20 D
106.49 178.00 D 107.98 178.00 D 107.98 182.20 D S
 30.23   2.00 M  14.03   2.00 D S
 30.23   3.00 M  14.03   3.00 D S
 30.23   4.00 M  14.03   4.00 D S
 30.23   5.00 M  14.03   5.00 D S
 30.23   6.00 M  14.03   6.00 D S
 30.23   7.00 M  14.03   7.00 D S
 30.23   8.00 M  14.03   8.00 D S
 30.23   9.00 M  14.03   9.00 D S
 30.23  10.00 M  14.03  10.00 D S
 30.23  11.00 M  14.03  11.00 D S
 30.23  12.00 M  14.03  12.00 D S
 30.23  13.00 M  14.03  13.00 D S
 30.23  14.00 M  14.03  14.00 D S
 30.23  15.00 M  14.03  15.00 D S
 30.23  16.00 M  14.03  16.00 D S
 30.23  17.00 M  14.03  17.00 D S
 30.23  18.00 M  14.03  18.00 D S
 30.23  19.00 M  14.03  19.00 D S
 30.23  20.00 M  14.03  20.00 D S
 30.23  21.00 M  14.03  21.00 D S
 30.23  22.00 M  14.03  22.00 D S
 30.23  23.00 M  14.03  23.00 D S
 30.23  24.00 M  14.03  24.00 D S
 30.23  25.00 M  14.03  25.00 D S
 30.23  26.00 M  14.03  26.00 D S
 30.23  27.00 M  14.03  27.00 D S
 30.23  28.00 M  14.03  28.00 D S
 30.23  29.00 M  14.03  29.00 D S
 30.23  30.00 M  14.03  30.00 D S
 30.23  31.00 M  14.03  31.00 D S
 41.56   0.00 M  40.07   1.05 D  40.07   3.15 D  41.56   4.20 D  43.04   4.20 D
 47.49   0.00 D  48.98   0.00 D  48.98   4.20 D S
 34.55  47.00 M  18.68  47.00 D S
 34.55  48.00 M  18.68  48.00 D S
 34.55  49.00 M  18.68  49.00 D S
 34.55  50.00 M  18.68  50.00 D S
 34.55  51.00 M  18.68  51.00 D S
 34.55  52.00 M  18.68  52.00 D S
 34.55  53.00 M  18.68  53.00 D S
 34.55  54.00 M  18.68  54.00 D S
 34.55  55.00 M  18.68  55.00 D S
 34.55  56.00 M  18.68  56.00 D S
 34.55  57.00 M  18.68  57.00 D S
 34.55  58.00 M  18.68  58.00 D S
 34.55  59.00 M  18.68  59.00 D S
 34.55  60.00 M  18.68  60.00 D S
 34.55  61.00 M  18.68  61.00 D S
 34.55  62.00 M  18.68  62.00 D S
 34.55  63.00 M  18.68  63.00 D S
 34.55  64.00 M  18.68  64.00 D S
 34.55  65.00 M  18.68  65.00 D S
 34.55  66.00 M  18.68  66.00 D S
 34.55  67.00 M  18.68  67.00 D S
 34.55  68.00 M  18.68  68.00 D S
 34.55  69.00 M  18.68  69.00 D S
 34.55  70.00 M  18.68  70.00 D S
 34.55  71.00 M  18.68  71.00 D S
 34.55  72.00 M  18.68  72.00 D S
 41.56  44.50 M  40.07  45.55 D  40.07  47.65 D  41.56  48.70 D  43.04  48.70 D
 47.49  44.50 D  48.98  44.50 D  48.98  48.70 D S
 48.98  48.70 M  0.000  1.000  0.000 C
 S
147.07   6.33 M 146.95   6.20 D S
147.07   7.33 M 145.95   6.20 D S
147.07   8.32 M 144.95   6.20 D S
146.32   9.57 M 142.95   6.20 D S
145.32   9.57 M 141.95   6.20 D S
144.32   9.57 M 140.95   6.20 D S
141.32   9.57 M 137.95   6.20 D S
140.32   9.57 M 136.95   6.20 D S
139.32   9.57 M 135.95   6.20 D S
138.32   9.57 M 134.95   6.20 D S
134.32   9.57 M 130.95   6.20 D S
133.32   9.57 M 129.95   6.20 D S
130.32   9.57 M 127.47   6.72 D S
129.32   9.57 M 127.47   7.72 D S
128.32   9.57 M 127.47   8.73 D S
165.49  20.00 M 166.98  21.05 D 166.98  23.15 D 165.49  24.20 D 164.01  24.20 D
162.53  23.15 D 162.53  22.10 D 158.07  24.20 D 158.07  20.00 D S
153.43  47.17 M 153.10  46.85 D S
153.43  48.17 M 152.10  46.85 D S
153.43  49.17 M 151.10  46.85 D S
153.43  50.17 M 150.10  46.85 D S
153.43  51.17 M 149.10  46.85 D S
153.43  52.17 M 148.10  46.85 D S
153.43  53.17 M 147.10  46.85 D S
153.43  54.17 M 146.10  46.85 D S
153.43  55.17 M 145.10  46.85 D S
153.43  56.17 M 144.10  46.85 D S
153.43  57.17 M 143.10  46.85 D S
153.43  58.17 M 142.10  46.85 D S
153.43  59.17 M 141.10  46.85 D S
153.43  60.17 M 140.10  46.85 D S
153.43  61.17 M 139.10  46.85 D S
153.43  62.17 M 138.10  46.85 D S
153.43  63.17 M 137.10  46.85 D S
153.43  64.18 M 136.10  46.85 D S
153.43  65.18 M 135.10  46.85 D S
153.43  66.18 M 134.10  46.85 D S
153.43  67.18 M 133.10  46.85 D S
153.43  68.18 M 132.10  46.85 D S
153.43  69.18 M 131.10  46.85 D S
153.43  70.18 M 130.10  46.85 D S
153.43  71.18 M 129.10  46.85 D S
153.43  72.18 M 128.10  46.85 D S
153.43  73.18 M 127.10  46.85 D S
153.43  74.18 M 126.10  46.85 D S
153.43  75.18 M 125.10  46.85 D S
153.43  76.18 M 124.10  46.85 D S
153.43  77.18 M 123.10  46.85 D S
153.43  78.18 M 122.97  47.73 D S
153.43  79.18 M 122.97  48.73 D S
153.40  80.15 M 122.97  49.73 D S
152.40  80.15 M 122.97  50.73 D S
151.40  80.15 M 122.97  51.73 D S
150.40  80.15 M 122.97  52.73 D S
149.40  80.15 M 122.97  53.73 D S
148.40  80.15 M 122.97  54.73 D S
147.40  80.15 M 122.97  55.73 D S
146.40  80.15 M 122.97  56.73 D S
145.40  80.15 M 122.97  57.73 D S
144.40  80.15 M 122.97  58.73 D S
143.40  80.15 M 122.97  59.73 D S
142.40  80.15 M 122.97  60.73 D S
141.40  80.15 M 122.97  61.73 D S
140.40  80.15 M 122.97  62.73 D S
139.40  80.15 M 122.97  63.73 D S
138.40  80.15 M 122.97  64.72 D S
137.40  80.15 M 122.97  65.72 D S
136.40  80.15 M 122.97  66.72 D S
135.40  80.15 M 122.97  67.72 D S
134.40  80.15 M 122.97  68.72 D S
133.40  80.15 M 122.97  69.72 D S
132.40  80.15 M 122.97  70.72 D S
131.40  80.15 M 122.97  71.72 D S
130.40  80.15 M 122.97  72.72 D S
129.40  80.15 M 122.97  73.72 D S
128.40  80.15 M 122.97  74.72 D S
127.40  80.15 M 122.97  75.72 D S
126.40  80.15 M 122.97  76.72 D S
125.40  80.15 M 122.97  77.72 D S
124.40  80.15 M 122.97  78.72 D S
123.40  80.15 M 122.97  79.72 D S
165.49  64.50 M 166.98  65.55 D 166.98  67.65 D 165.49  68.70 D 164.01  68.70 D
162.53  67.65 D 162.53  66.60 D 158.07  68.70 D 158.07  64.50 D S
154.40 193.75 M 154.38 193.73 D S
154.40 194.75 M 153.38 193.73 D S
154.40 195.75 M 152.38 193.73 D S
154.40 196.75 M 151.38 193.73 D S
154.40 197.75 M 150.38 193.73 D S
154.40 198.75 M 149.38 193.73 D S
153.60 198.95 M 148.38 193.73 D S
152.60 198.95 M 147.38 193.73 D S
151.60 198.95 M 146.38 193.73 D S
150.60 198.95 M 145.38 193.73 D S
149.60 198.95 M 144.38 193.73 D S
148.60 198.95 M 143.57 193.93 D S
147.60 198.95 M 143.57 194.93 D S
146.60 198.95 M 143.57 195.93 D S
145.60 198.95 M 143.57 196.93 D S
144.60 198.95 M 143.57 197.93 D S
165.49 188.00 M 166.98 189.05 D 166.98 191.15 D 165.49 192.20 D 164.01 192.20 D
162.53 191.15 D 162.53 190.10 D 158.07 192.20 D 158.07 188.00 D S
 90.33  26.65 M  70.55   6.88 D S
 90.33  27.65 M  70.55   7.88 D S
 71.45  27.77 M  70.55  26.88 D S
106.49  10.00 M 107.98  11.05 D 107.98  13.15 D 106.49  14.20 D 105.01  14.20 D
103.53  13.15 D 103.53  12.10 D  99.07  14.20 D  99.07  10.00 D S
 93.83 134.30 M  93.05 133.53 D S
 93.83 135.30 M  92.05 133.53 D S
 93.83 136.30 M  91.05 133.53 D S
 93.83 137.30 M  90.05 133.53 D S
 93.83 138.30 M  89.05 133.53 D S
 93.83 139.30 M  88.05 133.53 D S
 93.83 140.30 M  87.05 133.53 D S
 93.83 141.30 M  86.05 133.53 D S
 93.83 142.30 M  85.05 133.53 D S
 93.83 143.30 M  84.05 133.53 D S
 93.83 144.30 M  83.05 133.53 D S
 93.83 145.30 M  82.05 133.53 D S
 93.83 146.30 M  81.05 133.53 D S
 93.83 147.30 M  80.05 133.53 D S
 93.83 148.30 M  79.05 133.53 D S
 93.65 149.12 M  78.05 133.53 D S
 92.65 149.12 M  77.05 133.53 D S
 91.65 149.12 M  76.05 133.53 D S
 90.65 149.12 M  75.05 133.53 D S
 89.65 149.12 M  74.05 133.53 D S
 88.65 149.12 M  73.05 133.53 D S
 87.65 149.12 M  72.05 133.53 D S
 86.65 149.12 M  71.05 133.53 D S
 85.65 149.12 M  70.05 133.53 D S
 84.65 149.12 M  69.05 133.53 D S
 83.65 149.12 M  68.05 133.53 D S
 82.65 149.12 M  67.05 133.53 D S
 81.65 149.12 M  66.70 134.18 D S
 80.65 149.12 M  66.70 135.18 D S
 79.65 149.12 M  66.70 136.18 D S
 78.65 149.12 M  66.70 137.18 D S
 77.65 149.12 M  66.70 138.18 D S
 76.65 149.12 M  66.70 139.18 D S
 75.65 149.12 M  66.70 140.18 D S
 74.65 149.12 M  66.70 141.18 D S
 73.65 149.12 M  66.70 142.18 D S
 72.65 149.12 M  66.70 143.18 D S
 71.65 149.12 M  66.70 144.18 D S
 70.65 149.12 M  66.70 145.18 D S
 69.65 149.12 M  66.70 146.18 D S
 68.65 149.12 M  66.70 147.18 D S
 67.65 149.12 M  66.70 148.18 D S
106.49 143.50 M 107.98 144.55 D 107.98 146.65 D 106.49 147.70 D 105.01 147.70 D
103.53 146.65 D 103.53 145.60 D  99.07 147.70 D  99.07 143.50 D S
 92.00 186.07 M  91.30 185.38 D S
 92.00 187.07 M  91.30 186.38 D S
 92.00 188.07 M  91.30 187.38 D S
 92.00 189.07 M  91.30 188.38 D S
 92.00 190.07 M  91.30 189.38 D S
 92.00 191.07 M  91.30 190.38 D S
 92.00 192.07 M  91.30 191.38 D S
 92.00 193.07 M  91.30 192.38 D S
 92.00 194.07 M  91.30 193.38 D S
 92.00 195.07 M  91.30 194.38 D S
 92.00 196.07 M  91.30 195.38 D S
 92.00 197.07 M  91.30 196.38 D S
 92.00 198.07 M  91.30 197.38 D S
 92.00 199.07 M  91.30 198.38 D S
 92.00 200.07 M  91.30 199.38 D S
 92.00 201.07 M  91.30 200.38 D S
 92.00 202.07 M  91.30 201.38 D S
 92.00 203.07 M  91.30 202.38 D S
 92.00 204.07 M  91.30 203.38 D S
 92.00 205.07 M  91.30 204.38 D S
 92.00 206.07 M  91.30 205.38 D S
 92.00 207.07 M  91.30 206.38 D S
 92.00 208.07 M  91.30 207.38 D S
106.49 188.00 M 107.98 189.05 D 107.98 191.15 D 106.49 192.20 D 105.01 192.20 D
103.53 191.15 D 103.53 190.10 D  99.07 192.20 D  99.07 188.00 D S
 36.80 102.53 M  24.05  89.78 D S
 36.80 103.53 M  23.05  89.78 D S
 36.80 104.53 M  22.05  89.78 D S
 36.80 105.53 M  21.05  89.78 D S
 36.80 106.53 M  20.05  89.78 D S
 36.80 107.53 M  19.05  89.78 D S
 36.80 108.53 M  18.05  89.78 D S
 36.80 109.53 M  17.05  89.78 D S
 36.80 110.53 M  16.05  89.78 D S
 36.80 111.53 M  15.05  89.78 D S
 36.80 112.53 M  14.05  89.78 D S
 36.80 113.53 M  13.05  89.78 D S
 36.80 114.53 M  12.05  89.78 D S
 36.80 115.53 M  11.05  89.78 D S
 36.80 116.53 M  10.05  89.78 D S
 36.80 117.53 M   9.05  89.78 D S
 36.80 118.53 M   8.05  89.78 D S
 36.80 119.53 M   7.05  89.78 D S
 36.80 120.53 M   6.05  89.78 D S
 36.80 121.53 M   5.05  89.78 D S
 36.80 122.53 M   4.05  89.78 D S
 36.00 122.72 M   3.05  89.78 D S
 35.00 122.72 M   2.05  89.78 D S
  6.00 122.72 M   0.95 117.68 D S
  5.00 122.72 M   0.95 118.68 D S
  4.00 122.72 M   0.95 119.68 D S
  3.00 122.72 M   0.95 120.68 D S
  2.00 122.72 M   0.95 121.68 D S
  1.00 122.72 M   0.95 122.68 D S
 47.49  89.00 M  48.98  90.05 D  48.98  92.15 D  47.49  93.20 D  46.01  93.20 D
 44.53  92.15 D  44.53  91.10 D  40.07  93.20 D  40.07  89.00 D S
 31.95 135.60 M  31.60 135.25 D S
 31.95 136.60 M  30.60 135.25 D S
 31.95 137.60 M  29.60 135.25 D S
 31.95 138.60 M  28.60 135.25 D S
 31.95 139.60 M  27.60 135.25 D S
 31.95 140.60 M  26.60 135.25 D S
 31.95 141.60 M  25.60 135.25 D S
 31.95 142.60 M  24.60 135.25 D S
 31.95 143.60 M  23.60 135.25 D S
 31.95 144.60 M  22.60 135.25 D S
 31.95 145.60 M  21.60 135.25 D S
 31.95 146.60 M  20.60 135.25 D S
 31.23 146.88 M  19.60 135.25 D S
 30.23 146.88 M  18.88 135.53 D S
 29.23 146.88 M  18.88 136.53 D S
 28.23 146.88 M  18.88 137.53 D S
 27.23 146.88 M  18.88 138.53 D S
 26.23 146.88 M  18.88 139.53 D S
 25.23 146.88 M  18.88 140.53 D S
 24.23 146.88 M  18.88 141.53 D S
 23.23 146.88 M  18.88 142.53 D S
 22.23 146.88 M  18.88 143.53 D S
 21.23 146.88 M  18.88 144.53 D S
 20.23 146.88 M  18.88 145.53 D S
 19.23 146.88 M  18.88 146.53 D S
 47.49 133.50 M  48.98 134.55 D  48.98 136.65 D  47.49 137.70 D  46.01 137.70 D
 44.53 136.65 D  44.53 135.60 D  40.07 137.70 D  40.07 133.50 D S
 40.07 133.50 M  0.000  0.000  1.000 C
 S
150.11   0.08 M 150.11  15.88 D S
149.11   0.08 M 149.11  15.88 D S
148.11   0.08 M 148.11  15.88 D S
147.11   0.08 M 147.11  15.88 D S
146.11   0.08 M 146.11  15.88 D S
145.11   0.08 M 145.11  15.88 D S
144.11   0.08 M 144.11  15.88 D S
143.11   0.08 M 143.11  15.88 D S
142.11   0.08 M 142.11  15.88 D S
141.11   0.08 M 141.11  15.88 D S
140.11   0.08 M 140.11  15.88 D S
139.11   0.08 M 139.11  15.88 D S
138.11   0.08 M 138.11  15.88 D S
137.11   0.08 M 137.11  15.88 D S
136.11   0.08 M 136.11  15.88 D S
135.11   0.08 M 135.11  15.88 D S
134.11   0.08 M 134.11  15.88 D S
133.11   0.08 M 133.11  15.88 D S
132.11   0.08 M 132.11  15.88 D S
131.11   0.08 M 131.11  15.88 D S
130.11   0.08 M 130.11  15.88 D S
129.11   0.08 M 129.11  15.88 D S
128.11   0.08 M 128.11  15.88 D S
127.11   0.08 M 127.11  15.88 D S
126.11   0.08 M 126.11  15.88 D S
125.11   0.08 M 125.11  15.88 D S
124.11   0.08 M 124.11  15.88 D S
123.11   0.08 M 123.11  15.88 D S
122.11   0.08 M 122.11  15.88 D S
158.07  33.15 M 162.53  30.00 D 164.01  30.00 D 164.01  34.20 D S
162.53  33.15 M 166.98  33.15 D S
154.11  98.97 M 154.11 101.60 D S
153.11  98.97 M 153.11 101.60 D S
152.11  98.97 M 152.11 101.60 D S
151.11  98.97 M 151.11 101.60 D S
150.11  98.97 M 150.11 101.60 D S
149.11  98.97 M 149.11 101.60 D S
148.11  98.97 M 148.11 101.60 D S
147.11  98.97 M 147.11 101.60 D S
146.11  98.97 M 146.11 101.60 D S
145.11  98.97 M 145.11 101.60 D S
144.11  98.97 M 144.11 101.60 D S
143.11  98.97 M 143.11 101.60 D S
142.11  98.97 M 142.11 101.60 D S
141.11  98.97 M 141.11 101.60 D S
140.11  98.97 M 140.11 101.60 D S
139.11  98.97 M 139.11 101.60 D S
138.11  98.97 M 138.11 101.60 D S
137.11  98.97 M 137.11 101.60 D S
136.11  98.97 M 136.11 101.60 D S
135.11  98.97 M 135.11 101.60 D S
134.11  98.97 M 134.11 101.60 D S
133.11  98.97 M 133.11 101.60 D S
132.11  98.97 M 132.11 101.60 D S
131.11  98.97 M 131.11 101.60 D S
130.11  98.97 M 130.11 101.60 D S
129.11  98.97 M 129.11 101.60 D S
128.11  98.97 M 128.11 101.60 D S
127.11  98.97 M 127.11 101.60 D S
126.11  98.97 M 126.11 101.60 D S
125.11  98.97 M 125.11 101.60 D S
124.11  98.97 M 124.11 101.60 D S
123.11  98.97 M 123.11 101.60 D S
122.11  98.97 M 122.11 101.60 D S
121.11  98.97 M 121.11 101.60 D S
120.11  98.97 M 120.11 101.60 D S
119.11  98.97 M 119.11 101.60 D S
118.11  98.97 M 118.11 101.60 D S
117.11  98.97 M 117.11 101.60 D S
116.11  98.97 M 116.11 101.60 D S
158.07 112.15 M 162.53 109.00 D 164.01 109.00 D 164.01 113.20 D S
162.53 112.15 M 166.98 112.15 D S
154.11 186.98 M 154.11 189.57 D S
153.11 186.98 M 153.11 189.57 D S
152.11 186.98 M 152.11 189.57 D S
151.11 186.98 M 151.11 189.57 D S
150.11 186.98 M 150.11 189.57 D S
149.11 186.98 M 149.11 189.57 D S
148.11 186.98 M 148.11 189.57 D S
147.11 186.98 M 147.11 189.57 D S
146.11 186.98 M 146.11 189.57 D S
145.11 186.98 M 145.11 189.57 D S
144.11 186.98 M 144.11 189.57 D S
143.11 186.98 M 143.11 189.57 D S
142.11 186.98 M 142.11 189.57 D S
141.11 186.98 M 141.11 189.57 D S
140.11 186.98 M 140.11 189.57 D S
139.11 186.98 M 139.11 189.57 D S
138.11 186.98 M 138.11 189.57 D S
137.11 186.98 M 137.11 189.57 D S
136.11 186.98 M 136.11 189.57 D S
135.11 186.98 M 135.11 189.57 D S
134.11 186.98 M 134.11 189.57 D S
133.11 186.98 M 133.11 189.57 D S
132.11 186.98 M 132.11 189.57 D S
131.11 186.98 M 131.11 189.57 D S
130.11 186.98 M 130.11 189.57 D S
129.11 186.98 M 129.11 189.57 D S
128.11 186.98 M 128.11 189.57 D S
127.11 186.98 M 127.11 189.57 D S
126.11 186.98 M 126.11 189.57 D S
125.11 186.98 M 125.11 189.57 D S
124.11 186.98 M 124.11 189.57 D S
123.11 186.98 M 123.11 189.57 D S
122.11 186.98 M 122.11 189.57 D S
121.11 186.98 M 121.11 189.57 D S
120.11 186.98 M 120.11 189.57 D S
119.11 186.98 M 119.11 189.57 D S
118.11 186.98 M 118.11 189.57 D S
158.07 201.15 M 162.53 198.00 D 164.01 198.00 D 164.01 202.20 D S
162.53 201.15 M 166.98 201.15 D S
 84.11  47.42 M  84.11  48.53 D S
 83.11  47.42 M  83.11  48.53 D S
 82.11  47.42 M  82.11  48.53 D S
 81.11  47.42 M  81.11  48.53 D S
 80.11  47.42 M  80.11  48.53 D S
 79.11  47.42 M  79.11  48.53 D S
 78.11  47.42 M  78.11  48.53 D S
 77.11  47.42 M  77.11  48.53 D S
 99.07  57.65 M 103.53  54.50 D 105.01  54.50 D 105.01  58.70 D S
103.53  57.65 M 107.98  57.65 D S
 89.11 143.53 M  89.11 147.32 D S
 88.11 143.53 M  88.11 147.32 D S
 87.11 143.53 M  87.11 147.32 D S
 86.11 143.53 M  86.11 147.32 D S
 85.11 143.53 M  85.11 147.32 D S
 84.11 143.53 M  84.11 147.32 D S
 83.11 143.53 M  83.11 147.32 D S
 82.11 143.53 M  82.11 147.32 D S
 81.11 143.53 M  81.11 147.32 D S
 80.11 143.53 M  80.11 147.32 D S
 79.11 143.53 M  79.11 147.32 D S
 78.11 143.53 M  78.11 147.32 D S
 77.11 143.53 M  77.11 147.32 D S
 76.11 143.53 M  76.11 147.32 D S
 75.11 143.53 M  75.11 147.32 D S
 74.11 143.53 M  74.11 147.32 D S
 73.11 143.53 M  73.11 147.32 D S
 72.11 143.53 M  72.11 147.32 D S
 71.11 143.53 M  71.11 147.32 D S
 70.11 143.53 M  70.11 147.32 D S
 69.11 143.53 M  69.11 147.32 D S
 68.11 143.53 M  68.11 147.32 D S
 99.07 156.65 M 103.53 153.50 D 105.01 153.50 D 105.01 157.70 D S
103.53 156.65 M 107.98 156.65 D S
 36.11   4.75 M  36.11  30.73 D S
 35.11   4.75 M  35.11  30.73 D S
 34.11   4.75 M  34.11  30.73 D S
 33.11   4.75 M  33.11  30.73 D S
 32.11   4.75 M  32.11  30.73 D S
 31.11   4.75 M  31.11  30.73 D S
 30.11   4.75 M  30.11  30.73 D S
 29.11   4.75 M  29.11  30.73 D S
 28.11   4.75 M  28.11  30.73 D S
 27.11   4.75 M  27.11  30.73 D S
 26.11   4.75 M  26.11  30.73 D S
 25.11   4.75 M  25.11  30.73 D S
 24.11   4.75 M  24.11  30.73 D S
 23.11   4.75 M  23.11  30.73 D S
 22.11   4.75 M  22.11  30.73 D S
 21.11   4.75 M  21.11  30.73 D S
 20.11   4.75 M  20.11  30.73 D S
 19.11   4.75 M  19.11  30.73 D S
 18.11   4.75 M  18.11  30.73 D S
 17.11   4.75 M  17.11  30.73 D S
 16.11   4.75 M  16.11  30.73 D S
 15.11   4.75 M  15.11  30.73 D S
 14.11   4.75 M  14.11  30.73 D S
 13.11   4.75 M  13.11  30.73 D S
 12.11   4.75 M  12.11  30.73 D S
 11.11   4.75 M  11.11  30.73 D S
 10.11   4.75 M  10.11  30.73 D S
  9.11   4.75 M   9.11  30.73 D S
  8.11   4.75 M   8.11  30.73 D S
  7.11   4.75 M   7.11  30.73 D S
  6.11   4.75 M   6.11  30.73 D S
  5.11   4.75 M   5.11  30.73 D S
  4.11   4.75 M   4.11  30.73 D S
  3.11   4.75 M   3.11  30.73 D S
  2.11   4.75 M   2.11  30.73 D S
  1.11   4.75 M   1.11  30.73 D S
  0.11   4.75 M   0.11  30.73 D S
 40.07  13.15 M  44.53  10.00 D  46.01  10.00 D  46.01  14.20 D S
 44.53  13.15 M  48.98  13.15 D S
 27.11  96.55 M  27.11 114.12 D S
 26.11  96.55 M  26.11 114.12 D S
 40.07 102.15 M  44.53  99.00 D  46.01  99.00 D  46.01 103.20 D S
 44.53 102.15 M  48.98 102.15 D S
 36.11 191.32 M  36.11 194.62 D S
 35.11 191.32 M  35.11 194.62 D S
 40.07 181.15 M  44.53 178.00 D  46.01 178.00 D  46.01 182.20 D S
 44.53 181.15 M  48.98 181.15 D S
eop
@end
%%PageTrailer
%%Trailer
%%EOF
