%!PS-Adobe-2.0 EPSF-2.0
%%Title: /home/gijs/.chiplotle/output/20180115_193912.eps
%%Creator: hp2xx 3.4.4 (c) 1991-1994 by H. Werntges, 1999-2003 by M. Kroeker
%%CreationDate: Mon Jan 15 19:39:12 2018
%%Pages: 1
%%BoundingBox: 0 0 482 619
%%EndComments

%%BeginProcSet:
/PSSave save def
/PSDict 200 dict def
PSDict begin
/@restore /restore load def
/restore
   {vmstatus pop
    dup @VMused lt {pop @VMused} if
    exch pop exch @restore /@VMused exch def
   } def
/@pri
   {
    ( ) print
    (                                       ) cvs print
   } def
/@start
   {
    vmstatus pop /@VMused exch def pop
   } def
/@end
   {(VM Used: ) print @VMused @pri
    (. Unused: ) print vmstatus @VMused sub @pri pop pop
    (\n) print flush
    end
    PSSave restore
   } def
/bop
   {
    /SaveImage save def
   } def
/eop
   {
    showpage
    SaveImage restore
   } def
/@line
   {
%%    1 setlinejoin      %% now set from LA command
%%    1 setmiterlimit    %% now set from LA command
   } def
/@SetPlot
   {
    2.834646 2.834646 scale
      0.050   0.050 translate
     0.100 setlinewidth
   } def
/C {setrgbcolor} def
/D {lineto} def
/M {moveto} def
/S {stroke} def
/W {setlinewidth} def
/Z {stroke newpath} def
end
%%EndProcSet

%%BeginSetup
/#copies 1 def
%%EndSetup
%%Page: 1 1
%%BeginPageSetup
PSDict begin
@start
@line
@SetPlot

bop
%%EndPageSetup
  0.100 W
 S
178.00 -20.00 M  0.100 W
 S
178.00 -20.00 M 1 setlinecap
 S
178.00 -20.00 M 1 setlinejoin
 S
178.00 -20.00 M  0.000  0.000  0.000 C
 S
158.00  38.01 M 156.01  40.00 D S
158.00  36.01 M 154.01  40.00 D S
158.00  34.01 M 152.01  40.00 D S
158.00  32.01 M 150.01  40.00 D S
158.00  30.01 M 148.01  40.00 D S
158.00  28.01 M 146.01  40.00 D S
158.00  26.01 M 144.01  40.00 D S
158.00  24.01 M 142.01  40.00 D S
158.00  22.01 M 140.01  40.00 D S
158.00  20.01 M 138.01  40.00 D S
158.00  18.01 M 136.01  40.00 D S
158.00  16.01 M 134.01  40.00 D S
158.00  14.01 M 132.01  40.00 D S
158.00  12.01 M 130.01  40.00 D S
158.00  10.01 M 128.01  40.00 D S
158.00   8.01 M 126.01  40.00 D S
158.00   6.01 M 124.01  40.00 D S
158.00   4.01 M 122.01  40.00 D S
158.00   2.01 M 120.01  40.00 D S
158.00   0.01 M 118.01  40.00 D S
156.01   0.00 M 118.00  38.01 D S
154.01   0.00 M 118.00  36.01 D S
152.01   0.00 M 118.00  34.01 D S
150.01   0.00 M 118.00  32.01 D S
148.01   0.00 M 118.00  30.01 D S
146.01   0.00 M 118.00  28.01 D S
144.01   0.00 M 118.00  26.01 D S
142.01   0.00 M 118.00  24.01 D S
140.01   0.00 M 118.00  22.01 D S
138.01   0.00 M 118.00  20.01 D S
136.01   0.00 M 118.00  18.01 D S
134.01   0.00 M 118.00  16.01 D S
132.01   0.00 M 118.00  14.01 D S
130.01   0.00 M 118.00  12.01 D S
128.01   0.00 M 118.00  10.01 D S
126.01   0.00 M 118.00   8.01 D S
124.01   0.00 M 118.00   6.01 D S
122.01   0.00 M 118.00   4.01 D S
120.01   0.00 M 118.00   2.01 D S
118.01   0.00 M 118.00   0.01 D S
169.88   1.05 M 169.88   3.15 D S
169.88   2.10 M 160.97   2.10 D 162.46   1.05 D S
158.00  82.51 M 156.01  84.50 D S
158.00  80.51 M 154.01  84.50 D S
158.00  78.51 M 152.01  84.50 D S
158.00  76.51 M 150.01  84.50 D S
158.00  74.51 M 148.01  84.50 D S
158.00  72.51 M 146.01  84.50 D S
158.00  70.51 M 144.01  84.50 D S
158.00  68.51 M 142.01  84.50 D S
158.00  66.51 M 140.01  84.50 D S
158.00  64.51 M 138.01  84.50 D S
158.00  62.51 M 136.01  84.50 D S
158.00  60.51 M 134.01  84.50 D S
158.00  58.51 M 132.01  84.50 D S
158.00  56.51 M 130.01  84.50 D S
158.00  54.51 M 128.01  84.50 D S
158.00  52.51 M 126.01  84.50 D S
158.00  50.51 M 124.01  84.50 D S
158.00  48.51 M 122.01  84.50 D S
158.00  46.51 M 120.01  84.50 D S
158.00  44.51 M 118.01  84.50 D S
156.01  44.50 M 118.00  82.51 D S
154.01  44.50 M 118.00  80.51 D S
152.01  44.50 M 118.00  78.51 D S
150.01  44.50 M 118.00  76.51 D S
148.01  44.50 M 118.00  74.51 D S
146.01  44.50 M 118.00  72.51 D S
144.01  44.50 M 118.00  70.51 D S
142.01  44.50 M 118.00  68.51 D S
140.01  44.50 M 118.00  66.51 D S
138.01  44.50 M 118.00  64.51 D S
136.01  44.50 M 118.00  62.51 D S
134.01  44.50 M 118.00  60.51 D S
132.01  44.50 M 118.00  58.51 D S
130.01  44.50 M 118.00  56.51 D S
128.01  44.50 M 118.00  54.51 D S
126.01  44.50 M 118.00  52.51 D S
124.01  44.50 M 118.00  50.51 D S
122.01  44.50 M 118.00  48.51 D S
120.01  44.50 M 118.00  46.51 D S
118.01  44.50 M 118.00  44.51 D S
169.88  45.55 M 169.88  47.65 D S
169.88  46.60 M 160.97  46.60 D 162.46  45.55 D S
158.00 127.01 M 156.01 129.00 D S
158.00 125.01 M 154.01 129.00 D S
158.00 123.01 M 152.01 129.00 D S
158.00 121.01 M 150.01 129.00 D S
158.00 119.01 M 148.01 129.00 D S
158.00 117.01 M 146.01 129.00 D S
158.00 115.01 M 144.01 129.00 D S
158.00 113.01 M 142.01 129.00 D S
158.00 111.01 M 140.01 129.00 D S
158.00 109.01 M 138.01 129.00 D S
158.00 107.01 M 136.01 129.00 D S
158.00 105.01 M 134.01 129.00 D S
158.00 103.01 M 132.01 129.00 D S
158.00 101.01 M 130.01 129.00 D S
158.00  99.01 M 128.01 129.00 D S
158.00  97.01 M 126.01 129.00 D S
158.00  95.01 M 124.01 129.00 D S
158.00  93.01 M 122.01 129.00 D S
158.00  91.01 M 120.01 129.00 D S
158.00  89.01 M 118.01 129.00 D S
156.01  89.00 M 118.00 127.01 D S
154.01  89.00 M 118.00 125.01 D S
152.01  89.00 M 118.00 123.01 D S
150.01  89.00 M 118.00 121.01 D S
148.01  89.00 M 118.00 119.01 D S
146.01  89.00 M 118.00 117.01 D S
144.01  89.00 M 118.00 115.01 D S
142.01  89.00 M 118.00 113.01 D S
140.01  89.00 M 118.00 111.01 D S
138.01  89.00 M 118.00 109.01 D S
136.01  89.00 M 118.00 107.01 D S
134.01  89.00 M 118.00 105.01 D S
132.01  89.00 M 118.00 103.01 D S
130.01  89.00 M 118.00 101.01 D S
128.01  89.00 M 118.00  99.01 D S
126.01  89.00 M 118.00  97.01 D S
124.01  89.00 M 118.00  95.01 D S
122.01  89.00 M 118.00  93.01 D S
120.01  89.00 M 118.00  91.01 D S
118.01  89.00 M 118.00  89.01 D S
169.88  90.05 M 169.88  92.15 D S
169.88  91.10 M 160.97  91.10 D 162.46  90.05 D S
158.00 171.51 M 156.01 173.50 D S
158.00 169.51 M 154.01 173.50 D S
158.00 167.51 M 152.01 173.50 D S
158.00 165.51 M 150.01 173.50 D S
158.00 163.51 M 148.01 173.50 D S
158.00 161.51 M 146.01 173.50 D S
158.00 159.51 M 144.01 173.50 D S
158.00 157.51 M 142.01 173.50 D S
158.00 155.51 M 140.01 173.50 D S
158.00 153.51 M 138.01 173.50 D S
158.00 151.51 M 136.01 173.50 D S
158.00 149.51 M 134.01 173.50 D S
158.00 147.51 M 132.01 173.50 D S
158.00 145.51 M 130.01 173.50 D S
158.00 143.51 M 128.01 173.50 D S
158.00 141.51 M 126.01 173.50 D S
158.00 139.51 M 124.01 173.50 D S
158.00 137.51 M 122.01 173.50 D S
158.00 135.51 M 120.01 173.50 D S
158.00 133.51 M 118.01 173.50 D S
156.01 133.50 M 118.00 171.51 D S
154.01 133.50 M 118.00 169.51 D S
152.01 133.50 M 118.00 167.51 D S
150.01 133.50 M 118.00 165.51 D S
148.01 133.50 M 118.00 163.51 D S
146.01 133.50 M 118.00 161.51 D S
144.01 133.50 M 118.00 159.51 D S
142.01 133.50 M 118.00 157.51 D S
140.01 133.50 M 118.00 155.51 D S
138.01 133.50 M 118.00 153.51 D S
136.01 133.50 M 118.00 151.51 D S
134.01 133.50 M 118.00 149.51 D S
132.01 133.50 M 118.00 147.51 D S
130.01 133.50 M 118.00 145.51 D S
128.01 133.50 M 118.00 143.51 D S
126.01 133.50 M 118.00 141.51 D S
124.01 133.50 M 118.00 139.51 D S
122.01 133.50 M 118.00 137.51 D S
120.01 133.50 M 118.00 135.51 D S
118.01 133.50 M 118.00 133.51 D S
169.88 134.55 M 169.88 136.65 D S
169.88 135.60 M 160.97 135.60 D 162.46 134.55 D S
158.00 216.01 M 156.01 218.00 D S
158.00 214.01 M 154.01 218.00 D S
158.00 212.01 M 152.01 218.00 D S
158.00 210.01 M 150.01 218.00 D S
158.00 208.01 M 148.01 218.00 D S
158.00 206.01 M 146.01 218.00 D S
158.00 204.01 M 144.01 218.00 D S
158.00 202.01 M 142.01 218.00 D S
158.00 200.01 M 140.01 218.00 D S
158.00 198.01 M 138.01 218.00 D S
158.00 196.01 M 136.01 218.00 D S
158.00 194.01 M 134.01 218.00 D S
158.00 192.01 M 132.01 218.00 D S
158.00 190.01 M 130.01 218.00 D S
158.00 188.01 M 128.01 218.00 D S
158.00 186.01 M 126.01 218.00 D S
158.00 184.01 M 124.01 218.00 D S
158.00 182.01 M 122.01 218.00 D S
158.00 180.01 M 120.01 218.00 D S
158.00 178.01 M 118.01 218.00 D S
156.01 178.00 M 118.00 216.01 D S
154.01 178.00 M 118.00 214.01 D S
152.01 178.00 M 118.00 212.01 D S
150.01 178.00 M 118.00 210.01 D S
148.01 178.00 M 118.00 208.01 D S
146.01 178.00 M 118.00 206.01 D S
144.01 178.00 M 118.00 204.01 D S
142.01 178.00 M 118.00 202.01 D S
140.01 178.00 M 118.00 200.01 D S
138.01 178.00 M 118.00 198.01 D S
136.01 178.00 M 118.00 196.01 D S
134.01 178.00 M 118.00 194.01 D S
132.01 178.00 M 118.00 192.01 D S
130.01 178.00 M 118.00 190.01 D S
128.01 178.00 M 118.00 188.01 D S
126.01 178.00 M 118.00 186.01 D S
124.01 178.00 M 118.00 184.01 D S
122.01 178.00 M 118.00 182.01 D S
120.01 178.00 M 118.00 180.01 D S
118.01 178.00 M 118.00 178.01 D S
169.88 179.05 M 169.88 181.15 D S
169.88 180.10 M 160.97 180.10 D 162.46 179.05 D S
 99.00  39.01 M  98.01  40.00 D S
 99.00  37.01 M  96.01  40.00 D S
 99.00  35.01 M  94.01  40.00 D S
 99.00  33.01 M  92.01  40.00 D S
 99.00  31.01 M  90.01  40.00 D S
 99.00  29.01 M  88.01  40.00 D S
 99.00  27.01 M  86.01  40.00 D S
 99.00  25.01 M  84.01  40.00 D S
 99.00  23.01 M  82.01  40.00 D S
 99.00  21.01 M  80.01  40.00 D S
 99.00  19.01 M  78.01  40.00 D S
 99.00  17.01 M  76.01  40.00 D S
 99.00  15.01 M  74.01  40.00 D S
 99.00  13.01 M  72.01  40.00 D S
 99.00  11.01 M  70.01  40.00 D S
 99.00   9.01 M  68.01  40.00 D S
 99.00   7.01 M  66.01  40.00 D S
 99.00   5.01 M  64.01  40.00 D S
 99.00   3.01 M  62.01  40.00 D S
 99.00   1.01 M  60.01  40.00 D S
 98.01   0.00 M  59.00  39.01 D S
 96.01   0.00 M  59.00  37.01 D S
 94.01   0.00 M  59.00  35.01 D S
 92.01   0.00 M  59.00  33.01 D S
 90.01   0.00 M  59.00  31.01 D S
 88.01   0.00 M  59.00  29.01 D S
 86.01   0.00 M  59.00  27.01 D S
 84.01   0.00 M  59.00  25.01 D S
 82.01   0.00 M  59.00  23.01 D S
 80.01   0.00 M  59.00  21.01 D S
 78.01   0.00 M  59.00  19.01 D S
 76.01   0.00 M  59.00  17.01 D S
 74.01   0.00 M  59.00  15.01 D S
 72.01   0.00 M  59.00  13.01 D S
 70.01   0.00 M  59.00  11.01 D S
 68.01   0.00 M  59.00   9.01 D S
 66.01   0.00 M  59.00   7.01 D S
 64.01   0.00 M  59.00   5.01 D S
 62.01   0.00 M  59.00   3.01 D S
 60.01   0.00 M  59.00   1.01 D S
110.88   1.05 M 110.88   3.15 D S
110.88   2.10 M 101.97   2.10 D 103.46   1.05 D S
 99.00  83.51 M  98.01  84.50 D S
 99.00  81.51 M  96.01  84.50 D S
 99.00  79.51 M  94.01  84.50 D S
 99.00  77.51 M  92.01  84.50 D S
 99.00  75.51 M  90.01  84.50 D S
 99.00  73.51 M  88.01  84.50 D S
 99.00  71.51 M  86.01  84.50 D S
 99.00  69.51 M  84.01  84.50 D S
 99.00  67.51 M  82.01  84.50 D S
 99.00  65.51 M  80.01  84.50 D S
 99.00  63.51 M  78.01  84.50 D S
 99.00  61.51 M  76.01  84.50 D S
 99.00  59.51 M  74.01  84.50 D S
 99.00  57.51 M  72.01  84.50 D S
 99.00  55.51 M  70.01  84.50 D S
 99.00  53.51 M  68.01  84.50 D S
 99.00  51.51 M  66.01  84.50 D S
 99.00  49.51 M  64.01  84.50 D S
 99.00  47.51 M  62.01  84.50 D S
 99.00  45.51 M  60.01  84.50 D S
 98.01  44.50 M  59.00  83.51 D S
 96.01  44.50 M  59.00  81.51 D S
 94.01  44.50 M  59.00  79.51 D S
 92.01  44.50 M  59.00  77.51 D S
 90.01  44.50 M  59.00  75.51 D S
 88.01  44.50 M  59.00  73.51 D S
 86.01  44.50 M  59.00  71.51 D S
 84.01  44.50 M  59.00  69.51 D S
 82.01  44.50 M  59.00  67.51 D S
 80.01  44.50 M  59.00  65.51 D S
 78.01  44.50 M  59.00  63.51 D S
 76.01  44.50 M  59.00  61.51 D S
 74.01  44.50 M  59.00  59.51 D S
 72.01  44.50 M  59.00  57.51 D S
 70.01  44.50 M  59.00  55.51 D S
 68.01  44.50 M  59.00  53.51 D S
 66.01  44.50 M  59.00  51.51 D S
 64.01  44.50 M  59.00  49.51 D S
 62.01  44.50 M  59.00  47.51 D S
 60.01  44.50 M  59.00  45.51 D S
110.88  45.55 M 110.88  47.65 D S
110.88  46.60 M 101.97  46.60 D 103.46  45.55 D S
 99.00 128.01 M  98.01 129.00 D S
 99.00 126.01 M  96.01 129.00 D S
 99.00 124.01 M  94.01 129.00 D S
 99.00 122.01 M  92.01 129.00 D S
 99.00 120.01 M  90.01 129.00 D S
 99.00 118.01 M  88.01 129.00 D S
 99.00 116.01 M  86.01 129.00 D S
 99.00 114.01 M  84.01 129.00 D S
 99.00 112.01 M  82.01 129.00 D S
 99.00 110.01 M  80.01 129.00 D S
 99.00 108.01 M  78.01 129.00 D S
 99.00 106.01 M  76.01 129.00 D S
 99.00 104.01 M  74.01 129.00 D S
 99.00 102.01 M  72.01 129.00 D S
 99.00 100.01 M  70.01 129.00 D S
 99.00  98.01 M  68.01 129.00 D S
 99.00  96.01 M  66.01 129.00 D S
 99.00  94.01 M  64.01 129.00 D S
 99.00  92.01 M  62.01 129.00 D S
 99.00  90.01 M  60.01 129.00 D S
 98.01  89.00 M  59.00 128.01 D S
 96.01  89.00 M  59.00 126.01 D S
 94.01  89.00 M  59.00 124.01 D S
 92.01  89.00 M  59.00 122.01 D S
 90.01  89.00 M  59.00 120.01 D S
 88.01  89.00 M  59.00 118.01 D S
 86.01  89.00 M  59.00 116.01 D S
 84.01  89.00 M  59.00 114.01 D S
 82.01  89.00 M  59.00 112.01 D S
 80.01  89.00 M  59.00 110.01 D S
 78.01  89.00 M  59.00 108.01 D S
 76.01  89.00 M  59.00 106.01 D S
 74.01  89.00 M  59.00 104.01 D S
 72.01  89.00 M  59.00 102.01 D S
 70.01  89.00 M  59.00 100.01 D S
 68.01  89.00 M  59.00  98.01 D S
 66.01  89.00 M  59.00  96.01 D S
 64.01  89.00 M  59.00  94.01 D S
 62.01  89.00 M  59.00  92.01 D S
 60.01  89.00 M  59.00  90.01 D S
110.88  90.05 M 110.88  92.15 D S
110.88  91.10 M 101.97  91.10 D 103.46  90.05 D S
103.46  90.05 M  1.000  0.000  0.000 C
 S
158.00   0.00 M 118.00   0.00 D S
158.00   2.00 M 118.00   2.00 D S
158.00   4.00 M 118.00   4.00 D S
158.00   6.00 M 118.00   6.00 D S
158.00   8.00 M 118.00   8.00 D S
158.00  10.00 M 118.00  10.00 D S
158.00  12.00 M 118.00  12.00 D S
158.00  14.00 M 118.00  14.00 D S
158.00  16.00 M 118.00  16.00 D S
158.00  18.00 M 118.00  18.00 D S
158.00  20.00 M 118.00  20.00 D S
158.00  22.00 M 118.00  22.00 D S
158.00  24.00 M 118.00  24.00 D S
158.00  26.00 M 118.00  26.00 D S
158.00  28.00 M 118.00  28.00 D S
158.00  30.00 M 118.00  30.00 D S
158.00  32.00 M 118.00  32.00 D S
158.00  34.00 M 118.00  34.00 D S
158.00  36.00 M 118.00  36.00 D S
158.00  38.00 M 118.00  38.00 D S
162.46  10.00 M 160.97  11.05 D 160.97  13.15 D 162.46  14.20 D 163.94  14.20 D
168.40  10.00 D 169.88  10.00 D 169.88  14.20 D S
158.00  46.00 M 118.00  46.00 D S
158.00  48.00 M 118.00  48.00 D S
158.00  50.00 M 118.00  50.00 D S
158.00  52.00 M 118.00  52.00 D S
158.00  54.00 M 118.00  54.00 D S
158.00  56.00 M 118.00  56.00 D S
158.00  58.00 M 118.00  58.00 D S
158.00  60.00 M 118.00  60.00 D S
158.00  62.00 M 118.00  62.00 D S
158.00  64.00 M 118.00  64.00 D S
158.00  66.00 M 118.00  66.00 D S
158.00  68.00 M 118.00  68.00 D S
158.00  70.00 M 118.00  70.00 D S
158.00  72.00 M 118.00  72.00 D S
158.00  74.00 M 118.00  74.00 D S
158.00  76.00 M 118.00  76.00 D S
158.00  78.00 M 118.00  78.00 D S
158.00  80.00 M 118.00  80.00 D S
158.00  82.00 M 118.00  82.00 D S
158.00  84.00 M 118.00  84.00 D S
162.46  54.50 M 160.97  55.55 D 160.97  57.65 D 162.46  58.70 D 163.94  58.70 D
168.40  54.50 D 169.88  54.50 D 169.88  58.70 D S
158.00  90.00 M 118.00  90.00 D S
158.00  92.00 M 118.00  92.00 D S
158.00  94.00 M 118.00  94.00 D S
158.00  96.00 M 118.00  96.00 D S
158.00  98.00 M 118.00  98.00 D S
158.00 100.00 M 118.00 100.00 D S
158.00 102.00 M 118.00 102.00 D S
158.00 104.00 M 118.00 104.00 D S
158.00 106.00 M 118.00 106.00 D S
158.00 108.00 M 118.00 108.00 D S
158.00 110.00 M 118.00 110.00 D S
158.00 112.00 M 118.00 112.00 D S
158.00 114.00 M 118.00 114.00 D S
158.00 116.00 M 118.00 116.00 D S
158.00 118.00 M 118.00 118.00 D S
158.00 120.00 M 118.00 120.00 D S
158.00 122.00 M 118.00 122.00 D S
158.00 124.00 M 118.00 124.00 D S
158.00 126.00 M 118.00 126.00 D S
158.00 128.00 M 118.00 128.00 D S
162.46  99.00 M 160.97 100.05 D 160.97 102.15 D 162.46 103.20 D 163.94 103.20 D
168.40  99.00 D 169.88  99.00 D 169.88 103.20 D S
158.00 134.00 M 118.00 134.00 D S
158.00 136.00 M 118.00 136.00 D S
158.00 138.00 M 118.00 138.00 D S
158.00 140.00 M 118.00 140.00 D S
158.00 142.00 M 118.00 142.00 D S
158.00 144.00 M 118.00 144.00 D S
158.00 146.00 M 118.00 146.00 D S
158.00 148.00 M 118.00 148.00 D S
158.00 150.00 M 118.00 150.00 D S
158.00 152.00 M 118.00 152.00 D S
158.00 154.00 M 118.00 154.00 D S
158.00 156.00 M 118.00 156.00 D S
158.00 158.00 M 118.00 158.00 D S
158.00 160.00 M 118.00 160.00 D S
158.00 162.00 M 118.00 162.00 D S
158.00 164.00 M 118.00 164.00 D S
158.00 166.00 M 118.00 166.00 D S
158.00 168.00 M 118.00 168.00 D S
158.00 170.00 M 118.00 170.00 D S
158.00 172.00 M 118.00 172.00 D S
162.46 143.50 M 160.97 144.55 D 160.97 146.65 D 162.46 147.70 D 163.94 147.70 D
168.40 143.50 D 169.88 143.50 D 169.88 147.70 D S
 99.00 134.00 M  59.00 134.00 D S
 99.00 136.00 M  59.00 136.00 D S
 99.00 138.00 M  59.00 138.00 D S
 99.00 140.00 M  59.00 140.00 D S
 99.00 142.00 M  59.00 142.00 D S
 99.00 144.00 M  59.00 144.00 D S
 99.00 146.00 M  59.00 146.00 D S
 99.00 148.00 M  59.00 148.00 D S
 99.00 150.00 M  59.00 150.00 D S
 99.00 152.00 M  59.00 152.00 D S
 99.00 154.00 M  59.00 154.00 D S
 99.00 156.00 M  59.00 156.00 D S
 99.00 158.00 M  59.00 158.00 D S
 99.00 160.00 M  59.00 160.00 D S
 99.00 162.00 M  59.00 162.00 D S
 99.00 164.00 M  59.00 164.00 D S
 99.00 166.00 M  59.00 166.00 D S
 99.00 168.00 M  59.00 168.00 D S
 99.00 170.00 M  59.00 170.00 D S
 99.00 172.00 M  59.00 172.00 D S
103.46 133.50 M 101.97 134.55 D 101.97 136.65 D 103.46 137.70 D 104.94 137.70 D
109.39 133.50 D 110.88 133.50 D 110.88 137.70 D S
 99.00 178.00 M  59.00 178.00 D S
 99.00 180.00 M  59.00 180.00 D S
 99.00 182.00 M  59.00 182.00 D S
 99.00 184.00 M  59.00 184.00 D S
 99.00 186.00 M  59.00 186.00 D S
 99.00 188.00 M  59.00 188.00 D S
 99.00 190.00 M  59.00 190.00 D S
 99.00 192.00 M  59.00 192.00 D S
 99.00 194.00 M  59.00 194.00 D S
 99.00 196.00 M  59.00 196.00 D S
 99.00 198.00 M  59.00 198.00 D S
 99.00 200.00 M  59.00 200.00 D S
 99.00 202.00 M  59.00 202.00 D S
 99.00 204.00 M  59.00 204.00 D S
 99.00 206.00 M  59.00 206.00 D S
 99.00 208.00 M  59.00 208.00 D S
 99.00 210.00 M  59.00 210.00 D S
 99.00 212.00 M  59.00 212.00 D S
 99.00 214.00 M  59.00 214.00 D S
 99.00 216.00 M  59.00 216.00 D S
103.46 178.00 M 101.97 179.05 D 101.97 181.15 D 103.46 182.20 D 104.94 182.20 D
109.39 178.00 D 110.88 178.00 D 110.88 182.20 D S
 40.00   0.00 M   0.00   0.00 D S
 40.00   2.00 M   0.00   2.00 D S
 40.00   4.00 M   0.00   4.00 D S
 40.00   6.00 M   0.00   6.00 D S
 40.00   8.00 M   0.00   8.00 D S
 40.00  10.00 M   0.00  10.00 D S
 40.00  12.00 M   0.00  12.00 D S
 40.00  14.00 M   0.00  14.00 D S
 40.00  16.00 M   0.00  16.00 D S
 40.00  18.00 M   0.00  18.00 D S
 40.00  20.00 M   0.00  20.00 D S
 40.00  22.00 M   0.00  22.00 D S
 40.00  24.00 M   0.00  24.00 D S
 40.00  26.00 M   0.00  26.00 D S
 40.00  28.00 M   0.00  28.00 D S
 40.00  30.00 M   0.00  30.00 D S
 40.00  32.00 M   0.00  32.00 D S
 40.00  34.00 M   0.00  34.00 D S
 40.00  36.00 M   0.00  36.00 D S
 40.00  38.00 M   0.00  38.00 D S
 44.46   0.00 M  42.97   1.05 D  42.97   3.15 D  44.46   4.20 D  45.94   4.20 D
 50.39   0.00 D  51.88   0.00 D  51.88   4.20 D S
 40.00  46.00 M   0.00  46.00 D S
 40.00  48.00 M   0.00  48.00 D S
 40.00  50.00 M   0.00  50.00 D S
 40.00  52.00 M   0.00  52.00 D S
 40.00  54.00 M   0.00  54.00 D S
 40.00  56.00 M   0.00  56.00 D S
 40.00  58.00 M   0.00  58.00 D S
 40.00  60.00 M   0.00  60.00 D S
 40.00  62.00 M   0.00  62.00 D S
 40.00  64.00 M   0.00  64.00 D S
 40.00  66.00 M   0.00  66.00 D S
 40.00  68.00 M   0.00  68.00 D S
 40.00  70.00 M   0.00  70.00 D S
 40.00  72.00 M   0.00  72.00 D S
 40.00  74.00 M   0.00  74.00 D S
 40.00  76.00 M   0.00  76.00 D S
 40.00  78.00 M   0.00  78.00 D S
 40.00  80.00 M   0.00  80.00 D S
 40.00  82.00 M   0.00  82.00 D S
 40.00  84.00 M   0.00  84.00 D S
 44.46  44.50 M  42.97  45.55 D  42.97  47.65 D  44.46  48.70 D  45.94  48.70 D
 50.39  44.50 D  51.88  44.50 D  51.88  48.70 D S
 51.88  48.70 M  0.000  1.000  0.000 C
 S
158.00   1.98 M 156.03   0.00 D S
158.00   3.98 M 154.03   0.00 D S
158.00   5.97 M 152.03   0.00 D S
158.00   7.97 M 150.03   0.00 D S
158.00   9.98 M 148.03   0.00 D S
158.00  11.98 M 146.03   0.00 D S
158.00  19.98 M 138.03   0.00 D S
158.00  29.98 M 128.03   0.00 D S
158.00  35.98 M 122.03   0.00 D S
158.00  37.98 M 120.03   0.00 D S
158.03  40.00 M 158.00  39.98 D S
156.03  40.00 M 118.00   1.98 D S
154.03  40.00 M 118.00   3.98 D S
152.03  40.00 M 118.00   5.97 D S
150.03  40.00 M 118.00   7.97 D S
148.03  40.00 M 118.00   9.98 D S
146.03  40.00 M 118.00  11.98 D S
144.03  40.00 M 118.00  13.98 D S
142.03  40.00 M 118.00  15.98 D S
140.03  40.00 M 118.00  17.98 D S
138.03  40.00 M 118.00  19.98 D S
136.03  40.00 M 118.00  21.98 D S
134.03  40.00 M 118.00  23.98 D S
132.03  40.00 M 118.00  25.98 D S
130.03  40.00 M 118.00  27.98 D S
128.03  40.00 M 118.00  29.98 D S
124.03  40.00 M 118.00  33.98 D S
122.03  40.00 M 118.00  35.98 D S
120.03  40.00 M 118.00  37.98 D S
168.40  20.00 M 169.88  21.05 D 169.88  23.15 D 168.40  24.20 D 166.91  24.20 D
165.43  23.15 D 165.43  22.10 D 160.97  24.20 D 160.97  20.00 D S
158.00  45.98 M 156.53  44.50 D S
158.00  47.98 M 154.53  44.50 D S
158.00  49.98 M 152.53  44.50 D S
158.00  51.98 M 150.53  44.50 D S
158.00  53.98 M 148.53  44.50 D S
158.00  55.98 M 146.53  44.50 D S
158.00  57.98 M 144.53  44.50 D S
158.00  59.98 M 142.53  44.50 D S
158.00  61.98 M 140.53  44.50 D S
158.00  63.98 M 138.53  44.50 D S
158.00  65.97 M 136.53  44.50 D S
158.00  67.97 M 134.53  44.50 D S
158.00  69.97 M 132.53  44.50 D S
158.00  71.97 M 130.53  44.50 D S
158.00  73.97 M 128.53  44.50 D S
158.00  75.97 M 126.53  44.50 D S
158.00  77.97 M 124.53  44.50 D S
158.00  79.97 M 122.53  44.50 D S
158.00  81.97 M 120.53  44.50 D S
158.00  83.97 M 118.53  44.50 D S
156.53  84.50 M 118.00  45.98 D S
154.53  84.50 M 118.00  47.98 D S
152.53  84.50 M 118.00  49.98 D S
150.53  84.50 M 118.00  51.98 D S
148.53  84.50 M 118.00  53.98 D S
146.53  84.50 M 118.00  55.98 D S
144.53  84.50 M 118.00  57.98 D S
142.53  84.50 M 118.00  59.98 D S
140.53  84.50 M 118.00  61.98 D S
138.53  84.50 M 118.00  63.98 D S
136.53  84.50 M 118.00  65.97 D S
134.53  84.50 M 118.00  67.97 D S
132.53  84.50 M 118.00  69.97 D S
130.53  84.50 M 118.00  71.97 D S
128.53  84.50 M 118.00  73.97 D S
126.53  84.50 M 118.00  75.97 D S
124.53  84.50 M 118.00  77.97 D S
122.53  84.50 M 118.00  79.97 D S
120.53  84.50 M 118.00  81.97 D S
118.53  84.50 M 118.00  83.97 D S
168.40  64.50 M 169.88  65.55 D 169.88  67.65 D 168.40  68.70 D 166.91  68.70 D
165.43  67.65 D 165.43  66.60 D 160.97  68.70 D 160.97  64.50 D S
158.00 179.98 M 156.03 178.00 D S
158.00 181.98 M 154.03 178.00 D S
158.00 183.98 M 152.03 178.00 D S
158.00 185.98 M 150.03 178.00 D S
158.00 187.98 M 148.03 178.00 D S
158.00 189.98 M 146.03 178.00 D S
158.00 191.98 M 144.03 178.00 D S
158.00 193.98 M 142.03 178.00 D S
158.00 195.98 M 140.03 178.00 D S
158.00 197.98 M 138.03 178.00 D S
158.00 199.98 M 136.03 178.00 D S
158.00 201.98 M 134.03 178.00 D S
158.00 203.98 M 132.03 178.00 D S
158.00 205.98 M 130.03 178.00 D S
158.00 207.98 M 128.03 178.00 D S
158.00 209.98 M 126.03 178.00 D S
158.00 211.98 M 124.03 178.00 D S
158.00 213.98 M 122.03 178.00 D S
158.00 215.98 M 120.03 178.00 D S
158.03 218.00 M 158.00 217.98 D S
156.03 218.00 M 118.00 179.98 D S
154.03 218.00 M 118.00 181.98 D S
152.03 218.00 M 118.00 183.98 D S
150.03 218.00 M 118.00 185.98 D S
148.03 218.00 M 118.00 187.98 D S
146.03 218.00 M 118.00 189.98 D S
144.03 218.00 M 118.00 191.98 D S
142.03 218.00 M 118.00 193.98 D S
140.03 218.00 M 118.00 195.98 D S
138.03 218.00 M 118.00 197.98 D S
136.03 218.00 M 118.00 199.98 D S
134.03 218.00 M 118.00 201.98 D S
132.03 218.00 M 118.00 203.98 D S
130.03 218.00 M 118.00 205.98 D S
128.03 218.00 M 118.00 207.98 D S
126.03 218.00 M 118.00 209.98 D S
124.03 218.00 M 118.00 211.98 D S
122.03 218.00 M 118.00 213.98 D S
120.03 218.00 M 118.00 215.98 D S
168.40 188.00 M 169.88 189.05 D 169.88 191.15 D 168.40 192.20 D 166.91 192.20 D
165.43 191.15 D 165.43 190.10 D 160.97 192.20 D 160.97 188.00 D S
 99.00   1.98 M  97.03   0.00 D S
 99.00  27.98 M  71.03   0.00 D S
 99.00  29.98 M  69.03   0.00 D S
 99.00  35.98 M  63.03   0.00 D S
 99.00  37.98 M  61.03   0.00 D S
 97.03  40.00 M  59.00   1.98 D S
 71.03  40.00 M  59.00  27.98 D S
 69.03  40.00 M  59.00  29.98 D S
 63.03  40.00 M  59.00  35.98 D S
 61.03  40.00 M  59.00  37.98 D S
109.39  10.00 M 110.88  11.05 D 110.88  13.15 D 109.39  14.20 D 107.91  14.20 D
106.43  13.15 D 106.43  12.10 D 101.97  14.20 D 101.97  10.00 D S
 99.00 133.98 M  98.53 133.50 D S
 99.00 135.98 M  96.53 133.50 D S
 99.00 137.98 M  94.53 133.50 D S
 99.00 139.98 M  92.53 133.50 D S
 99.00 141.98 M  90.53 133.50 D S
 99.00 143.98 M  88.53 133.50 D S
 99.00 145.98 M  86.53 133.50 D S
 99.00 147.98 M  84.53 133.50 D S
 99.00 149.98 M  82.53 133.50 D S
 99.00 151.98 M  80.53 133.50 D S
 99.00 153.98 M  78.53 133.50 D S
 99.00 155.98 M  76.53 133.50 D S
 99.00 157.98 M  74.53 133.50 D S
 99.00 159.98 M  72.53 133.50 D S
 99.00 161.98 M  70.53 133.50 D S
 99.00 163.98 M  68.53 133.50 D S
 99.00 165.98 M  66.53 133.50 D S
 99.00 167.98 M  64.53 133.50 D S
 99.00 171.98 M  60.53 133.50 D S
 98.53 173.50 M  59.00 133.98 D S
 96.53 173.50 M  59.00 135.98 D S
 94.53 173.50 M  59.00 137.98 D S
 92.53 173.50 M  59.00 139.98 D S
 90.53 173.50 M  59.00 141.98 D S
 88.53 173.50 M  59.00 143.98 D S
 86.53 173.50 M  59.00 145.98 D S
 84.53 173.50 M  59.00 147.98 D S
 82.53 173.50 M  59.00 149.98 D S
 80.53 173.50 M  59.00 151.98 D S
 78.53 173.50 M  59.00 153.98 D S
 76.53 173.50 M  59.00 155.98 D S
 74.53 173.50 M  59.00 157.98 D S
 72.53 173.50 M  59.00 159.98 D S
 70.53 173.50 M  59.00 161.98 D S
 68.53 173.50 M  59.00 163.98 D S
 66.53 173.50 M  59.00 165.98 D S
 64.53 173.50 M  59.00 167.98 D S
 60.53 173.50 M  59.00 171.98 D S
109.39 143.50 M 110.88 144.55 D 110.88 146.65 D 109.39 147.70 D 107.91 147.70 D
106.43 146.65 D 106.43 145.60 D 101.97 147.70 D 101.97 143.50 D S
 99.00 179.98 M  97.03 178.00 D S
 99.00 181.98 M  95.03 178.00 D S
 99.00 183.98 M  93.03 178.00 D S
 99.00 185.98 M  91.03 178.00 D S
 99.00 187.98 M  89.03 178.00 D S
 99.00 189.98 M  87.03 178.00 D S
 99.00 191.98 M  85.03 178.00 D S
 99.00 193.98 M  83.03 178.00 D S
 99.00 195.98 M  81.03 178.00 D S
 99.00 197.98 M  79.03 178.00 D S
 99.00 199.98 M  77.03 178.00 D S
 99.00 201.98 M  75.03 178.00 D S
 99.00 203.98 M  73.03 178.00 D S
 99.00 205.98 M  71.03 178.00 D S
 99.00 207.98 M  69.03 178.00 D S
 99.00 209.98 M  67.03 178.00 D S
 99.00 211.98 M  65.03 178.00 D S
 99.00 213.98 M  63.03 178.00 D S
 99.00 215.98 M  61.03 178.00 D S
 99.03 218.00 M  99.00 217.98 D S
 97.03 218.00 M  59.00 179.98 D S
 95.03 218.00 M  59.00 181.98 D S
 93.03 218.00 M  59.00 183.98 D S
 91.03 218.00 M  59.00 185.98 D S
 89.03 218.00 M  59.00 187.98 D S
 87.03 218.00 M  59.00 189.98 D S
 85.03 218.00 M  59.00 191.98 D S
 83.03 218.00 M  59.00 193.98 D S
 81.03 218.00 M  59.00 195.98 D S
 79.03 218.00 M  59.00 197.98 D S
 77.03 218.00 M  59.00 199.98 D S
 75.03 218.00 M  59.00 201.98 D S
 73.03 218.00 M  59.00 203.98 D S
 71.03 218.00 M  59.00 205.98 D S
 69.03 218.00 M  59.00 207.98 D S
 67.03 218.00 M  59.00 209.98 D S
 65.03 218.00 M  59.00 211.98 D S
 63.03 218.00 M  59.00 213.98 D S
 61.03 218.00 M  59.00 215.98 D S
109.39 188.00 M 110.88 189.05 D 110.88 191.15 D 109.39 192.20 D 107.91 192.20 D
106.43 191.15 D 106.43 190.10 D 101.97 192.20 D 101.97 188.00 D S
 40.00  89.97 M  39.03  89.00 D S
 40.00  91.97 M  37.03  89.00 D S
 40.00  93.97 M  35.03  89.00 D S
 40.00  95.97 M  33.03  89.00 D S
 40.00  97.97 M  31.02  89.00 D S
 40.00  99.97 M  29.02  89.00 D S
 40.00 101.97 M  27.02  89.00 D S
 40.00 105.97 M  23.02  89.00 D S
 40.00 107.97 M  21.02  89.00 D S
 40.00 111.97 M  17.02  89.00 D S
 40.00 113.97 M  15.03  89.00 D S
 40.00 117.97 M  11.03  89.00 D S
 40.00 119.97 M   9.03  89.00 D S
 40.00 123.97 M   5.03  89.00 D S
 40.00 125.97 M   3.03  89.00 D S
 40.00 127.97 M   1.02  89.00 D S
 39.03 129.00 M   0.00  89.97 D S
 37.03 129.00 M   0.00  91.97 D S
 35.03 129.00 M   0.00  93.97 D S
 33.03 129.00 M   0.00  95.97 D S
 31.02 129.00 M   0.00  97.97 D S
 29.02 129.00 M   0.00  99.97 D S
 27.02 129.00 M   0.00 101.97 D S
 23.02 129.00 M   0.00 105.97 D S
 21.02 129.00 M   0.00 107.97 D S
 17.02 129.00 M   0.00 111.97 D S
 15.03 129.00 M   0.00 113.97 D S
 11.03 129.00 M   0.00 117.97 D S
  9.03 129.00 M   0.00 119.97 D S
  5.03 129.00 M   0.00 123.97 D S
  3.03 129.00 M   0.00 125.97 D S
  1.02 129.00 M   0.00 127.97 D S
 50.39  89.00 M  51.88  90.05 D  51.88  92.15 D  50.39  93.20 D  48.91  93.20 D
 47.42  92.15 D  47.42  91.10 D  42.97  93.20 D  42.97  89.00 D S
 40.00 133.98 M  39.53 133.50 D S
 40.00 135.98 M  37.53 133.50 D S
 40.00 137.98 M  35.53 133.50 D S
 40.00 139.98 M  33.53 133.50 D S
 40.00 141.98 M  31.52 133.50 D S
 40.00 143.98 M  29.52 133.50 D S
 40.00 145.98 M  27.52 133.50 D S
 40.00 147.98 M  25.52 133.50 D S
 40.00 151.98 M  21.52 133.50 D S
 40.00 153.98 M  19.52 133.50 D S
 40.00 157.98 M  15.53 133.50 D S
 40.00 159.98 M  13.53 133.50 D S
 40.00 163.98 M   9.53 133.50 D S
 40.00 165.98 M   7.53 133.50 D S
 40.00 169.98 M   3.53 133.50 D S
 40.00 171.98 M   1.52 133.50 D S
 39.53 173.50 M   0.00 133.98 D S
 37.53 173.50 M   0.00 135.98 D S
 35.53 173.50 M   0.00 137.98 D S
 33.53 173.50 M   0.00 139.98 D S
 31.52 173.50 M   0.00 141.98 D S
 29.52 173.50 M   0.00 143.98 D S
 27.52 173.50 M   0.00 145.98 D S
 25.52 173.50 M   0.00 147.98 D S
 21.52 173.50 M   0.00 151.98 D S
 19.52 173.50 M   0.00 153.98 D S
 15.53 173.50 M   0.00 157.98 D S
 13.53 173.50 M   0.00 159.98 D S
  9.53 173.50 M   0.00 163.98 D S
  7.53 173.50 M   0.00 165.98 D S
  3.53 173.50 M   0.00 169.98 D S
  1.52 173.50 M   0.00 171.98 D S
 50.39 133.50 M  51.88 134.55 D  51.88 136.65 D  50.39 137.70 D  48.91 137.70 D
 47.42 136.65 D  47.42 135.60 D  42.97 137.70 D  42.97 133.50 D S
 42.97 133.50 M  0.000  0.000  1.000 C
 S
156.01   0.00 M 156.01  40.00 D S
154.01   0.00 M 154.01  40.00 D S
152.01   0.00 M 152.01  40.00 D S
150.01   0.00 M 150.01  40.00 D S
148.01   0.00 M 148.01  40.00 D S
146.01   0.00 M 146.01  40.00 D S
144.01   0.00 M 144.01  40.00 D S
142.01   0.00 M 142.01  40.00 D S
140.01   0.00 M 140.01  40.00 D S
138.01   0.00 M 138.01  40.00 D S
136.01   0.00 M 136.01  40.00 D S
134.01   0.00 M 134.01  40.00 D S
132.01   0.00 M 132.01  40.00 D S
130.01   0.00 M 130.01  40.00 D S
128.01   0.00 M 128.01  40.00 D S
126.01   0.00 M 126.01  40.00 D S
124.01   0.00 M 124.01  40.00 D S
122.01   0.00 M 122.01  40.00 D S
120.01   0.00 M 120.01  40.00 D S
118.01   0.00 M 118.01  40.00 D S
160.97  33.15 M 165.43  30.00 D 166.91  30.00 D 166.91  34.20 D S
165.43  33.15 M 169.88  33.15 D S
156.01  89.00 M 156.01 129.00 D S
154.01  89.00 M 154.01 129.00 D S
152.01  89.00 M 152.01 129.00 D S
150.01  89.00 M 150.01 129.00 D S
148.01  89.00 M 148.01 129.00 D S
146.01  89.00 M 146.01 129.00 D S
144.01  89.00 M 144.01 129.00 D S
142.01  89.00 M 142.01 129.00 D S
140.01  89.00 M 140.01 129.00 D S
138.01  89.00 M 138.01 129.00 D S
136.01  89.00 M 136.01 129.00 D S
134.01  89.00 M 134.01 129.00 D S
132.01  89.00 M 132.01 129.00 D S
130.01  89.00 M 130.01 129.00 D S
128.01  89.00 M 128.01 129.00 D S
126.01  89.00 M 126.01 129.00 D S
124.01  89.00 M 124.01 129.00 D S
122.01  89.00 M 122.01 129.00 D S
120.01  89.00 M 120.01 129.00 D S
118.01  89.00 M 118.01 129.00 D S
160.97 112.15 M 165.43 109.00 D 166.91 109.00 D 166.91 113.20 D S
165.43 112.15 M 169.88 112.15 D S
156.01 178.00 M 156.01 218.00 D S
154.01 178.00 M 154.01 218.00 D S
152.01 178.00 M 152.01 218.00 D S
150.01 178.00 M 150.01 218.00 D S
148.01 178.00 M 148.01 218.00 D S
146.01 178.00 M 146.01 218.00 D S
144.01 178.00 M 144.01 218.00 D S
142.01 178.00 M 142.01 218.00 D S
140.01 178.00 M 140.01 218.00 D S
138.01 178.00 M 138.01 218.00 D S
136.01 178.00 M 136.01 218.00 D S
134.01 178.00 M 134.01 218.00 D S
132.01 178.00 M 132.01 218.00 D S
130.01 178.00 M 130.01 218.00 D S
128.01 178.00 M 128.01 218.00 D S
126.01 178.00 M 126.01 218.00 D S
124.01 178.00 M 124.01 218.00 D S
122.01 178.00 M 122.01 218.00 D S
120.01 178.00 M 120.01 218.00 D S
118.01 178.00 M 118.01 218.00 D S
160.97 201.15 M 165.43 198.00 D 166.91 198.00 D 166.91 202.20 D S
165.43 201.15 M 169.88 201.15 D S
 98.01  44.50 M  98.01  84.50 D S
 96.01  44.50 M  96.01  84.50 D S
 94.01  44.50 M  94.01  84.50 D S
 92.01  44.50 M  92.01  84.50 D S
 90.01  44.50 M  90.01  84.50 D S
 88.01  44.50 M  88.01  84.50 D S
 86.01  44.50 M  86.01  84.50 D S
 84.01  44.50 M  84.01  84.50 D S
 82.01  44.50 M  82.01  84.50 D S
 80.01  44.50 M  80.01  84.50 D S
 78.01  44.50 M  78.01  84.50 D S
 76.01  44.50 M  76.01  84.50 D S
 74.01  44.50 M  74.01  84.50 D S
 72.01  44.50 M  72.01  84.50 D S
 70.01  44.50 M  70.01  84.50 D S
 68.01  44.50 M  68.01  84.50 D S
 66.01  44.50 M  66.01  84.50 D S
 64.01  44.50 M  64.01  84.50 D S
 62.01  44.50 M  62.01  84.50 D S
 60.01  44.50 M  60.01  84.50 D S
101.97  57.65 M 106.43  54.50 D 107.91  54.50 D 107.91  58.70 D S
106.43  57.65 M 110.88  57.65 D S
 98.01 133.50 M  98.01 173.50 D S
 96.01 133.50 M  96.01 173.50 D S
 94.01 133.50 M  94.01 173.50 D S
 92.01 133.50 M  92.01 173.50 D S
 90.01 133.50 M  90.01 173.50 D S
 88.01 133.50 M  88.01 173.50 D S
 86.01 133.50 M  86.01 173.50 D S
 84.01 133.50 M  84.01 173.50 D S
 82.01 133.50 M  82.01 173.50 D S
 80.01 133.50 M  80.01 173.50 D S
 78.01 133.50 M  78.01 173.50 D S
 76.01 133.50 M  76.01 173.50 D S
 74.01 133.50 M  74.01 173.50 D S
 72.01 133.50 M  72.01 173.50 D S
 70.01 133.50 M  70.01 173.50 D S
 68.01 133.50 M  68.01 173.50 D S
 66.01 133.50 M  66.01 173.50 D S
 64.01 133.50 M  64.01 173.50 D S
 62.01 133.50 M  62.01 173.50 D S
 60.01 133.50 M  60.01 173.50 D S
101.97 156.65 M 106.43 153.50 D 107.91 153.50 D 107.91 157.70 D S
106.43 156.65 M 110.88 156.65 D S
 38.01   0.00 M  38.01  40.00 D S
 36.01   0.00 M  36.01  40.00 D S
 34.01   0.00 M  34.01  40.00 D S
 32.01   0.00 M  32.01  40.00 D S
 30.01   0.00 M  30.01  40.00 D S
 28.01   0.00 M  28.01  40.00 D S
 26.01   0.00 M  26.01  40.00 D S
 24.01   0.00 M  24.01  40.00 D S
 22.01   0.00 M  22.01  40.00 D S
 20.01   0.00 M  20.01  40.00 D S
 18.01   0.00 M  18.01  40.00 D S
 16.01   0.00 M  16.01  40.00 D S
 14.01   0.00 M  14.01  40.00 D S
 12.01   0.00 M  12.01  40.00 D S
 10.01   0.00 M  10.01  40.00 D S
  8.01   0.00 M   8.01  40.00 D S
  6.01   0.00 M   6.01  40.00 D S
  4.01   0.00 M   4.01  40.00 D S
  2.01   0.00 M   2.01  40.00 D S
  0.01   0.00 M   0.01  40.00 D S
 42.97  13.15 M  47.42  10.00 D  48.91  10.00 D  48.91  14.20 D S
 47.42  13.15 M  51.88  13.15 D S
 38.01  89.00 M  38.01 129.00 D S
 36.01  89.00 M  36.01 129.00 D S
 34.01  89.00 M  34.01 129.00 D S
 32.01  89.00 M  32.01 129.00 D S
 30.01  89.00 M  30.01 129.00 D S
 28.01  89.00 M  28.01 129.00 D S
 26.01  89.00 M  26.01 129.00 D S
 24.01  89.00 M  24.01 129.00 D S
 22.01  89.00 M  22.01 129.00 D S
 20.01  89.00 M  20.01 129.00 D S
 18.01  89.00 M  18.01 129.00 D S
 16.01  89.00 M  16.01 129.00 D S
 14.01  89.00 M  14.01 129.00 D S
 12.01  89.00 M  12.01 129.00 D S
 10.01  89.00 M  10.01 129.00 D S
  8.01  89.00 M   8.01 129.00 D S
  6.01  89.00 M   6.01 129.00 D S
  4.01  89.00 M   4.01 129.00 D S
  2.01  89.00 M   2.01 129.00 D S
  0.01  89.00 M   0.01 129.00 D S
 42.97 102.15 M  47.42  99.00 D  48.91  99.00 D  48.91 103.20 D S
 47.42 102.15 M  51.88 102.15 D S
 38.01 178.00 M  38.01 218.00 D S
 36.01 178.00 M  36.01 218.00 D S
 34.01 178.00 M  34.01 218.00 D S
 32.01 178.00 M  32.01 218.00 D S
 30.01 178.00 M  30.01 218.00 D S
 28.01 178.00 M  28.01 218.00 D S
 26.01 178.00 M  26.01 218.00 D S
 24.01 178.00 M  24.01 218.00 D S
 22.01 178.00 M  22.01 218.00 D S
 20.01 178.00 M  20.01 218.00 D S
 18.01 178.00 M  18.01 218.00 D S
 16.01 178.00 M  16.01 218.00 D S
 14.01 178.00 M  14.01 218.00 D S
 12.01 178.00 M  12.01 218.00 D S
 10.01 178.00 M  10.01 218.00 D S
  8.01 178.00 M   8.01 218.00 D S
  6.01 178.00 M   6.01 218.00 D S
  4.01 178.00 M   4.01 218.00 D S
  2.01 178.00 M   2.01 218.00 D S
  0.01 178.00 M   0.01 218.00 D S
 42.97 181.15 M  47.42 178.00 D  48.91 178.00 D  48.91 182.20 D S
 47.42 181.15 M  51.88 181.15 D S
eop
@end
%%PageTrailer
%%Trailer
%%EOF
