%!PS-Adobe-2.0 EPSF-2.0
%%Title: /home/gijs/.chiplotle/output/20180115_174905.eps
%%Creator: hp2xx 3.4.4 (c) 1991-1994 by H. Werntges, 1999-2003 by M. Kroeker
%%CreationDate: Mon Jan 15 17:49:05 2018
%%Pages: 1
%%BoundingBox: 0 0 315 619
%%EndComments

%%BeginProcSet:
/PSSave save def
/PSDict 200 dict def
PSDict begin
/@restore /restore load def
/restore
   {vmstatus pop
    dup @VMused lt {pop @VMused} if
    exch pop exch @restore /@VMused exch def
   } def
/@pri
   {
    ( ) print
    (                                       ) cvs print
   } def
/@start
   {
    vmstatus pop /@VMused exch def pop
   } def
/@end
   {(VM Used: ) print @VMused @pri
    (. Unused: ) print vmstatus @VMused sub @pri pop pop
    (\n) print flush
    end
    PSSave restore
   } def
/bop
   {
    /SaveImage save def
   } def
/eop
   {
    showpage
    SaveImage restore
   } def
/@line
   {
%%    1 setlinejoin      %% now set from LA command
%%    1 setmiterlimit    %% now set from LA command
   } def
/@SetPlot
   {
    2.834646 2.834646 scale
      0.050   0.050 translate
     0.100 setlinewidth
   } def
/C {setrgbcolor} def
/D {lineto} def
/M {moveto} def
/S {stroke} def
/W {setlinewidth} def
/Z {stroke newpath} def
end
%%EndProcSet

%%BeginSetup
/#copies 1 def
%%EndSetup
%%Page: 1 1
%%BeginPageSetup
PSDict begin
@start
@line
@SetPlot

bop
%%EndPageSetup
  0.100 W
 S
119.00 -20.00 M  0.100 W
 S
119.00 -20.00 M 1 setlinecap
 S
119.00 -20.00 M 1 setlinejoin
 S
119.00 -20.00 M  0.000  0.000  0.000 C
 S
 99.00 127.01 M  97.01 129.00 D S
 99.00 125.01 M  95.01 129.00 D S
 99.00 123.01 M  93.01 129.00 D S
 99.00 121.01 M  91.01 129.00 D S
 99.00 119.01 M  89.01 129.00 D S
 99.00 117.01 M  87.01 129.00 D S
 99.00 115.01 M  85.01 129.00 D S
 99.00 113.01 M  83.01 129.00 D S
 99.00 111.01 M  81.01 129.00 D S
 99.00 109.01 M  79.01 129.00 D S
 99.00 107.01 M  77.01 129.00 D S
 99.00 105.01 M  75.01 129.00 D S
 99.00 103.01 M  73.01 129.00 D S
 99.00 101.01 M  71.01 129.00 D S
 99.00  99.01 M  69.01 129.00 D S
 99.00  97.01 M  67.01 129.00 D S
 99.00  95.01 M  65.01 129.00 D S
 99.00  93.01 M  63.01 129.00 D S
 99.00  91.01 M  61.01 129.00 D S
 99.00  89.01 M  59.01 129.00 D S
 97.01  89.00 M  59.00 127.01 D S
 95.01  89.00 M  59.00 125.01 D S
 93.01  89.00 M  59.00 123.01 D S
 91.01  89.00 M  59.00 121.01 D S
 89.01  89.00 M  59.00 119.01 D S
 87.01  89.00 M  59.00 117.01 D S
 85.01  89.00 M  59.00 115.01 D S
 83.01  89.00 M  59.00 113.01 D S
 81.01  89.00 M  59.00 111.01 D S
 79.01  89.00 M  59.00 109.01 D S
 77.01  89.00 M  59.00 107.01 D S
 75.01  89.00 M  59.00 105.01 D S
 73.01  89.00 M  59.00 103.01 D S
 71.01  89.00 M  59.00 101.01 D S
 69.01  89.00 M  59.00  99.01 D S
 67.01  89.00 M  59.00  97.01 D S
 65.01  89.00 M  59.00  95.01 D S
 63.01  89.00 M  59.00  93.01 D S
 61.01  89.00 M  59.00  91.01 D S
 59.01  89.00 M  59.00  89.01 D S
110.88 100.05 M 110.88 102.15 D S
110.88 101.10 M 101.97 101.10 D 103.46 100.05 D S
 99.00 216.01 M  97.01 218.00 D S
 99.00 214.01 M  95.01 218.00 D S
 99.00 212.01 M  93.01 218.00 D S
 99.00 210.01 M  91.01 218.00 D S
 99.00 208.01 M  89.01 218.00 D S
 99.00 206.01 M  87.01 218.00 D S
 99.00 204.01 M  85.01 218.00 D S
 99.00 202.01 M  83.01 218.00 D S
 99.00 200.01 M  81.01 218.00 D S
 99.00 198.01 M  79.01 218.00 D S
 99.00 196.01 M  77.01 218.00 D S
 99.00 194.01 M  75.01 218.00 D S
 99.00 192.01 M  73.01 218.00 D S
 99.00 190.01 M  71.01 218.00 D S
 99.00 188.01 M  69.01 218.00 D S
 99.00 186.01 M  67.01 218.00 D S
 99.00 184.01 M  65.01 218.00 D S
 99.00 182.01 M  63.01 218.00 D S
 99.00 180.01 M  61.01 218.00 D S
 99.00 178.01 M  59.01 218.00 D S
 97.01 178.00 M  59.00 216.01 D S
 95.01 178.00 M  59.00 214.01 D S
 93.01 178.00 M  59.00 212.01 D S
 91.01 178.00 M  59.00 210.01 D S
 89.01 178.00 M  59.00 208.01 D S
 87.01 178.00 M  59.00 206.01 D S
 85.01 178.00 M  59.00 204.01 D S
 83.01 178.00 M  59.00 202.01 D S
 81.01 178.00 M  59.00 200.01 D S
 79.01 178.00 M  59.00 198.01 D S
 77.01 178.00 M  59.00 196.01 D S
 75.01 178.00 M  59.00 194.01 D S
 73.01 178.00 M  59.00 192.01 D S
 71.01 178.00 M  59.00 190.01 D S
 69.01 178.00 M  59.00 188.01 D S
 67.01 178.00 M  59.00 186.01 D S
 65.01 178.00 M  59.00 184.01 D S
 63.01 178.00 M  59.00 182.01 D S
 61.01 178.00 M  59.00 180.01 D S
 59.01 178.00 M  59.00 178.01 D S
110.88 189.05 M 110.88 191.15 D S
110.88 190.10 M 101.97 190.10 D 103.46 189.05 D S
 40.00  39.01 M  39.01  40.00 D S
 40.00  37.01 M  37.01  40.00 D S
 40.00  35.01 M  35.01  40.00 D S
 40.00  33.01 M  33.01  40.00 D S
 40.00  31.01 M  31.01  40.00 D S
 40.00  29.01 M  29.01  40.00 D S
 40.00  27.01 M  27.01  40.00 D S
 40.00  25.01 M  25.01  40.00 D S
 40.00  23.01 M  23.01  40.00 D S
 40.00  21.01 M  21.01  40.00 D S
 40.00  19.01 M  19.01  40.00 D S
 40.00  17.01 M  17.01  40.00 D S
 40.00  15.01 M  15.01  40.00 D S
 40.00  13.01 M  13.01  40.00 D S
 40.00  11.01 M  11.01  40.00 D S
 40.00   9.01 M   9.01  40.00 D S
 40.00   7.01 M   7.01  40.00 D S
 40.00   5.01 M   5.01  40.00 D S
 40.00   3.01 M   3.01  40.00 D S
 40.00   1.01 M   1.01  40.00 D S
 39.01   0.00 M   0.00  39.01 D S
 37.01   0.00 M   0.00  37.01 D S
 35.01   0.00 M   0.00  35.01 D S
 33.01   0.00 M   0.00  33.01 D S
 31.01   0.00 M   0.00  31.01 D S
 29.01   0.00 M   0.00  29.01 D S
 27.01   0.00 M   0.00  27.01 D S
 25.01   0.00 M   0.00  25.01 D S
 23.01   0.00 M   0.00  23.01 D S
 21.01   0.00 M   0.00  21.01 D S
 19.01   0.00 M   0.00  19.01 D S
 17.01   0.00 M   0.00  17.01 D S
 15.01   0.00 M   0.00  15.01 D S
 13.01   0.00 M   0.00  13.01 D S
 11.01   0.00 M   0.00  11.01 D S
  9.01   0.00 M   0.00   9.01 D S
  7.01   0.00 M   0.00   7.01 D S
  5.01   0.00 M   0.00   5.01 D S
  3.01   0.00 M   0.00   3.01 D S
  1.01   0.00 M   0.00   1.01 D S
 51.88  11.05 M  51.88  13.15 D S
 51.88  12.10 M  42.97  12.10 D  44.45  11.05 D S
 44.45  11.05 M  1.000  0.000  0.000 C
 S
 99.00  46.00 M  59.00  46.00 D S
 99.00  48.00 M  59.00  48.00 D S
 99.00  50.00 M  59.00  50.00 D S
 99.00  52.00 M  59.00  52.00 D S
 99.00  54.00 M  59.00  54.00 D S
 99.00  56.00 M  59.00  56.00 D S
 99.00  58.00 M  59.00  58.00 D S
 99.00  60.00 M  59.00  60.00 D S
 99.00  62.00 M  59.00  62.00 D S
 99.00  64.00 M  59.00  64.00 D S
 99.00  66.00 M  59.00  66.00 D S
 99.00  68.00 M  59.00  68.00 D S
 99.00  70.00 M  59.00  70.00 D S
 99.00  72.00 M  59.00  72.00 D S
 99.00  74.00 M  59.00  74.00 D S
 99.00  76.00 M  59.00  76.00 D S
 99.00  78.00 M  59.00  78.00 D S
 99.00  80.00 M  59.00  80.00 D S
 99.00  82.00 M  59.00  82.00 D S
 99.00  84.00 M  59.00  84.00 D S
103.46  54.50 M 101.97  55.55 D 101.97  57.65 D 103.46  58.70 D 104.94  58.70 D
109.39  54.50 D 110.88  54.50 D 110.88  58.70 D S
 99.00 134.00 M  59.00 134.00 D S
 99.00 136.00 M  59.00 136.00 D S
 99.00 138.00 M  59.00 138.00 D S
 99.00 140.00 M  59.00 140.00 D S
 99.00 142.00 M  59.00 142.00 D S
 99.00 144.00 M  59.00 144.00 D S
 99.00 146.00 M  59.00 146.00 D S
 99.00 148.00 M  59.00 148.00 D S
 99.00 150.00 M  59.00 150.00 D S
 99.00 152.00 M  59.00 152.00 D S
 99.00 154.00 M  59.00 154.00 D S
 99.00 156.00 M  59.00 156.00 D S
 99.00 158.00 M  59.00 158.00 D S
 99.00 160.00 M  59.00 160.00 D S
 99.00 162.00 M  59.00 162.00 D S
 99.00 164.00 M  59.00 164.00 D S
 99.00 166.00 M  59.00 166.00 D S
 99.00 168.00 M  59.00 168.00 D S
 99.00 170.00 M  59.00 170.00 D S
 99.00 172.00 M  59.00 172.00 D S
103.46 143.50 M 101.97 144.55 D 101.97 146.65 D 103.46 147.70 D 104.94 147.70 D
109.39 143.50 D 110.88 143.50 D 110.88 147.70 D S
 40.00   0.00 M   0.00   0.00 D S
 40.00   2.00 M   0.00   2.00 D S
 40.00   4.00 M   0.00   4.00 D S
 40.00   6.00 M   0.00   6.00 D S
 40.00   8.00 M   0.00   8.00 D S
 40.00  10.00 M   0.00  10.00 D S
 40.00  12.00 M   0.00  12.00 D S
 40.00  14.00 M   0.00  14.00 D S
 40.00  16.00 M   0.00  16.00 D S
 40.00  18.00 M   0.00  18.00 D S
 40.00  20.00 M   0.00  20.00 D S
 40.00  22.00 M   0.00  22.00 D S
 40.00  24.00 M   0.00  24.00 D S
 40.00  26.00 M   0.00  26.00 D S
 40.00  28.00 M   0.00  28.00 D S
 40.00  30.00 M   0.00  30.00 D S
 40.00  32.00 M   0.00  32.00 D S
 40.00  34.00 M   0.00  34.00 D S
 40.00  36.00 M   0.00  36.00 D S
 40.00  38.00 M   0.00  38.00 D S
 44.45   0.00 M  42.97   1.05 D  42.97   3.15 D  44.45   4.20 D  45.94   4.20 D
 50.40   0.00 D  51.88   0.00 D  51.88   4.20 D S
 51.88   4.20 M  0.000  1.000  0.000 C
 S
 99.00   1.98 M  97.03   0.00 D S
 99.00   3.98 M  95.03   0.00 D S
 99.00   5.97 M  93.03   0.00 D S
 99.00   7.97 M  91.03   0.00 D S
 99.00   9.98 M  89.03   0.00 D S
 99.00  11.98 M  87.03   0.00 D S
 99.00  19.98 M  79.03   0.00 D S
 99.00  29.98 M  69.03   0.00 D S
 99.00  35.98 M  63.03   0.00 D S
 99.00  37.98 M  61.03   0.00 D S
 99.03  40.00 M  99.00  39.98 D S
 97.03  40.00 M  59.00   1.98 D S
 95.03  40.00 M  59.00   3.98 D S
 93.03  40.00 M  59.00   5.97 D S
 91.03  40.00 M  59.00   7.97 D S
 89.03  40.00 M  59.00   9.98 D S
 87.03  40.00 M  59.00  11.98 D S
 85.03  40.00 M  59.00  13.98 D S
 83.03  40.00 M  59.00  15.98 D S
 81.03  40.00 M  59.00  17.98 D S
 79.03  40.00 M  59.00  19.98 D S
 77.03  40.00 M  59.00  21.98 D S
 75.03  40.00 M  59.00  23.98 D S
 73.03  40.00 M  59.00  25.98 D S
 71.03  40.00 M  59.00  27.98 D S
 69.03  40.00 M  59.00  29.98 D S
 65.03  40.00 M  59.00  33.98 D S
 63.03  40.00 M  59.00  35.98 D S
 61.03  40.00 M  59.00  37.98 D S
109.39  10.00 M 110.88  11.05 D 110.88  13.15 D 109.39  14.20 D 107.91  14.20 D
106.43  13.15 D 106.43  12.10 D 101.97  14.20 D 101.97  10.00 D S
 99.00 133.98 M  98.53 133.50 D S
 99.00 135.98 M  96.53 133.50 D S
 99.00 137.98 M  94.53 133.50 D S
 99.00 139.98 M  92.53 133.50 D S
 99.00 141.98 M  90.53 133.50 D S
 99.00 143.98 M  88.53 133.50 D S
 99.00 145.98 M  86.53 133.50 D S
 99.00 147.98 M  84.53 133.50 D S
 99.00 149.98 M  82.53 133.50 D S
 99.00 151.98 M  80.53 133.50 D S
 99.00 153.98 M  78.53 133.50 D S
 99.00 155.98 M  76.53 133.50 D S
 99.00 157.98 M  74.53 133.50 D S
 99.00 159.98 M  72.53 133.50 D S
 99.00 161.98 M  70.53 133.50 D S
 99.00 163.98 M  68.53 133.50 D S
 99.00 165.98 M  66.53 133.50 D S
 99.00 167.98 M  64.53 133.50 D S
 99.00 169.98 M  62.53 133.50 D S
 99.00 171.98 M  60.53 133.50 D S
 98.53 173.50 M  59.00 133.98 D S
 96.53 173.50 M  59.00 135.98 D S
 94.53 173.50 M  59.00 137.98 D S
 92.53 173.50 M  59.00 139.98 D S
 90.53 173.50 M  59.00 141.98 D S
 88.53 173.50 M  59.00 143.98 D S
 86.53 173.50 M  59.00 145.98 D S
 84.53 173.50 M  59.00 147.98 D S
 82.53 173.50 M  59.00 149.98 D S
 80.53 173.50 M  59.00 151.98 D S
 78.53 173.50 M  59.00 153.98 D S
 76.53 173.50 M  59.00 155.98 D S
 74.53 173.50 M  59.00 157.98 D S
 72.53 173.50 M  59.00 159.98 D S
 70.53 173.50 M  59.00 161.98 D S
 68.53 173.50 M  59.00 163.98 D S
 66.53 173.50 M  59.00 165.98 D S
 64.53 173.50 M  59.00 167.98 D S
 62.53 173.50 M  59.00 169.98 D S
 60.53 173.50 M  59.00 171.98 D S
109.39 133.50 M 110.88 134.55 D 110.88 136.65 D 109.39 137.70 D 107.91 137.70 D
106.43 136.65 D 106.43 135.60 D 101.97 137.70 D 101.97 133.50 D S
 99.00 179.98 M  97.03 178.00 D S
 99.00 181.98 M  95.03 178.00 D S
 99.00 183.98 M  93.03 178.00 D S
 99.00 185.98 M  91.03 178.00 D S
 99.00 187.98 M  89.03 178.00 D S
 99.00 189.98 M  87.03 178.00 D S
 99.00 191.98 M  85.03 178.00 D S
 99.00 193.98 M  83.03 178.00 D S
 99.00 195.98 M  81.03 178.00 D S
 99.00 197.98 M  79.03 178.00 D S
 99.00 199.98 M  77.03 178.00 D S
 99.00 201.98 M  75.03 178.00 D S
 99.00 203.98 M  73.03 178.00 D S
 99.00 205.98 M  71.03 178.00 D S
 99.00 207.98 M  69.03 178.00 D S
 99.00 209.98 M  67.03 178.00 D S
 99.00 211.98 M  65.03 178.00 D S
 99.00 213.98 M  63.03 178.00 D S
 99.00 215.98 M  61.03 178.00 D S
 99.03 218.00 M  99.00 217.98 D S
 97.03 218.00 M  59.00 179.98 D S
 95.03 218.00 M  59.00 181.98 D S
 93.03 218.00 M  59.00 183.98 D S
 91.03 218.00 M  59.00 185.98 D S
 89.03 218.00 M  59.00 187.98 D S
 87.03 218.00 M  59.00 189.98 D S
 85.03 218.00 M  59.00 191.98 D S
 83.03 218.00 M  59.00 193.98 D S
 81.03 218.00 M  59.00 195.98 D S
 79.03 218.00 M  59.00 197.98 D S
 77.03 218.00 M  59.00 199.98 D S
 75.03 218.00 M  59.00 201.98 D S
 73.03 218.00 M  59.00 203.98 D S
 71.03 218.00 M  59.00 205.98 D S
 69.03 218.00 M  59.00 207.98 D S
 67.03 218.00 M  59.00 209.98 D S
 65.03 218.00 M  59.00 211.98 D S
 63.03 218.00 M  59.00 213.98 D S
 61.03 218.00 M  59.00 215.98 D S
109.39 178.00 M 110.88 179.05 D 110.88 181.15 D 109.39 182.20 D 107.91 182.20 D
106.43 181.15 D 106.43 180.10 D 101.97 182.20 D 101.97 178.00 D S
101.97 178.00 M  0.000  0.000  1.000 C
 S
 97.01   0.00 M  97.01  40.00 D S
 95.01   0.00 M  95.01  40.00 D S
 93.01   0.00 M  93.01  40.00 D S
 91.01   0.00 M  91.01  40.00 D S
 89.01   0.00 M  89.01  40.00 D S
 87.01   0.00 M  87.01  40.00 D S
 85.01   0.00 M  85.01  40.00 D S
 83.01   0.00 M  83.01  40.00 D S
 81.01   0.00 M  81.01  40.00 D S
 79.01   0.00 M  79.01  40.00 D S
 77.01   0.00 M  77.01  40.00 D S
 75.01   0.00 M  75.01  40.00 D S
 73.01   0.00 M  73.01  40.00 D S
 71.01   0.00 M  71.01  40.00 D S
 69.01   0.00 M  69.01  40.00 D S
 67.01   0.00 M  67.01  40.00 D S
 65.01   0.00 M  65.01  40.00 D S
 63.01   0.00 M  63.01  40.00 D S
 61.01   0.00 M  61.01  40.00 D S
 59.01   0.00 M  59.01  40.00 D S
101.97   3.15 M 106.43   0.00 D 107.91   0.00 D 107.91   4.20 D S
106.43   3.15 M 110.88   3.15 D S
 97.01  44.50 M  97.01  84.50 D S
 95.01  44.50 M  95.01  84.50 D S
 93.01  44.50 M  93.01  84.50 D S
 91.01  44.50 M  91.01  84.50 D S
 89.01  44.50 M  89.01  84.50 D S
 87.01  44.50 M  87.01  84.50 D S
 85.01  44.50 M  85.01  84.50 D S
 83.01  44.50 M  83.01  84.50 D S
 81.01  44.50 M  81.01  84.50 D S
 79.01  44.50 M  79.01  84.50 D S
 77.01  44.50 M  77.01  84.50 D S
 75.01  44.50 M  75.01  84.50 D S
 73.01  44.50 M  73.01  84.50 D S
 71.01  44.50 M  71.01  84.50 D S
 69.01  44.50 M  69.01  84.50 D S
 67.01  44.50 M  67.01  84.50 D S
 65.01  44.50 M  65.01  84.50 D S
 63.01  44.50 M  63.01  84.50 D S
 61.01  44.50 M  61.01  84.50 D S
 59.01  44.50 M  59.01  84.50 D S
101.97  47.65 M 106.43  44.50 D 107.91  44.50 D 107.91  48.70 D S
106.43  47.65 M 110.88  47.65 D S
 97.01  89.00 M  97.01 129.00 D S
 95.01  89.00 M  95.01 129.00 D S
 93.01  89.00 M  93.01 129.00 D S
 91.01  89.00 M  91.01 129.00 D S
 89.01  89.00 M  89.01 129.00 D S
 87.01  89.00 M  87.01 129.00 D S
 85.01  89.00 M  85.01 129.00 D S
 83.01  89.00 M  83.01 129.00 D S
 81.01  89.00 M  81.01 129.00 D S
 79.01  89.00 M  79.01 129.00 D S
 77.01  89.00 M  77.01 129.00 D S
 75.01  89.00 M  75.01 129.00 D S
 73.01  89.00 M  73.01 129.00 D S
 71.01  89.00 M  71.01 129.00 D S
 69.01  89.00 M  69.01 129.00 D S
 67.01  89.00 M  67.01 129.00 D S
 65.01  89.00 M  65.01 129.00 D S
 63.01  89.00 M  63.01 129.00 D S
 61.01  89.00 M  61.01 129.00 D S
 59.01  89.00 M  59.01 129.00 D S
101.97  92.15 M 106.43  89.00 D 107.91  89.00 D 107.91  93.20 D S
106.43  92.15 M 110.88  92.15 D S
eop
@end
%%PageTrailer
%%Trailer
%%EOF
